G04 EAGLE Gerber RS-274X export*
G75*
%MOMM*%
%FSLAX34Y34*%
%LPD*%
%INedge-milling*%
%IPPOS*%
%AMOC8*
5,1,8,0,0,1.08239X$1,22.5*%
G01*
%ADD10C,0.254000*%


D10*
X-990Y-1012D02*
X1317600Y-1012D01*
X1317600Y1283988D01*
X-990Y1283988D01*
X-990Y-1012D01*
X1218498Y559378D02*
X1218630Y556771D01*
X1219016Y554239D01*
X1219644Y551795D01*
X1220502Y549452D01*
X1221576Y547223D01*
X1222853Y545120D01*
X1224321Y543157D01*
X1225967Y541346D01*
X1227778Y539701D01*
X1229741Y538233D01*
X1231843Y536955D01*
X1234073Y535881D01*
X1236415Y535024D01*
X1238859Y534396D01*
X1241391Y534009D01*
X1243999Y533878D01*
X1246606Y534009D01*
X1249138Y534396D01*
X1251582Y535024D01*
X1253924Y535881D01*
X1256154Y536955D01*
X1258256Y538233D01*
X1260219Y539701D01*
X1262030Y541346D01*
X1263676Y543157D01*
X1265144Y545120D01*
X1266421Y547223D01*
X1267495Y549452D01*
X1268353Y551795D01*
X1268981Y554239D01*
X1269367Y556771D01*
X1269499Y559378D01*
X1269367Y561985D01*
X1268981Y564516D01*
X1268353Y566960D01*
X1267495Y569302D01*
X1266421Y571531D01*
X1265144Y573633D01*
X1263676Y575596D01*
X1262030Y577407D01*
X1260219Y579052D01*
X1258256Y580520D01*
X1256154Y581797D01*
X1253924Y582871D01*
X1251582Y583729D01*
X1249138Y584357D01*
X1246606Y584743D01*
X1243999Y584875D01*
X1241391Y584743D01*
X1238859Y584357D01*
X1236415Y583729D01*
X1234073Y582871D01*
X1231843Y581797D01*
X1229741Y580520D01*
X1227778Y579052D01*
X1225967Y577407D01*
X1224321Y575596D01*
X1222853Y573633D01*
X1221576Y571531D01*
X1220502Y569302D01*
X1219644Y566960D01*
X1219016Y564516D01*
X1218630Y561985D01*
X1218498Y559378D01*
X522599Y254577D02*
X522678Y251438D01*
X522914Y248340D01*
X523302Y245287D01*
X523838Y242283D01*
X524519Y239332D01*
X525341Y236437D01*
X526301Y233603D01*
X527393Y230833D01*
X528614Y228131D01*
X529961Y225501D01*
X531430Y222946D01*
X533017Y220471D01*
X534718Y218080D01*
X536529Y215775D01*
X538446Y213562D01*
X540466Y211444D01*
X542584Y209424D01*
X544798Y207507D01*
X547102Y205696D01*
X549494Y203995D01*
X551969Y202409D01*
X554523Y200940D01*
X557153Y199593D01*
X559855Y198371D01*
X562626Y197279D01*
X565460Y196320D01*
X568355Y195498D01*
X571306Y194817D01*
X574310Y194281D01*
X577363Y193893D01*
X580461Y193657D01*
X583600Y193578D01*
X586738Y193657D01*
X589836Y193893D01*
X592889Y194281D01*
X595893Y194817D01*
X598844Y195498D01*
X601738Y196320D01*
X604573Y197279D01*
X607343Y198371D01*
X610045Y199593D01*
X612675Y200940D01*
X615229Y202409D01*
X617704Y203995D01*
X620096Y205696D01*
X622400Y207507D01*
X624613Y209424D01*
X626732Y211444D01*
X628752Y213562D01*
X630669Y215775D01*
X632480Y218080D01*
X634181Y220471D01*
X635767Y222946D01*
X637236Y225501D01*
X638583Y228131D01*
X639805Y230833D01*
X640897Y233603D01*
X641856Y236437D01*
X642678Y239332D01*
X643359Y242283D01*
X643896Y245287D01*
X644283Y248340D01*
X644519Y251438D01*
X644598Y254577D01*
X644519Y257716D01*
X644283Y260814D01*
X643896Y263866D01*
X643359Y266870D01*
X642678Y269821D01*
X641856Y272716D01*
X640897Y275550D01*
X639805Y278321D01*
X638583Y281023D01*
X637236Y283653D01*
X635767Y286207D01*
X634181Y288682D01*
X632480Y291074D01*
X630669Y293378D01*
X628752Y295591D01*
X626732Y297710D01*
X624613Y299729D01*
X622400Y301647D01*
X620096Y303457D01*
X617704Y305158D01*
X615229Y306745D01*
X612675Y308213D01*
X610045Y309560D01*
X607343Y310782D01*
X604573Y311874D01*
X601738Y312833D01*
X598844Y313655D01*
X595893Y314336D01*
X592889Y314873D01*
X589836Y315261D01*
X586738Y315496D01*
X583600Y315575D01*
X580461Y315496D01*
X577363Y315261D01*
X574310Y314873D01*
X571306Y314336D01*
X568355Y313655D01*
X565460Y312833D01*
X562626Y311874D01*
X559855Y310782D01*
X557153Y309560D01*
X554523Y308213D01*
X551969Y306745D01*
X549494Y305158D01*
X547102Y303457D01*
X544798Y301647D01*
X542584Y299729D01*
X540466Y297710D01*
X538446Y295591D01*
X536529Y293378D01*
X534718Y291074D01*
X533017Y288682D01*
X531430Y286207D01*
X529961Y283653D01*
X528614Y281023D01*
X527393Y278321D01*
X526301Y275550D01*
X525341Y272716D01*
X524519Y269821D01*
X523838Y266870D01*
X523302Y263866D01*
X522914Y260814D01*
X522678Y257716D01*
X522599Y254577D01*
X357500Y254577D02*
X357579Y251438D01*
X357815Y248340D01*
X358203Y245287D01*
X358739Y242283D01*
X359420Y239332D01*
X360242Y236437D01*
X361201Y233603D01*
X362293Y230833D01*
X363515Y228131D01*
X364862Y225501D01*
X366331Y222946D01*
X367917Y220471D01*
X369618Y218080D01*
X371429Y215775D01*
X373346Y213562D01*
X375366Y211444D01*
X377484Y209424D01*
X379697Y207507D01*
X382002Y205696D01*
X384393Y203995D01*
X386868Y202409D01*
X389422Y200940D01*
X392053Y199593D01*
X394755Y198371D01*
X397525Y197279D01*
X400359Y196320D01*
X403254Y195498D01*
X406205Y194817D01*
X409209Y194281D01*
X412262Y193893D01*
X415359Y193657D01*
X418499Y193578D01*
X421638Y193657D01*
X424735Y193893D01*
X427788Y194281D01*
X430792Y194817D01*
X433743Y195498D01*
X436638Y196320D01*
X439473Y197279D01*
X442243Y198371D01*
X444945Y199593D01*
X447575Y200940D01*
X450129Y202409D01*
X452604Y203995D01*
X454996Y205696D01*
X457301Y207507D01*
X459514Y209424D01*
X461632Y211444D01*
X463652Y213562D01*
X465570Y215775D01*
X467380Y218080D01*
X469081Y220471D01*
X470668Y222946D01*
X472137Y225501D01*
X473484Y228131D01*
X474705Y230833D01*
X475798Y233603D01*
X476757Y236437D01*
X477579Y239332D01*
X478260Y242283D01*
X478796Y245287D01*
X479184Y248340D01*
X479420Y251438D01*
X479499Y254577D01*
X479420Y257716D01*
X479184Y260814D01*
X478796Y263866D01*
X478260Y266870D01*
X477579Y269821D01*
X476757Y272716D01*
X475798Y275550D01*
X474705Y278321D01*
X473484Y281023D01*
X472137Y283653D01*
X470668Y286207D01*
X469081Y288682D01*
X467380Y291074D01*
X465570Y293378D01*
X463652Y295591D01*
X461632Y297710D01*
X459514Y299729D01*
X457301Y301647D01*
X454996Y303457D01*
X452604Y305158D01*
X450129Y306745D01*
X447575Y308213D01*
X444945Y309560D01*
X442243Y310782D01*
X439473Y311874D01*
X436638Y312833D01*
X433743Y313655D01*
X430792Y314336D01*
X427788Y314873D01*
X424735Y315261D01*
X421638Y315496D01*
X418499Y315575D01*
X415359Y315496D01*
X412262Y315261D01*
X409209Y314873D01*
X406205Y314336D01*
X403254Y313655D01*
X400359Y312833D01*
X397525Y311874D01*
X394755Y310782D01*
X392053Y309560D01*
X389422Y308213D01*
X386868Y306745D01*
X384393Y305158D01*
X382002Y303457D01*
X379697Y301647D01*
X377484Y299729D01*
X375366Y297710D01*
X373346Y295591D01*
X371429Y293378D01*
X369618Y291074D01*
X367917Y288682D01*
X366331Y286207D01*
X364862Y283653D01*
X363515Y281023D01*
X362293Y278321D01*
X361201Y275550D01*
X360242Y272716D01*
X359420Y269821D01*
X358739Y266870D01*
X358203Y263866D01*
X357815Y260814D01*
X357579Y257716D01*
X357500Y254577D01*
X62799Y432375D02*
X62931Y429768D01*
X63317Y427236D01*
X63946Y424793D01*
X64803Y422451D01*
X65877Y420222D01*
X67154Y418120D01*
X68622Y416157D01*
X70268Y414346D01*
X72079Y412700D01*
X74042Y411232D01*
X76144Y409955D01*
X78373Y408881D01*
X80716Y408024D01*
X83160Y407396D01*
X85691Y407009D01*
X88298Y406878D01*
X90905Y407009D01*
X93437Y407396D01*
X95881Y408024D01*
X98224Y408881D01*
X100453Y409955D01*
X102556Y411232D01*
X104519Y412700D01*
X106330Y414346D01*
X107976Y416157D01*
X109444Y418120D01*
X110721Y420222D01*
X111795Y422451D01*
X112652Y424793D01*
X113281Y427236D01*
X113667Y429768D01*
X113799Y432375D01*
X113667Y434982D01*
X113281Y437514D01*
X112652Y439958D01*
X111795Y442301D01*
X110721Y444530D01*
X109444Y446632D01*
X107976Y448595D01*
X106330Y450406D01*
X104519Y452052D01*
X102556Y453520D01*
X100453Y454797D01*
X98224Y455871D01*
X95881Y456729D01*
X93437Y457357D01*
X90905Y457743D01*
X88298Y457875D01*
X85691Y457743D01*
X83160Y457357D01*
X80716Y456729D01*
X78373Y455871D01*
X76144Y454797D01*
X74042Y453520D01*
X72079Y452052D01*
X70268Y450406D01*
X68622Y448595D01*
X67154Y446632D01*
X65877Y444530D01*
X64803Y442301D01*
X63946Y439958D01*
X63317Y437514D01*
X62931Y434982D01*
X62799Y432375D01*
X192399Y254577D02*
X192478Y251438D01*
X192714Y248340D01*
X193102Y245287D01*
X193638Y242283D01*
X194319Y239332D01*
X195141Y236437D01*
X196100Y233603D01*
X197192Y230833D01*
X198414Y228131D01*
X199761Y225501D01*
X201230Y222946D01*
X202817Y220471D01*
X204517Y218080D01*
X206328Y215775D01*
X208246Y213562D01*
X210265Y211444D01*
X212384Y209424D01*
X214597Y207507D01*
X216902Y205696D01*
X219293Y203995D01*
X221768Y202409D01*
X224323Y200940D01*
X226953Y199593D01*
X229655Y198371D01*
X232425Y197279D01*
X235260Y196320D01*
X238154Y195498D01*
X241106Y194817D01*
X244109Y194281D01*
X247162Y193893D01*
X250260Y193657D01*
X253399Y193578D01*
X256538Y193657D01*
X259636Y193893D01*
X262689Y194281D01*
X265693Y194817D01*
X268644Y195498D01*
X271539Y196320D01*
X274373Y197279D01*
X277143Y198371D01*
X279845Y199593D01*
X282475Y200940D01*
X285030Y202409D01*
X287505Y203995D01*
X289896Y205696D01*
X292200Y207507D01*
X294414Y209424D01*
X296532Y211444D01*
X298552Y213562D01*
X300469Y215775D01*
X302280Y218080D01*
X303981Y220471D01*
X305567Y222946D01*
X307036Y225501D01*
X308383Y228131D01*
X309605Y230833D01*
X310697Y233603D01*
X311656Y236437D01*
X312478Y239332D01*
X313159Y242283D01*
X313695Y245287D01*
X314083Y248340D01*
X314319Y251438D01*
X314398Y254577D01*
X314319Y257716D01*
X314083Y260814D01*
X313695Y263866D01*
X313159Y266870D01*
X312478Y269821D01*
X311656Y272716D01*
X310697Y275550D01*
X309605Y278321D01*
X308383Y281023D01*
X307036Y283653D01*
X305567Y286207D01*
X303981Y288682D01*
X302280Y291074D01*
X300469Y293378D01*
X298552Y295591D01*
X296532Y297710D01*
X294414Y299729D01*
X292200Y301647D01*
X289896Y303457D01*
X287505Y305158D01*
X285030Y306745D01*
X282475Y308213D01*
X279845Y309560D01*
X277143Y310782D01*
X274373Y311874D01*
X271539Y312833D01*
X268644Y313655D01*
X265693Y314336D01*
X262689Y314873D01*
X259636Y315261D01*
X256538Y315496D01*
X253399Y315575D01*
X250260Y315496D01*
X247162Y315261D01*
X244109Y314873D01*
X241106Y314336D01*
X238154Y313655D01*
X235260Y312833D01*
X232425Y311874D01*
X229655Y310782D01*
X226953Y309560D01*
X224323Y308213D01*
X221768Y306745D01*
X219293Y305158D01*
X216902Y303457D01*
X214597Y301647D01*
X212384Y299729D01*
X210265Y297710D01*
X208246Y295591D01*
X206328Y293378D01*
X204517Y291074D01*
X202817Y288682D01*
X201230Y286207D01*
X199761Y283653D01*
X198414Y281023D01*
X197192Y278321D01*
X196100Y275550D01*
X195141Y272716D01*
X194319Y269821D01*
X193638Y266870D01*
X193102Y263866D01*
X192714Y260814D01*
X192478Y257716D01*
X192399Y254577D01*
X888299Y432375D02*
X888431Y429768D01*
X888817Y427236D01*
X889446Y424793D01*
X890303Y422451D01*
X891377Y420222D01*
X892654Y418120D01*
X894122Y416157D01*
X895768Y414346D01*
X897579Y412700D01*
X899541Y411232D01*
X901644Y409955D01*
X903872Y408881D01*
X906215Y408024D01*
X908658Y407396D01*
X911190Y407009D01*
X913796Y406878D01*
X916404Y407009D01*
X918936Y407396D01*
X921379Y408024D01*
X923722Y408881D01*
X925951Y409955D01*
X928054Y411232D01*
X930017Y412700D01*
X931828Y414346D01*
X933474Y416157D01*
X934942Y418120D01*
X936219Y420222D01*
X937293Y422451D01*
X938150Y424793D01*
X938779Y427236D01*
X939165Y429768D01*
X939297Y432375D01*
X939165Y434982D01*
X938779Y437514D01*
X938150Y439958D01*
X937293Y442301D01*
X936219Y444530D01*
X934942Y446632D01*
X933474Y448595D01*
X931828Y450406D01*
X930017Y452052D01*
X928054Y453520D01*
X925951Y454797D01*
X923722Y455871D01*
X921379Y456729D01*
X918936Y457357D01*
X916404Y457743D01*
X913796Y457875D01*
X911190Y457743D01*
X908658Y457357D01*
X906215Y456729D01*
X903872Y455871D01*
X901644Y454797D01*
X899541Y453520D01*
X897579Y452052D01*
X895768Y450406D01*
X894122Y448595D01*
X892654Y446632D01*
X891377Y444530D01*
X890303Y442301D01*
X889446Y439958D01*
X888817Y437514D01*
X888431Y434982D01*
X888299Y432375D01*
X219400Y438876D02*
X219575Y435400D01*
X220090Y432024D01*
X220928Y428766D01*
X222071Y425642D01*
X223503Y422670D01*
X225206Y419867D01*
X227163Y417249D01*
X229358Y414835D01*
X231772Y412640D01*
X234390Y410683D01*
X237193Y408980D01*
X240165Y407548D01*
X243289Y406405D01*
X246547Y405567D01*
X249923Y405051D01*
X253399Y404876D01*
X256875Y405051D01*
X260251Y405567D01*
X263510Y406405D01*
X266633Y407548D01*
X269605Y408980D01*
X272409Y410683D01*
X275026Y412640D01*
X277441Y414835D01*
X279635Y417249D01*
X281592Y419867D01*
X283295Y422670D01*
X284727Y425642D01*
X285870Y428766D01*
X286708Y432024D01*
X287223Y435400D01*
X287399Y438876D01*
X287223Y442352D01*
X286708Y445728D01*
X285870Y448987D01*
X284727Y452110D01*
X283295Y455082D01*
X281592Y457886D01*
X279635Y460503D01*
X277441Y462918D01*
X275026Y465112D01*
X272409Y467069D01*
X269605Y468772D01*
X266633Y470204D01*
X263510Y471347D01*
X260251Y472185D01*
X256875Y472700D01*
X253399Y472875D01*
X249923Y472700D01*
X246547Y472185D01*
X243289Y471347D01*
X240165Y470204D01*
X237193Y468772D01*
X234390Y467069D01*
X231772Y465112D01*
X229358Y462918D01*
X227163Y460503D01*
X225206Y457886D01*
X223503Y455082D01*
X222071Y452110D01*
X220928Y448987D01*
X220090Y445728D01*
X219575Y442352D01*
X219400Y438876D01*
X221777Y1080075D02*
X221940Y1076842D01*
X222419Y1073702D01*
X223198Y1070671D01*
X224262Y1067766D01*
X225593Y1065002D01*
X227177Y1062395D01*
X228998Y1059961D01*
X231039Y1057715D01*
X233284Y1055674D01*
X235719Y1053854D01*
X238326Y1052270D01*
X241090Y1050939D01*
X243996Y1049876D01*
X247026Y1049096D01*
X250166Y1048617D01*
X253399Y1048454D01*
X256633Y1048617D01*
X259772Y1049096D01*
X262803Y1049876D01*
X265708Y1050939D01*
X268473Y1052270D01*
X271080Y1053854D01*
X273514Y1055674D01*
X275760Y1057715D01*
X277801Y1059961D01*
X279621Y1062395D01*
X281205Y1065002D01*
X282537Y1067766D01*
X283600Y1070671D01*
X284379Y1073702D01*
X284858Y1076842D01*
X285022Y1080075D01*
X284858Y1083308D01*
X284379Y1086448D01*
X283600Y1089478D01*
X282537Y1092384D01*
X281205Y1095148D01*
X279621Y1097755D01*
X277801Y1100190D01*
X275760Y1102436D01*
X273514Y1104477D01*
X271080Y1106298D01*
X268473Y1107882D01*
X265708Y1109214D01*
X262803Y1110277D01*
X259772Y1111057D01*
X256633Y1111536D01*
X253399Y1111699D01*
X250166Y1111536D01*
X247026Y1111057D01*
X243996Y1110277D01*
X241090Y1109214D01*
X238326Y1107882D01*
X235719Y1106298D01*
X233284Y1104477D01*
X231039Y1102436D01*
X228998Y1100190D01*
X227177Y1097755D01*
X225593Y1095148D01*
X224262Y1092384D01*
X223198Y1089478D01*
X222419Y1086448D01*
X221940Y1083308D01*
X221777Y1080075D01*
X1212376Y1080075D02*
X1212539Y1076842D01*
X1213018Y1073702D01*
X1213798Y1070671D01*
X1214861Y1067766D01*
X1216193Y1065002D01*
X1217777Y1062395D01*
X1219597Y1059961D01*
X1221638Y1057715D01*
X1223884Y1055674D01*
X1226319Y1053854D01*
X1228926Y1052270D01*
X1231690Y1050939D01*
X1234595Y1049876D01*
X1237626Y1049096D01*
X1240766Y1048617D01*
X1243999Y1048454D01*
X1247232Y1048617D01*
X1250372Y1049096D01*
X1253403Y1049876D01*
X1256308Y1050939D01*
X1259072Y1052270D01*
X1261680Y1053854D01*
X1264114Y1055674D01*
X1266360Y1057715D01*
X1268400Y1059961D01*
X1270221Y1062395D01*
X1271805Y1065002D01*
X1273136Y1067766D01*
X1274199Y1070671D01*
X1274978Y1073702D01*
X1275458Y1076842D01*
X1275621Y1080075D01*
X1275458Y1083308D01*
X1274978Y1086448D01*
X1274199Y1089478D01*
X1273136Y1092384D01*
X1271805Y1095148D01*
X1270221Y1097755D01*
X1268400Y1100190D01*
X1266360Y1102436D01*
X1264114Y1104477D01*
X1261680Y1106298D01*
X1259072Y1107882D01*
X1256308Y1109214D01*
X1253403Y1110277D01*
X1250372Y1111057D01*
X1247232Y1111536D01*
X1243999Y1111699D01*
X1240766Y1111536D01*
X1237626Y1111057D01*
X1234595Y1110277D01*
X1231690Y1109214D01*
X1228926Y1107882D01*
X1226319Y1106298D01*
X1223884Y1104477D01*
X1221638Y1102436D01*
X1219597Y1100190D01*
X1217777Y1097755D01*
X1216193Y1095148D01*
X1214861Y1092384D01*
X1213798Y1089478D01*
X1213018Y1086448D01*
X1212539Y1083308D01*
X1212376Y1080075D01*
X555889Y622878D02*
X556062Y620592D01*
X556564Y618414D01*
X557369Y616369D01*
X558452Y614485D01*
X559788Y612785D01*
X561351Y611295D01*
X563116Y610040D01*
X565056Y609047D01*
X567148Y608340D01*
X569364Y607945D01*
X570899Y607868D01*
X573185Y608041D01*
X575362Y608542D01*
X577406Y609348D01*
X579291Y610431D01*
X580991Y611766D01*
X582482Y613329D01*
X583736Y615094D01*
X584730Y617034D01*
X585437Y619126D01*
X585832Y621343D01*
X585910Y622878D01*
X585737Y625164D01*
X585235Y627341D01*
X584429Y629384D01*
X583346Y631268D01*
X582010Y632968D01*
X580447Y634457D01*
X578682Y635711D01*
X576741Y636704D01*
X574650Y637411D01*
X572434Y637806D01*
X570899Y637883D01*
X568613Y637710D01*
X566435Y637209D01*
X564391Y636404D01*
X562507Y635321D01*
X560806Y633986D01*
X559316Y632423D01*
X558062Y630660D01*
X557068Y628719D01*
X556361Y626629D01*
X555966Y624413D01*
X555889Y622878D01*
X386876Y940375D02*
X387039Y937141D01*
X387518Y934001D01*
X388298Y930971D01*
X389361Y928066D01*
X390693Y925302D01*
X392276Y922694D01*
X394097Y920260D01*
X396138Y918015D01*
X398383Y915974D01*
X400818Y914154D01*
X403425Y912570D01*
X406189Y911238D01*
X409095Y910175D01*
X412125Y909396D01*
X415265Y908917D01*
X418499Y908754D01*
X421732Y908917D01*
X424872Y909396D01*
X427902Y910175D01*
X430808Y911238D01*
X433572Y912570D01*
X436179Y914154D01*
X438613Y915974D01*
X440859Y918015D01*
X442900Y920260D01*
X444720Y922694D01*
X446304Y925302D01*
X447636Y928066D01*
X448699Y930971D01*
X449478Y934001D01*
X449958Y937141D01*
X450121Y940375D01*
X449958Y943608D01*
X449478Y946748D01*
X448699Y949778D01*
X447636Y952684D01*
X446304Y955448D01*
X444720Y958056D01*
X442900Y960490D01*
X440859Y962736D01*
X438613Y964777D01*
X436179Y966598D01*
X433572Y968182D01*
X430808Y969514D01*
X427902Y970577D01*
X424872Y971356D01*
X421732Y971836D01*
X418499Y971999D01*
X415265Y971836D01*
X412125Y971356D01*
X409095Y970577D01*
X406189Y969514D01*
X403425Y968182D01*
X400818Y966598D01*
X398383Y964777D01*
X396138Y962736D01*
X394097Y960490D01*
X392276Y958056D01*
X390693Y955448D01*
X389361Y952684D01*
X388298Y949778D01*
X387518Y946748D01*
X387039Y943608D01*
X386876Y940375D01*
X27299Y254577D02*
X27379Y251438D01*
X27614Y248340D01*
X28002Y245287D01*
X28539Y242283D01*
X29220Y239332D01*
X30042Y236437D01*
X31001Y233603D01*
X32093Y230833D01*
X33314Y228131D01*
X34661Y225501D01*
X36130Y222946D01*
X37717Y220471D01*
X39417Y218080D01*
X41228Y215775D01*
X43145Y213562D01*
X45165Y211444D01*
X47284Y209424D01*
X49497Y207507D01*
X51801Y205696D01*
X54193Y203995D01*
X56668Y202409D01*
X59222Y200940D01*
X61852Y199593D01*
X64554Y198371D01*
X67324Y197279D01*
X70159Y196320D01*
X73053Y195498D01*
X76005Y194817D01*
X79008Y194281D01*
X82061Y193893D01*
X85159Y193657D01*
X88298Y193578D01*
X91437Y193657D01*
X94535Y193893D01*
X97588Y194281D01*
X100592Y194817D01*
X103543Y195498D01*
X106438Y196320D01*
X109272Y197279D01*
X112042Y198371D01*
X114744Y199593D01*
X117375Y200940D01*
X119929Y202409D01*
X122404Y203995D01*
X124796Y205696D01*
X127100Y207507D01*
X129314Y209424D01*
X131432Y211444D01*
X133452Y213562D01*
X135369Y215775D01*
X137180Y218080D01*
X138881Y220471D01*
X140467Y222946D01*
X141936Y225501D01*
X143283Y228131D01*
X144505Y230833D01*
X145597Y233603D01*
X146556Y236437D01*
X147378Y239332D01*
X148059Y242283D01*
X148596Y245287D01*
X148984Y248340D01*
X149219Y251438D01*
X149299Y254577D01*
X149219Y257716D01*
X148984Y260814D01*
X148596Y263866D01*
X148059Y266870D01*
X147378Y269821D01*
X146556Y272716D01*
X145597Y275550D01*
X144505Y278321D01*
X143283Y281023D01*
X141936Y283653D01*
X140467Y286207D01*
X138881Y288682D01*
X137180Y291074D01*
X135369Y293378D01*
X133452Y295591D01*
X131432Y297710D01*
X129314Y299729D01*
X127100Y301647D01*
X124796Y303457D01*
X122404Y305158D01*
X119929Y306745D01*
X117375Y308213D01*
X114744Y309560D01*
X112042Y310782D01*
X109272Y311874D01*
X106438Y312833D01*
X103543Y313655D01*
X100592Y314336D01*
X97588Y314873D01*
X94535Y315261D01*
X91437Y315496D01*
X88298Y315575D01*
X85159Y315496D01*
X82061Y315261D01*
X79008Y314873D01*
X76005Y314336D01*
X73053Y313655D01*
X70159Y312833D01*
X67324Y311874D01*
X64554Y310782D01*
X61852Y309560D01*
X59222Y308213D01*
X56668Y306745D01*
X54193Y305158D01*
X51801Y303457D01*
X49497Y301647D01*
X47284Y299729D01*
X45165Y297710D01*
X43145Y295591D01*
X41228Y293378D01*
X39417Y291074D01*
X37717Y288682D01*
X36130Y286207D01*
X34661Y283653D01*
X33314Y281023D01*
X32093Y278321D01*
X31001Y275550D01*
X30042Y272716D01*
X29220Y269821D01*
X28539Y266870D01*
X28002Y263866D01*
X27614Y260814D01*
X27379Y257716D01*
X27299Y254577D01*
X56676Y940375D02*
X56839Y937141D01*
X57318Y934001D01*
X58097Y930971D01*
X59161Y928066D01*
X60493Y925302D01*
X62077Y922694D01*
X63897Y920260D01*
X65938Y918015D01*
X68184Y915974D01*
X70618Y914154D01*
X73226Y912570D01*
X75990Y911238D01*
X78895Y910175D01*
X81926Y909396D01*
X85065Y908917D01*
X88298Y908754D01*
X91531Y908917D01*
X94671Y909396D01*
X97702Y910175D01*
X100607Y911238D01*
X103371Y912570D01*
X105978Y914154D01*
X108413Y915974D01*
X110658Y918015D01*
X112699Y920260D01*
X114519Y922694D01*
X116103Y925302D01*
X117434Y928066D01*
X118498Y930971D01*
X119277Y934001D01*
X119756Y937141D01*
X119919Y940375D01*
X119756Y943608D01*
X119277Y946748D01*
X118498Y949778D01*
X117434Y952684D01*
X116103Y955448D01*
X114519Y958056D01*
X112699Y960490D01*
X110658Y962736D01*
X108413Y964777D01*
X105978Y966598D01*
X103371Y968182D01*
X100607Y969514D01*
X97702Y970577D01*
X94671Y971356D01*
X91531Y971836D01*
X88298Y971999D01*
X85065Y971836D01*
X81926Y971356D01*
X78895Y970577D01*
X75990Y969514D01*
X73226Y968182D01*
X70618Y966598D01*
X68184Y964777D01*
X65938Y962736D01*
X63897Y960490D01*
X62077Y958056D01*
X60493Y955448D01*
X59161Y952684D01*
X58097Y949778D01*
X57318Y946748D01*
X56839Y943608D01*
X56676Y940375D01*
X403488Y338713D02*
X403661Y336427D01*
X404163Y334250D01*
X404969Y332206D01*
X406052Y330321D01*
X407388Y328621D01*
X408951Y327130D01*
X410716Y325876D01*
X412656Y324882D01*
X414748Y324175D01*
X416964Y323780D01*
X418499Y323702D01*
X420785Y323875D01*
X422962Y324377D01*
X425006Y325183D01*
X426891Y326266D01*
X428591Y327602D01*
X430081Y329165D01*
X431336Y330930D01*
X432329Y332871D01*
X433036Y334962D01*
X433431Y337178D01*
X433509Y338713D01*
X433336Y340998D01*
X432834Y343176D01*
X432029Y345220D01*
X430946Y347105D01*
X429610Y348805D01*
X428047Y350295D01*
X426282Y351550D01*
X424342Y352543D01*
X422250Y353250D01*
X420033Y353646D01*
X418499Y353723D01*
X416213Y353550D01*
X414035Y353048D01*
X411991Y352243D01*
X410107Y351159D01*
X408406Y349823D01*
X406916Y348260D01*
X405662Y346496D01*
X404668Y344555D01*
X403961Y342464D01*
X403566Y340247D01*
X403488Y338713D01*
X797187Y686375D02*
X797360Y684089D01*
X797862Y681911D01*
X798667Y679867D01*
X799751Y677983D01*
X801087Y676282D01*
X802650Y674792D01*
X804414Y673538D01*
X806355Y672544D01*
X808446Y671837D01*
X810663Y671442D01*
X812197Y671364D01*
X814484Y671537D01*
X816662Y672039D01*
X818706Y672845D01*
X820591Y673928D01*
X822291Y675264D01*
X823781Y676827D01*
X825035Y678592D01*
X826028Y680532D01*
X826735Y682624D01*
X827130Y684840D01*
X827207Y686375D01*
X827035Y688661D01*
X826533Y690839D01*
X825728Y692883D01*
X824645Y694768D01*
X823309Y696468D01*
X821746Y697959D01*
X819982Y699213D01*
X818041Y700207D01*
X815949Y700914D01*
X813732Y701309D01*
X812197Y701387D01*
X809911Y701214D01*
X807734Y700712D01*
X805690Y699906D01*
X803805Y698823D01*
X802105Y697487D01*
X800615Y695923D01*
X799360Y694159D01*
X798367Y692218D01*
X797659Y690126D01*
X797264Y687909D01*
X797187Y686375D01*
X26848Y1162625D02*
X27044Y1160035D01*
X27612Y1157569D01*
X28524Y1155254D01*
X29751Y1153120D01*
X31264Y1151195D01*
X33034Y1149507D01*
X35033Y1148087D01*
X37231Y1146962D01*
X39600Y1146161D01*
X42111Y1145714D01*
X43850Y1145626D01*
X46438Y1145822D01*
X48904Y1146390D01*
X51219Y1147302D01*
X53354Y1148529D01*
X55279Y1150042D01*
X56967Y1151811D01*
X58388Y1153810D01*
X59513Y1156007D01*
X60314Y1158376D01*
X60761Y1160886D01*
X60849Y1162625D01*
X60653Y1165214D01*
X60085Y1167680D01*
X59173Y1169995D01*
X57946Y1172130D01*
X56433Y1174056D01*
X54663Y1175744D01*
X52664Y1177165D01*
X50466Y1178290D01*
X48098Y1179091D01*
X45588Y1179538D01*
X43850Y1179626D01*
X41260Y1179430D01*
X38793Y1178862D01*
X36478Y1177949D01*
X34343Y1176722D01*
X32417Y1175209D01*
X30730Y1173439D01*
X29309Y1171440D01*
X28184Y1169242D01*
X27383Y1166873D01*
X26936Y1164363D01*
X26848Y1162625D01*
X733687Y699075D02*
X733860Y696789D01*
X734362Y694611D01*
X735167Y692567D01*
X736251Y690682D01*
X737587Y688982D01*
X739150Y687492D01*
X740914Y686237D01*
X742855Y685244D01*
X744946Y684537D01*
X747163Y684142D01*
X748697Y684065D01*
X750984Y684237D01*
X753162Y684739D01*
X755206Y685545D01*
X757091Y686628D01*
X758791Y687964D01*
X760281Y689527D01*
X761535Y691291D01*
X762528Y693232D01*
X763235Y695323D01*
X763630Y697540D01*
X763707Y699075D01*
X763535Y701361D01*
X763033Y703538D01*
X762228Y705582D01*
X761145Y707467D01*
X759809Y709168D01*
X758246Y710658D01*
X756482Y711913D01*
X754541Y712907D01*
X752449Y713614D01*
X750232Y714009D01*
X748697Y714087D01*
X746411Y713914D01*
X744234Y713412D01*
X742190Y712606D01*
X740305Y711523D01*
X738605Y710186D01*
X737115Y708623D01*
X735860Y706858D01*
X734867Y704917D01*
X734159Y702826D01*
X733764Y700609D01*
X733687Y699075D01*
X1218498Y432375D02*
X1218630Y429768D01*
X1219016Y427236D01*
X1219644Y424793D01*
X1220502Y422451D01*
X1221576Y420222D01*
X1222853Y418120D01*
X1224321Y416157D01*
X1225967Y414346D01*
X1227778Y412700D01*
X1229741Y411232D01*
X1231843Y409955D01*
X1234073Y408881D01*
X1236415Y408024D01*
X1238859Y407396D01*
X1241391Y407009D01*
X1243999Y406878D01*
X1246606Y407009D01*
X1249138Y407396D01*
X1251582Y408024D01*
X1253924Y408881D01*
X1256154Y409955D01*
X1258256Y411232D01*
X1260219Y412700D01*
X1262030Y414346D01*
X1263676Y416157D01*
X1265144Y418120D01*
X1266421Y420222D01*
X1267495Y422451D01*
X1268353Y424793D01*
X1268981Y427236D01*
X1269367Y429768D01*
X1269499Y432375D01*
X1269367Y434982D01*
X1268981Y437514D01*
X1268353Y439958D01*
X1267495Y442301D01*
X1266421Y444530D01*
X1265144Y446632D01*
X1263676Y448595D01*
X1262030Y450406D01*
X1260219Y452052D01*
X1258256Y453520D01*
X1256154Y454797D01*
X1253924Y455871D01*
X1251582Y456729D01*
X1249138Y457357D01*
X1246606Y457743D01*
X1243999Y457875D01*
X1241391Y457743D01*
X1238859Y457357D01*
X1236415Y456729D01*
X1234073Y455871D01*
X1231843Y454797D01*
X1229741Y453520D01*
X1227778Y452052D01*
X1225967Y450406D01*
X1224321Y448595D01*
X1222853Y446632D01*
X1221576Y444530D01*
X1220502Y442301D01*
X1219644Y439958D01*
X1219016Y437514D01*
X1218630Y434982D01*
X1218498Y432375D01*
X733687Y338713D02*
X733860Y336427D01*
X734362Y334250D01*
X735167Y332206D01*
X736251Y330321D01*
X737587Y328621D01*
X739150Y327130D01*
X740914Y325876D01*
X742855Y324882D01*
X744946Y324175D01*
X747163Y323780D01*
X748697Y323702D01*
X750984Y323875D01*
X753162Y324377D01*
X755206Y325183D01*
X757091Y326266D01*
X758791Y327602D01*
X760281Y329165D01*
X761535Y330930D01*
X762528Y332871D01*
X763235Y334962D01*
X763630Y337178D01*
X763707Y338713D01*
X763535Y340998D01*
X763033Y343176D01*
X762228Y345220D01*
X761145Y347105D01*
X759809Y348805D01*
X758246Y350295D01*
X756482Y351550D01*
X754541Y352543D01*
X752449Y353250D01*
X750232Y353646D01*
X748697Y353723D01*
X746411Y353550D01*
X744234Y353048D01*
X742190Y352243D01*
X740305Y351159D01*
X738605Y349823D01*
X737115Y348260D01*
X735860Y346496D01*
X734867Y344555D01*
X734159Y342464D01*
X733764Y340247D01*
X733687Y338713D01*
X687698Y254577D02*
X687778Y251438D01*
X688013Y248340D01*
X688401Y245287D01*
X688938Y242283D01*
X689619Y239332D01*
X690441Y236437D01*
X691400Y233603D01*
X692492Y230833D01*
X693713Y228131D01*
X695060Y225501D01*
X696529Y222946D01*
X698116Y220471D01*
X699816Y218080D01*
X701627Y215775D01*
X703544Y213562D01*
X705564Y211444D01*
X707683Y209424D01*
X709896Y207507D01*
X712200Y205696D01*
X714592Y203995D01*
X717067Y202409D01*
X719621Y200940D01*
X722251Y199593D01*
X724953Y198371D01*
X727723Y197279D01*
X730558Y196320D01*
X733452Y195498D01*
X736403Y194817D01*
X739407Y194281D01*
X742460Y193893D01*
X745558Y193657D01*
X748697Y193578D01*
X751836Y193657D01*
X754934Y193893D01*
X757987Y194281D01*
X760991Y194817D01*
X763942Y195498D01*
X766837Y196320D01*
X769671Y197279D01*
X772442Y198371D01*
X775144Y199593D01*
X777774Y200940D01*
X780329Y202409D01*
X782804Y203995D01*
X785195Y205696D01*
X787500Y207507D01*
X789713Y209424D01*
X791832Y211444D01*
X793852Y213562D01*
X795769Y215775D01*
X797580Y218080D01*
X799281Y220471D01*
X800868Y222946D01*
X802337Y225501D01*
X803684Y228131D01*
X804905Y230833D01*
X805998Y233603D01*
X806957Y236437D01*
X807779Y239332D01*
X808460Y242283D01*
X808997Y245287D01*
X809384Y248340D01*
X809620Y251438D01*
X809699Y254577D01*
X809620Y257716D01*
X809384Y260814D01*
X808997Y263866D01*
X808460Y266870D01*
X807779Y269821D01*
X806957Y272716D01*
X805998Y275550D01*
X804905Y278321D01*
X803684Y281023D01*
X802337Y283653D01*
X800868Y286207D01*
X799281Y288682D01*
X797580Y291074D01*
X795769Y293378D01*
X793852Y295591D01*
X791832Y297710D01*
X789713Y299729D01*
X787500Y301647D01*
X785195Y303457D01*
X782804Y305158D01*
X780329Y306745D01*
X777774Y308213D01*
X775144Y309560D01*
X772442Y310782D01*
X769671Y311874D01*
X766837Y312833D01*
X763942Y313655D01*
X760991Y314336D01*
X757987Y314873D01*
X754934Y315261D01*
X751836Y315496D01*
X748697Y315575D01*
X745558Y315496D01*
X742460Y315261D01*
X739407Y314873D01*
X736403Y314336D01*
X733452Y313655D01*
X730558Y312833D01*
X727723Y311874D01*
X724953Y310782D01*
X722251Y309560D01*
X719621Y308213D01*
X717067Y306745D01*
X714592Y305158D01*
X712200Y303457D01*
X709896Y301647D01*
X707683Y299729D01*
X705564Y297710D01*
X703544Y295591D01*
X701627Y293378D01*
X699816Y291074D01*
X698116Y288682D01*
X696529Y286207D01*
X695060Y283653D01*
X693713Y281023D01*
X692492Y278321D01*
X691400Y275550D01*
X690441Y272716D01*
X689619Y269821D01*
X688938Y266870D01*
X688401Y263866D01*
X688013Y260814D01*
X687778Y257716D01*
X687698Y254577D01*
X717074Y940375D02*
X717238Y937141D01*
X717717Y934001D01*
X718496Y930971D01*
X719560Y928066D01*
X720891Y925302D01*
X722476Y922694D01*
X724296Y920260D01*
X726337Y918015D01*
X728583Y915974D01*
X731017Y914154D01*
X733625Y912570D01*
X736389Y911238D01*
X739294Y910175D01*
X742324Y909396D01*
X745464Y908917D01*
X748697Y908754D01*
X751931Y908917D01*
X755071Y909396D01*
X758101Y910175D01*
X761007Y911238D01*
X763771Y912570D01*
X766379Y914154D01*
X768813Y915974D01*
X771058Y918015D01*
X773099Y920260D01*
X774920Y922694D01*
X776504Y925302D01*
X777835Y928066D01*
X778898Y930971D01*
X779677Y934001D01*
X780157Y937141D01*
X780320Y940375D01*
X780157Y943608D01*
X779677Y946748D01*
X778898Y949778D01*
X777835Y952684D01*
X776504Y955448D01*
X774920Y958056D01*
X773099Y960490D01*
X771058Y962736D01*
X768813Y964777D01*
X766379Y966598D01*
X763771Y968182D01*
X761007Y969514D01*
X758101Y970577D01*
X755071Y971356D01*
X751931Y971836D01*
X748697Y971999D01*
X745464Y971836D01*
X742324Y971356D01*
X739294Y970577D01*
X736389Y969514D01*
X733625Y968182D01*
X731017Y966598D01*
X728583Y964777D01*
X726337Y962736D01*
X724296Y960490D01*
X722476Y958056D01*
X720891Y955448D01*
X719560Y952684D01*
X718496Y949778D01*
X717717Y946748D01*
X717238Y943608D01*
X717074Y940375D01*
X568589Y338713D02*
X568762Y336427D01*
X569264Y334250D01*
X570069Y332206D01*
X571153Y330321D01*
X572488Y328621D01*
X574051Y327130D01*
X575816Y325876D01*
X577757Y324882D01*
X579848Y324175D01*
X582065Y323780D01*
X583600Y323702D01*
X585885Y323875D01*
X588063Y324377D01*
X590106Y325183D01*
X591991Y326266D01*
X593691Y327602D01*
X595181Y329165D01*
X596435Y330930D01*
X597429Y332871D01*
X598136Y334962D01*
X598531Y337178D01*
X598608Y338713D01*
X598435Y340998D01*
X597933Y343176D01*
X597128Y345220D01*
X596045Y347105D01*
X594709Y348805D01*
X593146Y350295D01*
X591382Y351550D01*
X589442Y352543D01*
X587350Y353250D01*
X585134Y353646D01*
X583600Y353723D01*
X581314Y353550D01*
X579136Y353048D01*
X577092Y352243D01*
X575207Y351159D01*
X573507Y349823D01*
X572017Y348260D01*
X570762Y346496D01*
X569769Y344555D01*
X569062Y342464D01*
X568667Y340247D01*
X568589Y338713D01*
X606689Y660976D02*
X606861Y658690D01*
X607363Y656512D01*
X608169Y654468D01*
X609252Y652583D01*
X610588Y650883D01*
X612151Y649393D01*
X613915Y648138D01*
X615856Y647145D01*
X617947Y646438D01*
X620164Y646043D01*
X621699Y645965D01*
X623985Y646138D01*
X626162Y646640D01*
X628206Y647445D01*
X630091Y648529D01*
X631791Y649864D01*
X633281Y651427D01*
X634536Y653192D01*
X635529Y655133D01*
X636237Y657224D01*
X636632Y659441D01*
X636709Y660976D01*
X636536Y663262D01*
X636034Y665439D01*
X635229Y667483D01*
X634145Y669368D01*
X632809Y671068D01*
X631246Y672557D01*
X629482Y673812D01*
X627541Y674805D01*
X625450Y675512D01*
X623233Y675907D01*
X621699Y675984D01*
X619413Y675811D01*
X617235Y675310D01*
X615191Y674504D01*
X613306Y673421D01*
X611606Y672086D01*
X610116Y670523D01*
X608861Y668759D01*
X607868Y666818D01*
X607161Y664727D01*
X606766Y662510D01*
X606689Y660976D01*
X1221343Y26773D02*
X1221792Y24668D01*
X1222601Y22756D01*
X1223410Y20841D01*
X1224585Y19118D01*
X1226032Y17671D01*
X1227479Y16221D01*
X1229205Y15053D01*
X1231121Y14240D01*
X1233033Y13434D01*
X1235138Y12986D01*
X1249555Y12986D01*
X1251657Y13434D01*
X1253572Y14240D01*
X1255488Y15053D01*
X1257214Y16221D01*
X1258661Y17671D01*
X1260108Y19118D01*
X1261279Y20841D01*
X1262089Y22756D01*
X1262898Y24668D01*
X1263346Y26773D01*
X1263346Y31193D01*
X1262898Y33298D01*
X1262089Y35210D01*
X1261279Y37125D01*
X1260108Y38848D01*
X1258661Y40295D01*
X1257214Y41745D01*
X1255488Y42917D01*
X1251657Y44536D01*
X1249555Y44984D01*
X1235138Y44984D01*
X1233033Y44536D01*
X1229205Y42917D01*
X1227479Y41745D01*
X1226032Y40295D01*
X1224585Y38848D01*
X1223410Y37125D01*
X1222601Y35210D01*
X1221792Y33298D01*
X1221343Y31193D01*
X1221343Y26773D01*
X221777Y940375D02*
X221940Y937141D01*
X222419Y934001D01*
X223198Y930971D01*
X224262Y928066D01*
X225593Y925302D01*
X227177Y922694D01*
X228998Y920260D01*
X231039Y918015D01*
X233284Y915974D01*
X235719Y914154D01*
X238326Y912570D01*
X241090Y911238D01*
X243996Y910175D01*
X247026Y909396D01*
X250166Y908917D01*
X253399Y908754D01*
X256633Y908917D01*
X259772Y909396D01*
X262803Y910175D01*
X265708Y911238D01*
X268473Y912570D01*
X271080Y914154D01*
X273514Y915974D01*
X275760Y918015D01*
X277801Y920260D01*
X279621Y922694D01*
X281205Y925302D01*
X282537Y928066D01*
X283600Y930971D01*
X284379Y934001D01*
X284858Y937141D01*
X285022Y940375D01*
X284858Y943608D01*
X284379Y946748D01*
X283600Y949778D01*
X282537Y952684D01*
X281205Y955448D01*
X279621Y958056D01*
X277801Y960490D01*
X275760Y962736D01*
X273514Y964777D01*
X271080Y966598D01*
X268473Y968182D01*
X265708Y969514D01*
X262803Y970577D01*
X259772Y971356D01*
X256633Y971836D01*
X253399Y971999D01*
X250166Y971836D01*
X247026Y971356D01*
X243996Y970577D01*
X241090Y969514D01*
X238326Y968182D01*
X235719Y966598D01*
X233284Y964777D01*
X231039Y962736D01*
X228998Y960490D01*
X227177Y958056D01*
X225593Y955448D01*
X224262Y952684D01*
X223198Y949778D01*
X222419Y946748D01*
X221940Y943608D01*
X221777Y940375D01*
X238389Y338713D02*
X238562Y336427D01*
X239064Y334250D01*
X239869Y332206D01*
X240952Y330321D01*
X242288Y328621D01*
X243851Y327130D01*
X245616Y325876D01*
X247556Y324882D01*
X249648Y324175D01*
X251864Y323780D01*
X253399Y323702D01*
X255685Y323875D01*
X257862Y324377D01*
X259906Y325183D01*
X261791Y326266D01*
X263491Y327602D01*
X264982Y329165D01*
X266236Y330930D01*
X267230Y332871D01*
X267937Y334962D01*
X268332Y337178D01*
X268410Y338713D01*
X268237Y340998D01*
X267735Y343176D01*
X266929Y345220D01*
X265846Y347105D01*
X264510Y348805D01*
X262947Y350295D01*
X261182Y351550D01*
X259241Y352543D01*
X257150Y353250D01*
X254934Y353646D01*
X253399Y353723D01*
X251113Y353550D01*
X248935Y353048D01*
X246891Y352243D01*
X245007Y351159D01*
X243306Y349823D01*
X241816Y348260D01*
X240562Y346496D01*
X239568Y344555D01*
X238861Y342464D01*
X238466Y340247D01*
X238389Y338713D01*
X551977Y940375D02*
X552140Y937141D01*
X552619Y934001D01*
X553399Y930971D01*
X554462Y928066D01*
X555794Y925302D01*
X557378Y922694D01*
X559198Y920260D01*
X561239Y918015D01*
X563485Y915974D01*
X565919Y914154D01*
X568526Y912570D01*
X571291Y911238D01*
X574196Y910175D01*
X577226Y909396D01*
X580366Y908917D01*
X583600Y908754D01*
X586833Y908917D01*
X589972Y909396D01*
X593002Y910175D01*
X595908Y911238D01*
X598672Y912570D01*
X601279Y914154D01*
X603713Y915974D01*
X605959Y918015D01*
X607999Y920260D01*
X609820Y922694D01*
X611404Y925302D01*
X612735Y928066D01*
X613798Y930971D01*
X614578Y934001D01*
X615057Y937141D01*
X615220Y940375D01*
X615057Y943608D01*
X614578Y946748D01*
X613798Y949778D01*
X612735Y952684D01*
X611404Y955448D01*
X609820Y958056D01*
X607999Y960490D01*
X605959Y962736D01*
X603713Y964777D01*
X601279Y966598D01*
X598672Y968182D01*
X595908Y969514D01*
X593002Y970577D01*
X589972Y971356D01*
X586833Y971836D01*
X583600Y971999D01*
X580366Y971836D01*
X577226Y971356D01*
X574196Y970577D01*
X571291Y969514D01*
X568526Y968182D01*
X565919Y966598D01*
X563485Y964777D01*
X561239Y962736D01*
X559198Y960490D01*
X557378Y958056D01*
X555794Y955448D01*
X554462Y952684D01*
X553399Y949778D01*
X552619Y946748D01*
X552140Y943608D01*
X551977Y940375D01*
X1258750Y121227D02*
X1258946Y118638D01*
X1259514Y116171D01*
X1260426Y113856D01*
X1261653Y111721D01*
X1263166Y109795D01*
X1264936Y108107D01*
X1266934Y106687D01*
X1269132Y105561D01*
X1271500Y104761D01*
X1274010Y104313D01*
X1275749Y104226D01*
X1278337Y104421D01*
X1280804Y104990D01*
X1283119Y105902D01*
X1285253Y107129D01*
X1287179Y108642D01*
X1288867Y110412D01*
X1290288Y112411D01*
X1291414Y114609D01*
X1292215Y116978D01*
X1292662Y119489D01*
X1292750Y121227D01*
X1292554Y123816D01*
X1291985Y126282D01*
X1291073Y128597D01*
X1289846Y130731D01*
X1288333Y132656D01*
X1286562Y134344D01*
X1284564Y135764D01*
X1282365Y136889D01*
X1279997Y137690D01*
X1277487Y138138D01*
X1275749Y138225D01*
X1273160Y138029D01*
X1270694Y137461D01*
X1268379Y136549D01*
X1266245Y135322D01*
X1264319Y133810D01*
X1262632Y132040D01*
X1261211Y130041D01*
X1260086Y127844D01*
X1259285Y125475D01*
X1258838Y122965D01*
X1258750Y121227D01*
X220378Y771976D02*
X286417Y771976D01*
X286417Y803976D01*
X220378Y803976D01*
X220378Y771976D01*
X220378Y771976D02*
X286417Y771976D01*
X286417Y803596D01*
X286799Y803976D01*
X286417Y804355D01*
X286034Y803976D01*
X220378Y803976D01*
X220378Y771976D01*
X860690Y660976D02*
X860863Y658690D01*
X861365Y656512D01*
X862170Y654468D01*
X863253Y652583D01*
X864588Y650883D01*
X866151Y649393D01*
X867915Y648138D01*
X869855Y647145D01*
X871946Y646438D01*
X874163Y646043D01*
X875697Y645965D01*
X877983Y646138D01*
X880160Y646640D01*
X882204Y647445D01*
X884089Y648529D01*
X885789Y649864D01*
X887279Y651427D01*
X888534Y653192D01*
X889528Y655133D01*
X890235Y657224D01*
X890630Y659441D01*
X890707Y660976D01*
X890534Y663262D01*
X890033Y665439D01*
X889227Y667483D01*
X888144Y669368D01*
X886808Y671068D01*
X885245Y672557D01*
X883480Y673812D01*
X881539Y674805D01*
X879448Y675512D01*
X877232Y675907D01*
X875697Y675984D01*
X873412Y675811D01*
X871234Y675310D01*
X869191Y674504D01*
X867306Y673421D01*
X865607Y672086D01*
X864117Y670523D01*
X862863Y668759D01*
X861869Y666818D01*
X861163Y664727D01*
X860768Y662510D01*
X860690Y660976D01*
X73290Y338713D02*
X73463Y336427D01*
X73964Y334250D01*
X74770Y332206D01*
X75853Y330321D01*
X77189Y328621D01*
X78751Y327130D01*
X80516Y325876D01*
X82456Y324882D01*
X84547Y324175D01*
X86764Y323780D01*
X88298Y323702D01*
X90584Y323875D01*
X92762Y324377D01*
X94806Y325183D01*
X96691Y326266D01*
X98391Y327602D01*
X99881Y329165D01*
X101136Y330930D01*
X102129Y332871D01*
X102836Y334962D01*
X103231Y337178D01*
X103309Y338713D01*
X103136Y340998D01*
X102634Y343176D01*
X101828Y345220D01*
X100745Y347105D01*
X99409Y348805D01*
X97846Y350295D01*
X96082Y351550D01*
X94141Y352543D01*
X92050Y353250D01*
X89833Y353646D01*
X88298Y353723D01*
X86013Y353550D01*
X83835Y353048D01*
X81791Y352243D01*
X79907Y351159D01*
X78207Y349823D01*
X76717Y348260D01*
X75462Y346496D01*
X74469Y344555D01*
X73762Y342464D01*
X73367Y340247D01*
X73290Y338713D01*
X551977Y1080075D02*
X552140Y1076842D01*
X552619Y1073702D01*
X553399Y1070671D01*
X554462Y1067766D01*
X555794Y1065002D01*
X557378Y1062395D01*
X559198Y1059961D01*
X561239Y1057715D01*
X563485Y1055674D01*
X565919Y1053854D01*
X568526Y1052270D01*
X571291Y1050939D01*
X574196Y1049876D01*
X577226Y1049096D01*
X580366Y1048617D01*
X583600Y1048454D01*
X586833Y1048617D01*
X589972Y1049096D01*
X593002Y1049876D01*
X595908Y1050939D01*
X598672Y1052270D01*
X601279Y1053854D01*
X603713Y1055674D01*
X605959Y1057715D01*
X607999Y1059961D01*
X609820Y1062395D01*
X611404Y1065002D01*
X612735Y1067766D01*
X613798Y1070671D01*
X614578Y1073702D01*
X615057Y1076842D01*
X615220Y1080075D01*
X615057Y1083308D01*
X614578Y1086448D01*
X613798Y1089478D01*
X612735Y1092384D01*
X611404Y1095148D01*
X609820Y1097755D01*
X607999Y1100190D01*
X605959Y1102436D01*
X603713Y1104477D01*
X601279Y1106298D01*
X598672Y1107882D01*
X595908Y1109214D01*
X593002Y1110277D01*
X589972Y1111057D01*
X586833Y1111536D01*
X583600Y1111699D01*
X580366Y1111536D01*
X577226Y1111057D01*
X574196Y1110277D01*
X571291Y1109214D01*
X568526Y1107882D01*
X565919Y1106298D01*
X563485Y1104477D01*
X561239Y1102436D01*
X559198Y1100190D01*
X557378Y1097755D01*
X555794Y1095148D01*
X554462Y1092384D01*
X553399Y1089478D01*
X552619Y1086448D01*
X552140Y1083308D01*
X551977Y1080075D01*
X670187Y686375D02*
X670360Y684089D01*
X670862Y681911D01*
X671667Y679867D01*
X672751Y677983D01*
X674087Y676282D01*
X675650Y674792D01*
X677414Y673538D01*
X679355Y672544D01*
X681446Y671837D01*
X683663Y671442D01*
X685197Y671364D01*
X687483Y671537D01*
X689660Y672039D01*
X691704Y672845D01*
X693589Y673928D01*
X695289Y675264D01*
X696779Y676827D01*
X698034Y678592D01*
X699028Y680532D01*
X699735Y682624D01*
X700130Y684840D01*
X700207Y686375D01*
X700034Y688661D01*
X699533Y690839D01*
X698727Y692883D01*
X697644Y694768D01*
X696308Y696468D01*
X694745Y697959D01*
X692980Y699213D01*
X691039Y700207D01*
X688948Y700914D01*
X686732Y701309D01*
X685197Y701387D01*
X682911Y701214D01*
X680734Y700712D01*
X678690Y699906D01*
X676805Y698823D01*
X675105Y697487D01*
X673615Y695923D01*
X672360Y694159D01*
X671367Y692218D01*
X670659Y690126D01*
X670264Y687909D01*
X670187Y686375D01*
X1221399Y1251779D02*
X1221847Y1249674D01*
X1223466Y1245846D01*
X1224637Y1244120D01*
X1227534Y1241228D01*
X1229257Y1240056D01*
X1231172Y1239247D01*
X1233084Y1238437D01*
X1235193Y1237988D01*
X1249607Y1237988D01*
X1251712Y1238437D01*
X1253628Y1239247D01*
X1255540Y1240056D01*
X1257265Y1241228D01*
X1260163Y1244120D01*
X1261334Y1245846D01*
X1262953Y1249674D01*
X1263401Y1251779D01*
X1263401Y1256197D01*
X1262953Y1258300D01*
X1261334Y1262131D01*
X1260163Y1263853D01*
X1257265Y1266749D01*
X1255540Y1267921D01*
X1251712Y1269539D01*
X1249607Y1269986D01*
X1235193Y1269986D01*
X1233084Y1269539D01*
X1231172Y1268730D01*
X1229257Y1267921D01*
X1227534Y1266749D01*
X1224637Y1263853D01*
X1223466Y1262131D01*
X1221847Y1258300D01*
X1221399Y1256197D01*
X1221399Y1251779D01*
X714697Y438876D02*
X714873Y435400D01*
X715388Y432024D01*
X716226Y428766D01*
X717370Y425642D01*
X718801Y422670D01*
X720504Y419867D01*
X722462Y417249D01*
X724656Y414835D01*
X727071Y412640D01*
X729688Y410683D01*
X732492Y408980D01*
X735464Y407548D01*
X738587Y406405D01*
X741845Y405567D01*
X745221Y405051D01*
X748697Y404876D01*
X752174Y405051D01*
X755550Y405567D01*
X758808Y406405D01*
X761932Y407548D01*
X764904Y408980D01*
X767707Y410683D01*
X770325Y412640D01*
X772739Y414835D01*
X774933Y417249D01*
X776891Y419867D01*
X778594Y422670D01*
X780025Y425642D01*
X781168Y428766D01*
X782006Y432024D01*
X782521Y435400D01*
X782697Y438876D01*
X782521Y442352D01*
X782006Y445728D01*
X781168Y448987D01*
X780025Y452110D01*
X778594Y455082D01*
X776891Y457886D01*
X774933Y460503D01*
X772739Y462918D01*
X770325Y465112D01*
X767707Y467069D01*
X764904Y468772D01*
X761932Y470204D01*
X758808Y471347D01*
X755550Y472185D01*
X752174Y472700D01*
X748697Y472875D01*
X745221Y472700D01*
X741845Y472185D01*
X738587Y471347D01*
X735464Y470204D01*
X732492Y468772D01*
X729688Y467069D01*
X727071Y465112D01*
X724656Y462918D01*
X722462Y460503D01*
X720504Y457886D01*
X718801Y455082D01*
X717370Y452110D01*
X716226Y448987D01*
X715388Y445728D01*
X714873Y442352D01*
X714697Y438876D01*
X1212376Y940375D02*
X1212539Y937141D01*
X1213018Y934001D01*
X1213798Y930971D01*
X1214861Y928066D01*
X1216193Y925302D01*
X1217777Y922694D01*
X1219597Y920260D01*
X1221638Y918015D01*
X1223884Y915974D01*
X1226319Y914154D01*
X1228926Y912570D01*
X1231690Y911238D01*
X1234595Y910175D01*
X1237626Y909396D01*
X1240766Y908917D01*
X1243999Y908754D01*
X1247232Y908917D01*
X1250372Y909396D01*
X1253403Y910175D01*
X1256308Y911238D01*
X1259072Y912570D01*
X1261680Y914154D01*
X1264114Y915974D01*
X1266360Y918015D01*
X1268400Y920260D01*
X1270221Y922694D01*
X1271805Y925302D01*
X1273136Y928066D01*
X1274199Y930971D01*
X1274978Y934001D01*
X1275458Y937141D01*
X1275621Y940375D01*
X1275458Y943608D01*
X1274978Y946748D01*
X1274199Y949778D01*
X1273136Y952684D01*
X1271805Y955448D01*
X1270221Y958056D01*
X1268400Y960490D01*
X1266360Y962736D01*
X1264114Y964777D01*
X1261680Y966598D01*
X1259072Y968182D01*
X1256308Y969514D01*
X1253403Y970577D01*
X1250372Y971356D01*
X1247232Y971836D01*
X1243999Y971999D01*
X1240766Y971836D01*
X1237626Y971356D01*
X1234595Y970577D01*
X1231690Y969514D01*
X1228926Y968182D01*
X1226319Y966598D01*
X1223884Y964777D01*
X1221638Y962736D01*
X1219597Y960490D01*
X1217777Y958056D01*
X1216193Y955448D01*
X1214861Y952684D01*
X1213798Y949778D01*
X1213018Y946748D01*
X1212539Y943608D01*
X1212376Y940375D01*
X911488Y622878D02*
X911661Y620592D01*
X912163Y618414D01*
X912969Y616369D01*
X914052Y614485D01*
X915388Y612785D01*
X916951Y611295D01*
X918716Y610040D01*
X920656Y609047D01*
X922748Y608340D01*
X924964Y607945D01*
X926499Y607868D01*
X928784Y608041D01*
X930962Y608542D01*
X933006Y609348D01*
X934890Y610431D01*
X936591Y611766D01*
X938081Y613329D01*
X939336Y615094D01*
X940329Y617034D01*
X941036Y619126D01*
X941431Y621343D01*
X941509Y622878D01*
X941336Y625164D01*
X940834Y627341D01*
X940028Y629384D01*
X938945Y631268D01*
X937609Y632968D01*
X936046Y634457D01*
X934281Y635711D01*
X932341Y636704D01*
X930249Y637411D01*
X928033Y637806D01*
X926499Y637883D01*
X924213Y637710D01*
X922035Y637209D01*
X919991Y636404D01*
X918107Y635321D01*
X916406Y633986D01*
X914916Y632423D01*
X913662Y630660D01*
X912668Y628719D01*
X911961Y626629D01*
X911566Y624413D01*
X911488Y622878D01*
X1053399Y432375D02*
X1053530Y429768D01*
X1053917Y427236D01*
X1054545Y424793D01*
X1055403Y422451D01*
X1056476Y420222D01*
X1057754Y418120D01*
X1059222Y416157D01*
X1060868Y414346D01*
X1062678Y412700D01*
X1064642Y411232D01*
X1066744Y409955D01*
X1068973Y408881D01*
X1071316Y408024D01*
X1073760Y407396D01*
X1076292Y407009D01*
X1078899Y406878D01*
X1081507Y407009D01*
X1084038Y407396D01*
X1086482Y408024D01*
X1088825Y408881D01*
X1091054Y409955D01*
X1093157Y411232D01*
X1095120Y412700D01*
X1096931Y414346D01*
X1098577Y416157D01*
X1100045Y418120D01*
X1101322Y420222D01*
X1102396Y422451D01*
X1103253Y424793D01*
X1103882Y427236D01*
X1104268Y429768D01*
X1104400Y432375D01*
X1104268Y434982D01*
X1103882Y437514D01*
X1103253Y439958D01*
X1102396Y442301D01*
X1101322Y444530D01*
X1100045Y446632D01*
X1098577Y448595D01*
X1096931Y450406D01*
X1095120Y452052D01*
X1093157Y453520D01*
X1091054Y454797D01*
X1088825Y455871D01*
X1086482Y456729D01*
X1084038Y457357D01*
X1081507Y457743D01*
X1078899Y457875D01*
X1076292Y457743D01*
X1073760Y457357D01*
X1071316Y456729D01*
X1068973Y455871D01*
X1066744Y454797D01*
X1064642Y453520D01*
X1062678Y452052D01*
X1060868Y450406D01*
X1059222Y448595D01*
X1057754Y446632D01*
X1056476Y444530D01*
X1055403Y442301D01*
X1054545Y439958D01*
X1053917Y437514D01*
X1053530Y434982D01*
X1053399Y432375D01*
X558099Y432375D02*
X558231Y429768D01*
X558617Y427236D01*
X559245Y424793D01*
X560103Y422451D01*
X561177Y420222D01*
X562454Y418120D01*
X563922Y416157D01*
X565568Y414346D01*
X567379Y412700D01*
X569342Y411232D01*
X571444Y409955D01*
X573674Y408881D01*
X576016Y408024D01*
X578460Y407396D01*
X580992Y407009D01*
X583600Y406878D01*
X586207Y407009D01*
X588738Y407396D01*
X591182Y408024D01*
X593525Y408881D01*
X595753Y409955D01*
X597856Y411232D01*
X599819Y412700D01*
X601630Y414346D01*
X603275Y416157D01*
X604743Y418120D01*
X606021Y420222D01*
X607094Y422451D01*
X607952Y424793D01*
X608580Y427236D01*
X608967Y429768D01*
X609098Y432375D01*
X608967Y434982D01*
X608580Y437514D01*
X607952Y439958D01*
X607094Y442301D01*
X606021Y444530D01*
X604743Y446632D01*
X603275Y448595D01*
X601630Y450406D01*
X599819Y452052D01*
X597856Y453520D01*
X595753Y454797D01*
X593525Y455871D01*
X591182Y456729D01*
X588738Y457357D01*
X586207Y457743D01*
X583600Y457875D01*
X580992Y457743D01*
X578460Y457357D01*
X576016Y456729D01*
X573674Y455871D01*
X571444Y454797D01*
X569342Y453520D01*
X567379Y452052D01*
X565568Y450406D01*
X563922Y448595D01*
X562454Y446632D01*
X561177Y444530D01*
X560103Y442301D01*
X559245Y439958D01*
X558617Y437514D01*
X558231Y434982D01*
X558099Y432375D01*
X717074Y1080075D02*
X717238Y1076842D01*
X717717Y1073702D01*
X718496Y1070671D01*
X719560Y1067766D01*
X720891Y1065002D01*
X722476Y1062395D01*
X724296Y1059961D01*
X726337Y1057715D01*
X728583Y1055674D01*
X731017Y1053854D01*
X733625Y1052270D01*
X736389Y1050939D01*
X739294Y1049876D01*
X742324Y1049096D01*
X745464Y1048617D01*
X748697Y1048454D01*
X751931Y1048617D01*
X755071Y1049096D01*
X758101Y1049876D01*
X761007Y1050939D01*
X763771Y1052270D01*
X766379Y1053854D01*
X768813Y1055674D01*
X771058Y1057715D01*
X773099Y1059961D01*
X774920Y1062395D01*
X776504Y1065002D01*
X777835Y1067766D01*
X778898Y1070671D01*
X779677Y1073702D01*
X780157Y1076842D01*
X780320Y1080075D01*
X780157Y1083308D01*
X779677Y1086448D01*
X778898Y1089478D01*
X777835Y1092384D01*
X776504Y1095148D01*
X774920Y1097755D01*
X773099Y1100190D01*
X771058Y1102436D01*
X768813Y1104477D01*
X766379Y1106298D01*
X763771Y1107882D01*
X761007Y1109214D01*
X758101Y1110277D01*
X755071Y1111057D01*
X751931Y1111536D01*
X748697Y1111699D01*
X745464Y1111536D01*
X742324Y1111057D01*
X739294Y1110277D01*
X736389Y1109214D01*
X733625Y1107882D01*
X731017Y1106298D01*
X728583Y1104477D01*
X726337Y1102436D01*
X724296Y1100190D01*
X722476Y1097755D01*
X720891Y1095148D01*
X719560Y1092384D01*
X718496Y1089478D01*
X717717Y1086448D01*
X717238Y1083308D01*
X717074Y1080075D01*
X451137Y835475D02*
X451516Y835094D01*
X451899Y835475D01*
X451516Y835857D01*
X451516Y835475D01*
X451137Y835475D01*
X385477Y835475D02*
X451137Y835475D01*
X451516Y835094D01*
X451899Y835475D01*
X451516Y835857D01*
X451516Y867473D01*
X385477Y867473D01*
X385477Y867094D01*
X385477Y835475D01*
X1258750Y1162625D02*
X1258946Y1160035D01*
X1259514Y1157569D01*
X1260426Y1155254D01*
X1261653Y1153120D01*
X1263166Y1151195D01*
X1264936Y1149507D01*
X1266934Y1148087D01*
X1269132Y1146962D01*
X1271500Y1146161D01*
X1274010Y1145714D01*
X1275749Y1145626D01*
X1278337Y1145822D01*
X1280804Y1146390D01*
X1283119Y1147302D01*
X1285253Y1148529D01*
X1287179Y1150042D01*
X1288867Y1151811D01*
X1290288Y1153810D01*
X1291414Y1156007D01*
X1292215Y1158376D01*
X1292662Y1160886D01*
X1292750Y1162625D01*
X1292554Y1165214D01*
X1291985Y1167680D01*
X1291073Y1169995D01*
X1289846Y1172130D01*
X1288333Y1174056D01*
X1286562Y1175744D01*
X1284564Y1177165D01*
X1282365Y1178290D01*
X1279997Y1179091D01*
X1277487Y1179538D01*
X1275749Y1179626D01*
X1273160Y1179430D01*
X1270694Y1178862D01*
X1268379Y1177949D01*
X1266245Y1176722D01*
X1264319Y1175209D01*
X1262632Y1173439D01*
X1261211Y1171440D01*
X1260086Y1169242D01*
X1259285Y1166873D01*
X1258838Y1164363D01*
X1258750Y1162625D01*
X1218498Y686375D02*
X1218630Y683767D01*
X1219016Y681235D01*
X1219644Y678791D01*
X1220502Y676449D01*
X1221576Y674219D01*
X1222853Y672117D01*
X1224321Y670154D01*
X1225967Y668343D01*
X1227778Y666697D01*
X1229741Y665229D01*
X1231843Y663952D01*
X1234073Y662878D01*
X1236415Y662020D01*
X1238859Y661392D01*
X1241391Y661006D01*
X1243999Y660874D01*
X1246606Y661006D01*
X1249138Y661392D01*
X1251582Y662020D01*
X1253924Y662878D01*
X1256154Y663952D01*
X1258256Y665229D01*
X1260219Y666697D01*
X1262030Y668343D01*
X1263676Y670154D01*
X1265144Y672117D01*
X1266421Y674219D01*
X1267495Y676449D01*
X1268353Y678791D01*
X1268981Y681235D01*
X1269367Y683767D01*
X1269499Y686375D01*
X1269367Y688982D01*
X1268981Y691514D01*
X1268353Y693958D01*
X1267495Y696301D01*
X1266421Y698530D01*
X1265144Y700632D01*
X1263676Y702595D01*
X1262030Y704406D01*
X1260219Y706052D01*
X1258256Y707520D01*
X1256154Y708797D01*
X1253924Y709871D01*
X1251582Y710729D01*
X1249138Y711357D01*
X1246606Y711743D01*
X1243999Y711875D01*
X1241391Y711743D01*
X1238859Y711357D01*
X1236415Y710729D01*
X1234073Y709871D01*
X1231843Y708797D01*
X1229741Y707520D01*
X1227778Y706052D01*
X1225967Y704406D01*
X1224321Y702595D01*
X1222853Y700632D01*
X1221576Y698530D01*
X1220502Y696301D01*
X1219644Y693958D01*
X1219016Y691514D01*
X1218630Y688982D01*
X1218498Y686375D01*
X898786Y338713D02*
X898959Y336427D01*
X899461Y334250D01*
X900266Y332206D01*
X901350Y330321D01*
X902686Y328621D01*
X904249Y327130D01*
X906013Y325876D01*
X907954Y324882D01*
X910045Y324175D01*
X912262Y323780D01*
X913796Y323702D01*
X916083Y323875D01*
X918261Y324377D01*
X920305Y325183D01*
X922190Y326266D01*
X923890Y327602D01*
X925380Y329165D01*
X926634Y330930D01*
X927627Y332871D01*
X928334Y334962D01*
X928729Y337178D01*
X928807Y338713D01*
X928634Y340998D01*
X928132Y343176D01*
X927327Y345220D01*
X926244Y347105D01*
X924908Y348805D01*
X923345Y350295D01*
X921581Y351550D01*
X919640Y352543D01*
X917549Y353250D01*
X915332Y353646D01*
X913796Y353723D01*
X911511Y353550D01*
X909333Y353048D01*
X907289Y352243D01*
X905404Y351159D01*
X903704Y349823D01*
X902214Y348260D01*
X900959Y346496D01*
X899966Y344555D01*
X899259Y342464D01*
X898864Y340247D01*
X898786Y338713D01*
X219400Y680177D02*
X219575Y676701D01*
X220090Y673325D01*
X220928Y670066D01*
X222071Y666943D01*
X223503Y663971D01*
X225206Y661167D01*
X227163Y658550D01*
X229358Y656135D01*
X231772Y653941D01*
X234390Y651984D01*
X237193Y650281D01*
X240165Y648849D01*
X243289Y647706D01*
X246547Y646868D01*
X249923Y646353D01*
X253399Y646177D01*
X256875Y646353D01*
X260251Y646868D01*
X263510Y647706D01*
X266633Y648849D01*
X269605Y650281D01*
X272409Y651984D01*
X275026Y653941D01*
X277441Y656135D01*
X279635Y658550D01*
X281592Y661167D01*
X283295Y663971D01*
X284727Y666943D01*
X285870Y670066D01*
X286708Y673325D01*
X287223Y676701D01*
X287399Y680177D01*
X287223Y683653D01*
X286708Y687029D01*
X285870Y690287D01*
X284727Y693411D01*
X283295Y696383D01*
X281592Y699186D01*
X279635Y701803D01*
X277441Y704217D01*
X275026Y706412D01*
X272409Y708369D01*
X269605Y710072D01*
X266633Y711503D01*
X263510Y712646D01*
X260251Y713484D01*
X256875Y713999D01*
X253399Y714175D01*
X249923Y713999D01*
X246547Y713484D01*
X243289Y712646D01*
X240165Y711503D01*
X237193Y710072D01*
X234390Y708369D01*
X231772Y706412D01*
X229358Y704217D01*
X227163Y701803D01*
X225206Y699186D01*
X223503Y696383D01*
X222071Y693411D01*
X220928Y690287D01*
X220090Y687029D01*
X219575Y683653D01*
X219400Y680177D01*
X56676Y1080075D02*
X56839Y1076842D01*
X57318Y1073702D01*
X58097Y1070671D01*
X59161Y1067766D01*
X60493Y1065002D01*
X62077Y1062395D01*
X63897Y1059961D01*
X65938Y1057715D01*
X68184Y1055674D01*
X70618Y1053854D01*
X73226Y1052270D01*
X75990Y1050939D01*
X78895Y1049876D01*
X81926Y1049096D01*
X85065Y1048617D01*
X88298Y1048454D01*
X91531Y1048617D01*
X94671Y1049096D01*
X97702Y1049876D01*
X100607Y1050939D01*
X103371Y1052270D01*
X105978Y1053854D01*
X108413Y1055674D01*
X110658Y1057715D01*
X112699Y1059961D01*
X114519Y1062395D01*
X116103Y1065002D01*
X117434Y1067766D01*
X118498Y1070671D01*
X119277Y1073702D01*
X119756Y1076842D01*
X119919Y1080075D01*
X119756Y1083308D01*
X119277Y1086448D01*
X118498Y1089478D01*
X117434Y1092384D01*
X116103Y1095148D01*
X114519Y1097755D01*
X112699Y1100190D01*
X110658Y1102436D01*
X108413Y1104477D01*
X105978Y1106298D01*
X103371Y1107882D01*
X100607Y1109214D01*
X97702Y1110277D01*
X94671Y1111057D01*
X91531Y1111536D01*
X88298Y1111699D01*
X85065Y1111536D01*
X81926Y1111057D01*
X78895Y1110277D01*
X75990Y1109214D01*
X73226Y1107882D01*
X70618Y1106298D01*
X68184Y1104477D01*
X65938Y1102436D01*
X63897Y1100190D01*
X62077Y1097755D01*
X60493Y1095148D01*
X59161Y1092384D01*
X58097Y1089478D01*
X57318Y1086448D01*
X56839Y1083308D01*
X56676Y1080075D01*
X54299Y680177D02*
X54474Y676701D01*
X54989Y673325D01*
X55827Y670066D01*
X56970Y666943D01*
X58402Y663971D01*
X60105Y661167D01*
X62062Y658550D01*
X64257Y656135D01*
X66671Y653941D01*
X69289Y651984D01*
X72092Y650281D01*
X75064Y648849D01*
X78188Y647706D01*
X81446Y646868D01*
X84822Y646353D01*
X88298Y646177D01*
X91774Y646353D01*
X95150Y646868D01*
X98409Y647706D01*
X101533Y648849D01*
X104505Y650281D01*
X107308Y651984D01*
X109926Y653941D01*
X112340Y656135D01*
X114535Y658550D01*
X116492Y661167D01*
X118196Y663971D01*
X119627Y666943D01*
X120771Y670066D01*
X121609Y673325D01*
X122124Y676701D01*
X122300Y680177D01*
X122124Y683653D01*
X121609Y687029D01*
X120771Y690287D01*
X119627Y693411D01*
X118196Y696383D01*
X116492Y699186D01*
X114535Y701803D01*
X112340Y704217D01*
X109926Y706412D01*
X107308Y708369D01*
X104505Y710072D01*
X101533Y711503D01*
X98409Y712646D01*
X95150Y713484D01*
X91774Y713999D01*
X88298Y714175D01*
X84822Y713999D01*
X81446Y713484D01*
X78188Y712646D01*
X75064Y711503D01*
X72092Y710072D01*
X69289Y708369D01*
X66671Y706412D01*
X64257Y704217D01*
X62062Y701803D01*
X60105Y699186D01*
X58402Y696383D01*
X56970Y693411D01*
X55827Y690287D01*
X54989Y687029D01*
X54474Y683653D01*
X54299Y680177D01*
X384499Y680177D02*
X384674Y676701D01*
X385190Y673325D01*
X386027Y670066D01*
X387171Y666943D01*
X388602Y663971D01*
X390305Y661167D01*
X392263Y658550D01*
X394457Y656135D01*
X396872Y653941D01*
X399489Y651984D01*
X402292Y650281D01*
X405264Y648849D01*
X408388Y647706D01*
X411646Y646868D01*
X415022Y646353D01*
X418499Y646177D01*
X421975Y646353D01*
X425351Y646868D01*
X428609Y647706D01*
X431733Y648849D01*
X434705Y650281D01*
X437508Y651984D01*
X440125Y653941D01*
X442540Y656135D01*
X444734Y658550D01*
X446692Y661167D01*
X448395Y663971D01*
X449826Y666943D01*
X450970Y670066D01*
X451807Y673325D01*
X452323Y676701D01*
X452498Y680177D01*
X452323Y683653D01*
X451807Y687029D01*
X450970Y690287D01*
X449826Y693411D01*
X448395Y696383D01*
X446692Y699186D01*
X444734Y701803D01*
X442540Y704217D01*
X440125Y706412D01*
X437508Y708369D01*
X434705Y710072D01*
X431733Y711503D01*
X428609Y712646D01*
X425351Y713484D01*
X421975Y713999D01*
X418499Y714175D01*
X415022Y713999D01*
X411646Y713484D01*
X408388Y712646D01*
X405264Y711503D01*
X402292Y710072D01*
X399489Y708369D01*
X396872Y706412D01*
X394457Y704217D01*
X392263Y701803D01*
X390305Y699186D01*
X388602Y696383D01*
X387171Y693411D01*
X386027Y690287D01*
X385190Y687029D01*
X384674Y683653D01*
X384499Y680177D01*
X1053399Y686375D02*
X1053530Y683767D01*
X1053917Y681235D01*
X1054545Y678791D01*
X1055403Y676449D01*
X1056476Y674219D01*
X1057754Y672117D01*
X1059222Y670154D01*
X1060868Y668343D01*
X1062678Y666697D01*
X1064642Y665229D01*
X1066744Y663952D01*
X1068973Y662878D01*
X1071316Y662020D01*
X1073760Y661392D01*
X1076292Y661006D01*
X1078899Y660874D01*
X1081507Y661006D01*
X1084038Y661392D01*
X1086482Y662020D01*
X1088825Y662878D01*
X1091054Y663952D01*
X1093157Y665229D01*
X1095120Y666697D01*
X1096931Y668343D01*
X1098577Y670154D01*
X1100045Y672117D01*
X1101322Y674219D01*
X1102396Y676449D01*
X1103253Y678791D01*
X1103882Y681235D01*
X1104268Y683767D01*
X1104400Y686375D01*
X1104268Y688982D01*
X1103882Y691514D01*
X1103253Y693958D01*
X1102396Y696301D01*
X1101322Y698530D01*
X1100045Y700632D01*
X1098577Y702595D01*
X1096931Y704406D01*
X1095120Y706052D01*
X1093157Y707520D01*
X1091054Y708797D01*
X1088825Y709871D01*
X1086482Y710729D01*
X1084038Y711357D01*
X1081507Y711743D01*
X1078899Y711875D01*
X1076292Y711743D01*
X1073760Y711357D01*
X1071316Y710729D01*
X1068973Y709871D01*
X1066744Y708797D01*
X1064642Y707520D01*
X1062678Y706052D01*
X1060868Y704406D01*
X1059222Y702595D01*
X1057754Y700632D01*
X1056476Y698530D01*
X1055403Y696301D01*
X1054545Y693958D01*
X1053917Y691514D01*
X1053530Y688982D01*
X1053399Y686375D01*
X852798Y254577D02*
X852877Y251438D01*
X853113Y248340D01*
X853500Y245287D01*
X854037Y242283D01*
X854718Y239332D01*
X855540Y236437D01*
X856499Y233603D01*
X857591Y230833D01*
X858813Y228131D01*
X860160Y225501D01*
X861628Y222946D01*
X863215Y220471D01*
X864916Y218080D01*
X866726Y215775D01*
X868644Y213562D01*
X870663Y211444D01*
X872782Y209424D01*
X874995Y207507D01*
X877299Y205696D01*
X879691Y203995D01*
X882166Y202409D01*
X884720Y200940D01*
X887351Y199593D01*
X890053Y198371D01*
X892823Y197279D01*
X895657Y196320D01*
X898552Y195498D01*
X901503Y194817D01*
X904507Y194281D01*
X907559Y193893D01*
X910657Y193657D01*
X913796Y193578D01*
X916935Y193657D01*
X920033Y193893D01*
X923086Y194281D01*
X926090Y194817D01*
X929041Y195498D01*
X931936Y196320D01*
X934771Y197279D01*
X937541Y198371D01*
X940243Y199593D01*
X942873Y200940D01*
X945428Y202409D01*
X947903Y203995D01*
X950295Y205696D01*
X952599Y207507D01*
X954813Y209424D01*
X956931Y211444D01*
X958951Y213562D01*
X960868Y215775D01*
X962679Y218080D01*
X964380Y220471D01*
X965967Y222946D01*
X967436Y225501D01*
X968783Y228131D01*
X970005Y230833D01*
X971097Y233603D01*
X972056Y236437D01*
X972878Y239332D01*
X973559Y242283D01*
X974096Y245287D01*
X974484Y248340D01*
X974719Y251438D01*
X974799Y254577D01*
X974719Y257716D01*
X974484Y260814D01*
X974096Y263866D01*
X973559Y266870D01*
X972878Y269821D01*
X972056Y272716D01*
X971097Y275550D01*
X970005Y278321D01*
X968783Y281023D01*
X967436Y283653D01*
X965967Y286207D01*
X964380Y288682D01*
X962679Y291074D01*
X960868Y293378D01*
X958951Y295591D01*
X956931Y297710D01*
X954813Y299729D01*
X952599Y301647D01*
X950295Y303457D01*
X947903Y305158D01*
X945428Y306745D01*
X942873Y308213D01*
X940243Y309560D01*
X937541Y310782D01*
X934771Y311874D01*
X931936Y312833D01*
X929041Y313655D01*
X926090Y314336D01*
X923086Y314873D01*
X920033Y315261D01*
X916935Y315496D01*
X913796Y315575D01*
X910657Y315496D01*
X907559Y315261D01*
X904507Y314873D01*
X901503Y314336D01*
X898552Y313655D01*
X895657Y312833D01*
X892823Y311874D01*
X890053Y310782D01*
X887351Y309560D01*
X884720Y308213D01*
X882166Y306745D01*
X879691Y305158D01*
X877299Y303457D01*
X874995Y301647D01*
X872782Y299729D01*
X870663Y297710D01*
X868644Y295591D01*
X866726Y293378D01*
X864916Y291074D01*
X863215Y288682D01*
X861628Y286207D01*
X860160Y283653D01*
X858813Y281023D01*
X857591Y278321D01*
X856499Y275550D01*
X855540Y272716D01*
X854718Y269821D01*
X854037Y266870D01*
X853500Y263866D01*
X853113Y260814D01*
X852877Y257716D01*
X852798Y254577D01*
X53008Y26780D02*
X53458Y24675D01*
X55075Y20848D01*
X56248Y19121D01*
X59144Y16228D01*
X60868Y15056D01*
X62784Y14247D01*
X64697Y13437D01*
X66802Y12989D01*
X81217Y12989D01*
X83323Y13437D01*
X85237Y14247D01*
X87153Y15056D01*
X88875Y16228D01*
X91772Y19121D01*
X92944Y20848D01*
X94563Y24675D01*
X95011Y26780D01*
X95011Y31197D01*
X94563Y33302D01*
X92944Y37129D01*
X91772Y38855D01*
X88875Y41749D01*
X87153Y42920D01*
X83323Y44539D01*
X81217Y44987D01*
X66802Y44987D01*
X64697Y44539D01*
X62784Y43730D01*
X60868Y42920D01*
X59144Y41749D01*
X56248Y38855D01*
X55075Y37129D01*
X53458Y33302D01*
X53008Y31197D01*
X53008Y26780D01*
X26848Y121227D02*
X27044Y118638D01*
X27612Y116171D01*
X28524Y113856D01*
X29751Y111721D01*
X31264Y109795D01*
X33034Y108107D01*
X35033Y106687D01*
X37231Y105561D01*
X39600Y104761D01*
X42111Y104313D01*
X43850Y104226D01*
X46438Y104421D01*
X48904Y104990D01*
X51219Y105902D01*
X53354Y107129D01*
X55279Y108642D01*
X56967Y110412D01*
X58388Y112411D01*
X59513Y114609D01*
X60314Y116978D01*
X60761Y119489D01*
X60849Y121227D01*
X60653Y123816D01*
X60085Y126282D01*
X59173Y128597D01*
X57946Y130731D01*
X56433Y132656D01*
X54663Y134344D01*
X52664Y135764D01*
X50466Y136889D01*
X48098Y137690D01*
X45588Y138138D01*
X43850Y138225D01*
X41260Y138029D01*
X38793Y137461D01*
X36478Y136549D01*
X34343Y135322D01*
X32417Y133810D01*
X30730Y132040D01*
X29309Y130041D01*
X28184Y127844D01*
X27383Y125475D01*
X26936Y122965D01*
X26848Y121227D01*
X1063889Y338713D02*
X1064062Y336427D01*
X1064564Y334250D01*
X1065369Y332206D01*
X1066453Y330321D01*
X1067789Y328621D01*
X1069352Y327130D01*
X1071116Y325876D01*
X1073057Y324882D01*
X1075148Y324175D01*
X1077365Y323780D01*
X1078899Y323702D01*
X1081185Y323875D01*
X1083362Y324377D01*
X1085406Y325183D01*
X1087291Y326266D01*
X1088991Y327602D01*
X1090482Y329165D01*
X1091736Y330930D01*
X1092730Y332871D01*
X1093437Y334962D01*
X1093832Y337178D01*
X1093910Y338713D01*
X1093737Y340998D01*
X1093235Y343176D01*
X1092429Y345220D01*
X1091346Y347105D01*
X1090010Y348805D01*
X1088447Y350295D01*
X1086682Y351550D01*
X1084741Y352543D01*
X1082650Y353250D01*
X1080434Y353646D01*
X1078899Y353723D01*
X1076614Y353550D01*
X1074436Y353048D01*
X1072392Y352243D01*
X1070507Y351159D01*
X1068807Y349823D01*
X1067317Y348260D01*
X1066062Y346496D01*
X1065069Y344555D01*
X1064362Y342464D01*
X1063966Y340247D01*
X1063889Y338713D01*
X42506Y845817D02*
X42623Y791886D01*
X60262Y791924D01*
X60162Y838400D01*
X75514Y853381D01*
X81506Y853472D01*
X81506Y792384D01*
X92089Y792384D01*
X92089Y853632D01*
X97638Y853716D01*
X112624Y838710D01*
X112722Y792146D01*
X130361Y792184D01*
X130246Y846024D01*
X104841Y871466D01*
X68223Y870913D01*
X42506Y845817D01*
X709089Y1140634D02*
X789466Y1140634D01*
X789466Y1170452D01*
X709089Y1170452D01*
X709089Y1140634D01*
X568589Y495878D02*
X568762Y493592D01*
X569264Y491414D01*
X570069Y489369D01*
X571153Y487485D01*
X572488Y485785D01*
X574051Y484295D01*
X575816Y483040D01*
X577757Y482047D01*
X579848Y481340D01*
X582065Y480945D01*
X583600Y480868D01*
X585885Y481041D01*
X588063Y481542D01*
X590106Y482348D01*
X591991Y483431D01*
X593691Y484766D01*
X595181Y486329D01*
X596435Y488094D01*
X597429Y490034D01*
X598136Y492126D01*
X598531Y494343D01*
X598608Y495878D01*
X598435Y498164D01*
X597933Y500341D01*
X597128Y502385D01*
X596045Y504269D01*
X594709Y505969D01*
X593146Y507458D01*
X591382Y508712D01*
X589442Y509706D01*
X587350Y510412D01*
X585134Y510807D01*
X583600Y510885D01*
X581314Y510712D01*
X579136Y510210D01*
X577092Y509405D01*
X575207Y508322D01*
X573507Y506987D01*
X572017Y505424D01*
X570762Y503660D01*
X569769Y501720D01*
X569062Y499629D01*
X568667Y497413D01*
X568589Y495878D01*
X286034Y803976D02*
X286417Y803976D01*
X286417Y803596D01*
X286799Y803976D01*
X286417Y804355D01*
X286034Y803976D01*
X550578Y835475D02*
X616619Y835475D01*
X616619Y867473D01*
X550578Y867473D01*
X550578Y835475D01*
X1053399Y559378D02*
X1053530Y556771D01*
X1053917Y554239D01*
X1054545Y551795D01*
X1055403Y549452D01*
X1056476Y547223D01*
X1057754Y545120D01*
X1059222Y543157D01*
X1060868Y541346D01*
X1062678Y539701D01*
X1064642Y538233D01*
X1066744Y536955D01*
X1068973Y535881D01*
X1071316Y535024D01*
X1073760Y534396D01*
X1076292Y534009D01*
X1078899Y533878D01*
X1081507Y534009D01*
X1084038Y534396D01*
X1086482Y535024D01*
X1088825Y535881D01*
X1091054Y536955D01*
X1093157Y538233D01*
X1095120Y539701D01*
X1096931Y541346D01*
X1098577Y543157D01*
X1100045Y545120D01*
X1101322Y547223D01*
X1102396Y549452D01*
X1103253Y551795D01*
X1103882Y554239D01*
X1104268Y556771D01*
X1104400Y559378D01*
X1104268Y561985D01*
X1103882Y564516D01*
X1103253Y566960D01*
X1102396Y569302D01*
X1101322Y571531D01*
X1100045Y573633D01*
X1098577Y575596D01*
X1096931Y577407D01*
X1095120Y579052D01*
X1093157Y580520D01*
X1091054Y581797D01*
X1088825Y582871D01*
X1086482Y583729D01*
X1084038Y584357D01*
X1081507Y584743D01*
X1078899Y584875D01*
X1076292Y584743D01*
X1073760Y584357D01*
X1071316Y583729D01*
X1068973Y582871D01*
X1066744Y581797D01*
X1064642Y580520D01*
X1062678Y579052D01*
X1060868Y577407D01*
X1059222Y575596D01*
X1057754Y573633D01*
X1056476Y571531D01*
X1055403Y569302D01*
X1054545Y566960D01*
X1053917Y564516D01*
X1053530Y561985D01*
X1053399Y559378D01*
X220378Y835475D02*
X220760Y835475D01*
X286417Y835475D01*
X286417Y867473D01*
X220378Y867473D01*
X220378Y835475D01*
X219997Y835475D02*
X220378Y835094D01*
X220760Y835475D01*
X286417Y835475D01*
X286417Y867473D01*
X220378Y867473D01*
X220378Y835857D01*
X219997Y835475D01*
X53008Y1251779D02*
X53458Y1249674D01*
X55075Y1245846D01*
X56248Y1244120D01*
X59144Y1241228D01*
X60868Y1240056D01*
X62784Y1239247D01*
X64697Y1238437D01*
X66802Y1237988D01*
X81217Y1237988D01*
X83323Y1238437D01*
X85237Y1239247D01*
X87153Y1240056D01*
X88875Y1241228D01*
X91772Y1244120D01*
X92944Y1245846D01*
X94563Y1249674D01*
X95011Y1251779D01*
X95011Y1256197D01*
X94563Y1258300D01*
X92944Y1262131D01*
X91772Y1263853D01*
X88875Y1266749D01*
X87153Y1267921D01*
X83323Y1269539D01*
X81217Y1269986D01*
X66802Y1269986D01*
X64697Y1269539D01*
X62784Y1268730D01*
X60868Y1267921D01*
X59144Y1266749D01*
X56248Y1263853D01*
X55075Y1262131D01*
X53458Y1258300D01*
X53008Y1256197D01*
X53008Y1251779D01*
X384499Y438876D02*
X384674Y435400D01*
X385190Y432024D01*
X386027Y428766D01*
X387171Y425642D01*
X388602Y422670D01*
X390305Y419867D01*
X392263Y417249D01*
X394457Y414835D01*
X396872Y412640D01*
X399489Y410683D01*
X402292Y408980D01*
X405264Y407548D01*
X408388Y406405D01*
X411646Y405567D01*
X415022Y405051D01*
X418499Y404876D01*
X421975Y405051D01*
X425351Y405567D01*
X428609Y406405D01*
X431733Y407548D01*
X434705Y408980D01*
X437508Y410683D01*
X440125Y412640D01*
X442540Y414835D01*
X444734Y417249D01*
X446692Y419867D01*
X448395Y422670D01*
X449826Y425642D01*
X450970Y428766D01*
X451807Y432024D01*
X452323Y435400D01*
X452498Y438876D01*
X452323Y442352D01*
X451807Y445728D01*
X450970Y448987D01*
X449826Y452110D01*
X448395Y455082D01*
X446692Y457886D01*
X444734Y460503D01*
X442540Y462918D01*
X440125Y465112D01*
X437508Y467069D01*
X434705Y468772D01*
X431733Y470204D01*
X428609Y471347D01*
X425351Y472185D01*
X421975Y472700D01*
X418499Y472875D01*
X415022Y472700D01*
X411646Y472185D01*
X408388Y471347D01*
X405264Y470204D01*
X402292Y468772D01*
X399489Y467069D01*
X396872Y465112D01*
X394457Y462918D01*
X392263Y460503D01*
X390305Y457886D01*
X388602Y455082D01*
X387171Y452110D01*
X386027Y448987D01*
X385190Y445728D01*
X384674Y442352D01*
X384499Y438876D01*
X386876Y1080075D02*
X387039Y1076842D01*
X387518Y1073702D01*
X388298Y1070671D01*
X389361Y1067766D01*
X390693Y1065002D01*
X392276Y1062395D01*
X394097Y1059961D01*
X396138Y1057715D01*
X398383Y1055674D01*
X400818Y1053854D01*
X403425Y1052270D01*
X406189Y1050939D01*
X409095Y1049876D01*
X412125Y1049096D01*
X415265Y1048617D01*
X418499Y1048454D01*
X421732Y1048617D01*
X424872Y1049096D01*
X427902Y1049876D01*
X430808Y1050939D01*
X433572Y1052270D01*
X436179Y1053854D01*
X438613Y1055674D01*
X440859Y1057715D01*
X442900Y1059961D01*
X444720Y1062395D01*
X446304Y1065002D01*
X447636Y1067766D01*
X448699Y1070671D01*
X449478Y1073702D01*
X449958Y1076842D01*
X450121Y1080075D01*
X449958Y1083308D01*
X449478Y1086448D01*
X448699Y1089478D01*
X447636Y1092384D01*
X446304Y1095148D01*
X444720Y1097755D01*
X442900Y1100190D01*
X440859Y1102436D01*
X438613Y1104477D01*
X436179Y1106298D01*
X433572Y1107882D01*
X430808Y1109214D01*
X427902Y1110277D01*
X424872Y1111057D01*
X421732Y1111536D01*
X418499Y1111699D01*
X415265Y1111536D01*
X412125Y1111057D01*
X409095Y1110277D01*
X406189Y1109214D01*
X403425Y1107882D01*
X400818Y1106298D01*
X398383Y1104477D01*
X396138Y1102436D01*
X394097Y1100190D01*
X392276Y1097755D01*
X390693Y1095148D01*
X389361Y1092384D01*
X388298Y1089478D01*
X387518Y1086448D01*
X387039Y1083308D01*
X386876Y1080075D01*
X898786Y495878D02*
X898959Y493592D01*
X899461Y491414D01*
X900266Y489369D01*
X901350Y487485D01*
X902686Y485785D01*
X904249Y484295D01*
X906013Y483040D01*
X907954Y482047D01*
X910045Y481340D01*
X912262Y480945D01*
X913796Y480868D01*
X916083Y481041D01*
X918261Y481542D01*
X920305Y482348D01*
X922190Y483431D01*
X923890Y484766D01*
X925380Y486329D01*
X926634Y488094D01*
X927627Y490034D01*
X928334Y492126D01*
X928729Y494343D01*
X928807Y495878D01*
X928634Y498164D01*
X928132Y500341D01*
X927327Y502385D01*
X926244Y504269D01*
X924908Y505969D01*
X923345Y507458D01*
X921581Y508712D01*
X919640Y509706D01*
X917549Y510412D01*
X915332Y510807D01*
X913796Y510885D01*
X911511Y510712D01*
X909333Y510210D01*
X907289Y509405D01*
X905404Y508322D01*
X903704Y506987D01*
X902214Y505424D01*
X900959Y503660D01*
X899966Y501720D01*
X899259Y499629D01*
X898864Y497413D01*
X898786Y495878D01*
X1228988Y338713D02*
X1229161Y336427D01*
X1229663Y334250D01*
X1230469Y332206D01*
X1231552Y330321D01*
X1232888Y328621D01*
X1234451Y327130D01*
X1236216Y325876D01*
X1238156Y324882D01*
X1240248Y324175D01*
X1242464Y323780D01*
X1243999Y323702D01*
X1246284Y323875D01*
X1248462Y324377D01*
X1250506Y325183D01*
X1252390Y326266D01*
X1254091Y327602D01*
X1255581Y329165D01*
X1256835Y330930D01*
X1257829Y332871D01*
X1258536Y334962D01*
X1258931Y337178D01*
X1259009Y338713D01*
X1258836Y340998D01*
X1258334Y343176D01*
X1257528Y345220D01*
X1256445Y347105D01*
X1255109Y348805D01*
X1253546Y350295D01*
X1251781Y351550D01*
X1249841Y352543D01*
X1247749Y353250D01*
X1245533Y353646D01*
X1243999Y353723D01*
X1241713Y353550D01*
X1239535Y353048D01*
X1237491Y352243D01*
X1235607Y351159D01*
X1233906Y349823D01*
X1232416Y348260D01*
X1231162Y346496D01*
X1230168Y344555D01*
X1229461Y342464D01*
X1229066Y340247D01*
X1228988Y338713D01*
X379052Y1140634D02*
X459426Y1140634D01*
X459426Y1170452D01*
X379052Y1170452D01*
X379052Y1140634D01*
X385477Y835475D02*
X385856Y835475D01*
X451516Y835475D01*
X451516Y867473D01*
X385477Y867473D01*
X385477Y835475D01*
X901353Y1027532D02*
X927642Y1027532D01*
X927642Y1130670D01*
X901353Y1130670D01*
X901353Y1027532D01*
X544138Y1140634D02*
X624513Y1140634D01*
X624513Y1170452D01*
X544138Y1170452D01*
X544138Y1140634D01*
X715679Y835475D02*
X716058Y835475D01*
X781718Y835475D01*
X781718Y867473D01*
X715679Y867473D01*
X715679Y835475D01*
X715679Y835475D02*
X716058Y835475D01*
X781336Y835475D01*
X781718Y835094D01*
X782097Y835475D01*
X781718Y835857D01*
X781718Y867473D01*
X715679Y867473D01*
X715679Y835475D01*
X715297Y835475D02*
X715679Y835094D01*
X716058Y835475D01*
X781718Y835475D01*
X781718Y867473D01*
X715679Y867473D01*
X715679Y835857D01*
X715297Y835475D01*
X715297Y835475D02*
X715679Y835094D01*
X716058Y835475D01*
X781336Y835475D01*
X781718Y835094D01*
X782097Y835475D01*
X781718Y835857D01*
X781718Y867473D01*
X715679Y867473D01*
X715679Y835857D01*
X715297Y835475D01*
X781336Y835475D02*
X781718Y835094D01*
X782097Y835475D01*
X781718Y835857D01*
X781718Y835475D01*
X781336Y835475D01*
X715297Y835475D02*
X715679Y835094D01*
X716058Y835475D01*
X715679Y835475D01*
X715679Y835857D01*
X715297Y835475D01*
X219997Y835475D02*
X220378Y835094D01*
X220760Y835475D01*
X220378Y835475D01*
X220378Y835857D01*
X219997Y835475D01*
X385477Y771976D02*
X385856Y771976D01*
X451516Y771976D01*
X451516Y803976D01*
X385477Y803976D01*
X385477Y771976D01*
X385477Y771976D02*
X385856Y771976D01*
X451137Y771976D01*
X451516Y771596D01*
X451899Y771976D01*
X451516Y772357D01*
X451516Y803976D01*
X385477Y803976D01*
X385477Y771976D01*
X451137Y771976D02*
X451516Y771596D01*
X451899Y771976D01*
X451516Y772357D01*
X451516Y771976D01*
X451137Y771976D01*
X901353Y774341D02*
X927642Y774341D01*
X927642Y927226D01*
X901353Y927226D01*
X901353Y774341D01*
X213898Y1140634D02*
X294273Y1140634D01*
X294273Y1170452D01*
X213898Y1170452D01*
X213898Y1140634D01*
M02*
