G04 EAGLE Gerber RS-274X export*
G75*
%MOMM*%
%FSLAX34Y34*%
%LPD*%
%INSilkscreen Bottom*%
%IPPOS*%
%AMOC8*
5,1,8,0,0,1.08239X$1,22.5*%
G01*
%ADD10C,0.127000*%


D10*
X1306277Y314925D02*
X1280877Y314925D01*
X1280877Y391125D01*
X1306277Y391125D01*
X1306277Y314925D01*
M02*
