  0
SECTION
  2
HEADER
  9
$ACADVER
  1
AC1024
  9
$ACADMAINTVER
 70
     6
  9
$DWGCODEPAGE
  3
ANSI_1252
  9
$INSBASE
 10
0.0
 20
0.0
 30
0.0
  9
$EXTMIN
 10
1.000000000000000E+20
 20
1.000000000000000E+20
 30
1.000000000000000E+20
  9
$EXTMAX
 10
-1.000000000000000E+20
 20
-1.000000000000000E+20
 30
-1.000000000000000E+20
  9
$LIMMIN
 10
0.0
 20
0.0
  9
$LIMMAX
 10
12.0
 20
9.0
  9
$ORTHOMODE
 70
     0
  9
$REGENMODE
 70
     1
  9
$FILLMODE
 70
     1
  9
$QTEXTMODE
 70
     0
  9
$MIRRTEXT
 70
     1
  9
$LTSCALE
 40
1.0
  9
$ATTMODE
 70
     1
  9
$TEXTSIZE
 40
0.2
  9
$TRACEWID
 40
0.05
  9
$TEXTSTYLE
  7
Standard
  9
$CLAYER
  8
0
  9
$CELTYPE
  6
ByLayer
  9
$CECOLOR
 62
   256
  9
$CELTSCALE
 40
1.0
  9
$DISPSILH
 70
     0
  9
$DIMSCALE
 40
1.0
  9
$DIMASZ
 40
0.18
  9
$DIMEXO
 40
0.0625
  9
$DIMDLI
 40
0.38
  9
$DIMRND
 40
0.0
  9
$DIMDLE
 40
0.0
  9
$DIMEXE
 40
0.18
  9
$DIMTP
 40
0.0
  9
$DIMTM
 40
0.0
  9
$DIMTXT
 40
0.18
  9
$DIMCEN
 40
0.09
  9
$DIMTSZ
 40
0.0
  9
$DIMTOL
 70
     0
  9
$DIMLIM
 70
     0
  9
$DIMTIH
 70
     1
  9
$DIMTOH
 70
     1
  9
$DIMSE1
 70
     0
  9
$DIMSE2
 70
     0
  9
$DIMTAD
 70
     0
  9
$DIMZIN
 70
     0
  9
$DIMBLK
  1

  9
$DIMASO
 70
     1
  9
$DIMSHO
 70
     1
  9
$DIMPOST
  1

  9
$DIMAPOST
  1

  9
$DIMALT
 70
     0
  9
$DIMALTD
 70
     2
  9
$DIMALTF
 40
25.4
  9
$DIMLFAC
 40
1.0
  9
$DIMTOFL
 70
     0
  9
$DIMTVP
 40
0.0
  9
$DIMTIX
 70
     0
  9
$DIMSOXD
 70
     0
  9
$DIMSAH
 70
     0
  9
$DIMBLK1
  1

  9
$DIMBLK2
  1

  9
$DIMSTYLE
  2
Standard
  9
$DIMCLRD
 70
     0
  9
$DIMCLRE
 70
     0
  9
$DIMCLRT
 70
     0
  9
$DIMTFAC
 40
1.0
  9
$DIMGAP
 40
0.09
  9
$DIMJUST
 70
     0
  9
$DIMSD1
 70
     0
  9
$DIMSD2
 70
     0
  9
$DIMTOLJ
 70
     1
  9
$DIMTZIN
 70
     0
  9
$DIMALTZ
 70
     0
  9
$DIMALTTZ
 70
     0
  9
$DIMUPT
 70
     0
  9
$DIMDEC
 70
     4
  9
$DIMTDEC
 70
     4
  9
$DIMALTU
 70
     2
  9
$DIMALTTD
 70
     2
  9
$DIMTXSTY
  7
Standard
  9
$DIMAUNIT
 70
     0
  9
$DIMADEC
 70
     0
  9
$DIMALTRND
 40
0.0
  9
$DIMAZIN
 70
     0
  9
$DIMDSEP
 70
    46
  9
$DIMATFIT
 70
     3
  9
$DIMFRAC
 70
     0
  9
$DIMLDRBLK
  1

  9
$DIMLUNIT
 70
     2
  9
$DIMLWD
 70
    -2
  9
$DIMLWE
 70
    -2
  9
$DIMTMOVE
 70
     0
  9
$DIMFXL
 40
1.0
  9
$DIMFXLON
 70
     0
  9
$DIMJOGANG
 40
0.7853981633974483
  9
$DIMTFILL
 70
     0
  9
$DIMTFILLCLR
 70
     0
  9
$DIMARCSYM
 70
     0
  9
$DIMLTYPE
  6

  9
$DIMLTEX1
  6

  9
$DIMLTEX2
  6

  9
$DIMTXTDIRECTION
 70
     0
  9
$LUNITS
 70
     2
  9
$LUPREC
 70
     4
  9
$SKETCHINC
 40
0.1
  9
$FILLETRAD
 40
0.5
  9
$AUNITS
 70
     0
  9
$AUPREC
 70
     0
  9
$MENU
  1
.
  9
$ELEVATION
 40
0.0
  9
$PELEVATION
 40
0.0
  9
$THICKNESS
 40
0.0
  9
$LIMCHECK
 70
     0
  9
$CHAMFERA
 40
0.5
  9
$CHAMFERB
 40
0.5
  9
$CHAMFERC
 40
1.0
  9
$CHAMFERD
 40
0.0
  9
$SKPOLY
 70
     0
  9
$TDCREATE
 40
2459489.779526817
  9
$TDUCREATE
 40
2459489.696193484
  9
$TDUPDATE
 40
2459489.779526875
  9
$TDUUPDATE
 40
2459489.696193542
  9
$TDINDWG
 40
0.0000000116
  9
$TDUSRTIMER
 40
0.0000000116
  9
$USRTIMER
 70
     1
  9
$ANGBASE
 50
0.0
  9
$ANGDIR
 70
     0
  9
$PDMODE
 70
     0
  9
$PDSIZE
 40
0.0
  9
$PLINEWID
 40
0.0
  9
$SPLFRAME
 70
     0
  9
$SPLINETYPE
 70
     6
  9
$SPLINESEGS
 70
     8
  9
$HANDSEED
  5
C3
  9
$SURFTAB1
 70
     6
  9
$SURFTAB2
 70
     6
  9
$SURFTYPE
 70
     6
  9
$SURFU
 70
     6
  9
$SURFV
 70
     6
  9
$UCSBASE
  2

  9
$UCSNAME
  2

  9
$UCSORG
 10
0.0
 20
0.0
 30
0.0
  9
$UCSXDIR
 10
1.0
 20
0.0
 30
0.0
  9
$UCSYDIR
 10
0.0
 20
1.0
 30
0.0
  9
$UCSORTHOREF
  2

  9
$UCSORTHOVIEW
 70
     0
  9
$UCSORGTOP
 10
0.0
 20
0.0
 30
0.0
  9
$UCSORGBOTTOM
 10
0.0
 20
0.0
 30
0.0
  9
$UCSORGLEFT
 10
0.0
 20
0.0
 30
0.0
  9
$UCSORGRIGHT
 10
0.0
 20
0.0
 30
0.0
  9
$UCSORGFRONT
 10
0.0
 20
0.0
 30
0.0
  9
$UCSORGBACK
 10
0.0
 20
0.0
 30
0.0
  9
$PUCSBASE
  2

  9
$PUCSNAME
  2

  9
$PUCSORG
 10
0.0
 20
0.0
 30
0.0
  9
$PUCSXDIR
 10
1.0
 20
0.0
 30
0.0
  9
$PUCSYDIR
 10
0.0
 20
1.0
 30
0.0
  9
$PUCSORTHOREF
  2

  9
$PUCSORTHOVIEW
 70
     0
  9
$PUCSORGTOP
 10
0.0
 20
0.0
 30
0.0
  9
$PUCSORGBOTTOM
 10
0.0
 20
0.0
 30
0.0
  9
$PUCSORGLEFT
 10
0.0
 20
0.0
 30
0.0
  9
$PUCSORGRIGHT
 10
0.0
 20
0.0
 30
0.0
  9
$PUCSORGFRONT
 10
0.0
 20
0.0
 30
0.0
  9
$PUCSORGBACK
 10
0.0
 20
0.0
 30
0.0
  9
$USERI1
 70
     0
  9
$USERI2
 70
     0
  9
$USERI3
 70
     0
  9
$USERI4
 70
     0
  9
$USERI5
 70
     0
  9
$USERR1
 40
0.0
  9
$USERR2
 40
0.0
  9
$USERR3
 40
0.0
  9
$USERR4
 40
0.0
  9
$USERR5
 40
0.0
  9
$WORLDVIEW
 70
     1
  9
$SHADEDGE
 70
     3
  9
$SHADEDIF
 70
    70
  9
$TILEMODE
 70
     1
  9
$MAXACTVP
 70
    64
  9
$PINSBASE
 10
0.0
 20
0.0
 30
0.0
  9
$PLIMCHECK
 70
     0
  9
$PEXTMIN
 10
1.000000000000000E+20
 20
1.000000000000000E+20
 30
1.000000000000000E+20
  9
$PEXTMAX
 10
-1.000000000000000E+20
 20
-1.000000000000000E+20
 30
-1.000000000000000E+20
  9
$PLIMMIN
 10
0.0
 20
0.0
  9
$PLIMMAX
 10
12.0
 20
9.0
  9
$UNITMODE
 70
     0
  9
$VISRETAIN
 70
     1
  9
$PLINEGEN
 70
     0
  9
$PSLTSCALE
 70
     1
  9
$TREEDEPTH
 70
  3020
  9
$CMLSTYLE
  2
Standard
  9
$CMLJUST
 70
     0
  9
$CMLSCALE
 40
1.0
  9
$PROXYGRAPHICS
 70
     1
  9
$MEASUREMENT
 70
     0
  9
$CELWEIGHT
370
    -1
  9
$ENDCAPS
280
     0
  9
$JOINSTYLE
280
     0
  9
$LWDISPLAY
290
     1
  9
$INSUNITS
 70
     4
  9
$HYPERLINKBASE
  1

  9
$STYLESHEET
  1

  9
$XEDIT
290
     1
  9
$CEPSNTYPE
380
     0
  9
$PSTYLEMODE
290
     1
  9
$FINGERPRINTGUID
  2
{858D1EF5-6C5B-4992-B72D-13B6E4619608}
  9
$VERSIONGUID
  2
{FAEB1C32-E019-11D5-929B-00C0DF256EC4}
  9
$EXTNAMES
290
     1
  9
$PSVPSCALE
 40
0.0
  9
$OLESTARTUP
290
     0
  9
$SORTENTS
280
   127
  9
$INDEXCTL
280
     0
  9
$HIDETEXT
280
     1
  9
$XCLIPFRAME
280
     2
  9
$HALOGAP
280
     0
  9
$OBSCOLOR
 70
   257
  9
$OBSLTYPE
280
     0
  9
$INTERSECTIONDISPLAY
280
     0
  9
$INTERSECTIONCOLOR
 70
   257
  9
$DIMASSOC
280
     2
  9
$PROJECTNAME
  1

  9
$CAMERADISPLAY
290
     0
  9
$LENSLENGTH
 40
50.0
  9
$CAMERAHEIGHT
 40
0.0
  9
$STEPSPERSEC
 40
2.0
  9
$STEPSIZE
 40
6.0
  9
$3DDWFPREC
 40
2.0
  9
$PSOLWIDTH
 40
0.25
  9
$PSOLHEIGHT
 40
4.0
  9
$LOFTANG1
 40
1.570796326794897
  9
$LOFTANG2
 40
1.570796326794897
  9
$LOFTMAG1
 40
0.0
  9
$LOFTMAG2
 40
0.0
  9
$LOFTPARAM
 70
     7
  9
$LOFTNORMALS
280
     1
  9
$LATITUDE
 40
37.795
  9
$LONGITUDE
 40
-122.394
  9
$NORTHDIRECTION
 40
0.0
  9
$TIMEZONE
 70
 -8000
  9
$LIGHTGLYPHDISPLAY
280
     1
  9
$TILEMODELIGHTSYNCH
280
     1
  9
$CMATERIAL
347
3C
  9
$SOLIDHIST
280
     1
  9
$SHOWHIST
280
     1
  9
$DWFFRAME
280
     2
  9
$DGNFRAME
280
     2
  9
$REALWORLDSCALE
290
     1
  9
$INTERFERECOLOR
 62
   256
  9
$CSHADOW
280
     0
  9
$SHADOWPLANELOCATION
 40
0.0
  0
ENDSEC
  0
SECTION
  2
CLASSES
  0
CLASS
  1
ACDBDICTIONARYWDFLT
  2
AcDbDictionaryWithDefault
  3
ObjectDBX Classes
 90
        0
 91
        4
280
     0
281
     0
  0
CLASS
  1
VISUALSTYLE
  2
AcDbVisualStyle
  3
ObjectDBX Classes
 90
     4095
 91
        4
280
     0
281
     0
  0
CLASS
  1
MATERIAL
  2
AcDbMaterial
  3
ObjectDBX Classes
 90
     1153
 91
        4
280
     0
281
     0
  0
CLASS
  1
SUN
  2
AcDbSun
  3
SCENEOE
 90
     1024
 91
        4
280
     0
281
     0
  0
ENDSEC
  0
SECTION
  2
TABLES
  0
TABLE
  2
VPORT
  5
8
330
0
100
AcDbSymbolTable
 70
     1
  0
VPORT
  5
29
330
8
100
AcDbSymbolTableRecord
100
AcDbViewportTableRecord
  2
*Active
 70
     0
 10
0.0
 20
0.0
 11
1.0
 21
1.0
 12
0.0
 22
0.0
 13
0.0
 23
0.0
 14
0.5
 24
0.5
 15
0.5
 25
0.5
 16
0.0
 26
0.0
 36
1.0
 17
104.9999989878935
 27
-148.500006351764
 37
0.0
 40
297.0000127035281
 41
0.7070706700117675
 42
50.0
 43
0.0
 44
0.0
 50
0.0
 51
0.0
 71
     0
 72
   100
 73
     1
 74
     3
 75
     0
 76
     0
 77
     0
 78
     0
281
     0
 65
     1
110
0.0
120
0.0
130
0.0
111
1.0
121
0.0
131
0.0
112
0.0
122
1.0
132
0.0
 79
     0
146
0.0
 60
     3
 61
     5
292
     1
282
     1
141
0.0
142
0.0
 63
   250
361
3F
  0
ENDTAB
  0
TABLE
  2
LTYPE
  5
5
330
0
100
AcDbSymbolTable
 70
     1
  0
LTYPE
  5
14
330
5
100
AcDbSymbolTableRecord
100
AcDbLinetypeTableRecord
  2
ByBlock
 70
     0
  3

 72
    65
 73
     0
 40
0.0
  0
LTYPE
  5
15
330
5
100
AcDbSymbolTableRecord
100
AcDbLinetypeTableRecord
  2
ByLayer
 70
     0
  3

 72
    65
 73
     0
 40
0.0
  0
LTYPE
  5
16
330
5
100
AcDbSymbolTableRecord
100
AcDbLinetypeTableRecord
  2
Continuous
 70
     0
  3
Solid line
 72
    65
 73
     0
 40
0.0
  0
ENDTAB
  0
TABLE
  2
LAYER
  5
2
330
0
100
AcDbSymbolTable
 70
     2
  0
LAYER
  5
10
330
2
100
AcDbSymbolTableRecord
100
AcDbLayerTableRecord
  2
0
 70
     0
 62
     7
  6
Continuous
370
    -3
390
F
347
3E
  0
LAYER
  5
40
330
2
100
AcDbSymbolTableRecord
100
AcDbLayerTableRecord
  2
text
 70
     0
 62
     7
  6
Continuous
370
    -3
390
F
347
3E
  0
ENDTAB
  0
TABLE
  2
STYLE
  5
3
330
0
100
AcDbSymbolTable
 70
     1
  0
STYLE
  5
11
330
3
100
AcDbSymbolTableRecord
100
AcDbTextStyleTableRecord
  2
Standard
 70
     0
 40
0.0
 41
1.0
 50
0.0
 71
     0
 42
0.2
  3
txt
  4

  0
ENDTAB
  0
TABLE
  2
VIEW
  5
6
330
0
100
AcDbSymbolTable
 70
     0
  0
ENDTAB
  0
TABLE
  2
UCS
  5
7
330
0
100
AcDbSymbolTable
 70
     0
  0
ENDTAB
  0
TABLE
  2
APPID
  5
9
330
0
100
AcDbSymbolTable
 70
     1
  0
APPID
  5
12
330
9
100
AcDbSymbolTableRecord
100
AcDbRegAppTableRecord
  2
ACAD
 70
     0
  0
ENDTAB
  0
TABLE
  2
DIMSTYLE
  5
A
330
0
100
AcDbSymbolTable
 70
     1
100
AcDbDimStyleTable
  0
DIMSTYLE
105
27
330
A
100
AcDbSymbolTableRecord
100
AcDbDimStyleTableRecord
  2
Standard
 70
     0
178
     0
340
11
  0
ENDTAB
  0
TABLE
  2
BLOCK_RECORD
  5
1
330
0
100
AcDbSymbolTable
 70
     3
  0
BLOCK_RECORD
  5
1F
330
1
100
AcDbSymbolTableRecord
100
AcDbBlockTableRecord
  2
*Model_Space
340
22
 70
     0
280
     1
281
     0
  0
BLOCK_RECORD
  5
1B
330
1
100
AcDbSymbolTableRecord
100
AcDbBlockTableRecord
  2
*Paper_Space
340
1E
 70
     0
280
     1
281
     0
  0
BLOCK_RECORD
  5
23
330
1
100
AcDbSymbolTableRecord
100
AcDbBlockTableRecord
  2
*Paper_Space0
340
26
 70
     0
280
     1
281
     0
  0
BLOCK_RECORD
  5
B0
330
1
100
AcDbSymbolTableRecord
100
AcDbBlockTableRecord
  2
block 2
340
0
102
{BLKREFS
331
B1
102
}
 70
     0
280
     1
281
     0
  0
BLOCK_RECORD
  5
B4
330
1
100
AcDbSymbolTableRecord
100
AcDbBlockTableRecord
  2
block 3
340
0
102
{BLKREFS
331
B5
102
}
 70
     0
280
     1
281
     0
  0
ENDTAB
  0
ENDSEC
  0
SECTION
  2
BLOCKS
  0
BLOCK
  5
20
330
1F
100
AcDbEntity
  8
0
100
AcDbBlockBegin
  2
*Model_Space
 70
     0
 10
0.0
 20
0.0
 30
0.0
  3
*Model_Space
  1

  0
ENDBLK
  5
21
330
1F
100
AcDbEntity
  8
0
100
AcDbBlockEnd
  0
BLOCK
  5
1C
330
1B
100
AcDbEntity
 67
     1
  8
0
100
AcDbBlockBegin
  2
*Paper_Space
 70
     0
 10
0.0
 20
0.0
 30
0.0
  3
*Paper_Space
  1

  0
ENDBLK
  5
1D
330
1B
100
AcDbEntity
 67
     1
  8
0
100
AcDbBlockEnd
  0
BLOCK
  5
24
330
23
100
AcDbEntity
  8
0
100
AcDbBlockBegin
  2
*Paper_Space0
 70
     0
 10
0.0
 20
0.0
 30
0.0
  3
*Paper_Space0
  1

  0
ENDBLK
  5
25
330
23
100
AcDbEntity
  8
0
100
AcDbBlockEnd
  0
BLOCK
  5
B2
330
B0
100
AcDbEntity
  8
0
100
AcDbBlockBegin
  2
block 2
 70
     0
 10
0.0
 20
0.0
 30
0.0
  3
block 2
  1

  0
INSERT
  5
B5
330
B0
100
AcDbEntity
  8
text
100
AcDbBlockReference
  2
block 3
 10
0.0
 20
0.0
 30
0.0
  0
ENDBLK
  5
B3
330
B0
100
AcDbEntity
  8
0
100
AcDbBlockEnd
  0
BLOCK
  5
B6
330
B4
100
AcDbEntity
  8
0
100
AcDbBlockBegin
  2
block 3
 70
     0
 10
0.0
 20
0.0
 30
0.0
  3
block 3
  1

  0
SPLINE
  5
B8
330
B4
100
AcDbEntity
  8
text
370
     0
100
AcDbSpline
210
0.0
220
0.0
230
1.0
 70
     8
 71
     3
 72
    56
 73
    52
 74
     0
 42
0.0000000001
 43
0.0000000001
 12
1.0
 22
0.0
 32
0.0
 13
1.0
 23
0.0
 33
0.0
 40
0.0
 40
0.0
 40
0.0
 40
0.0
 40
1.0
 40
1.0
 40
1.0
 40
2.0
 40
2.0
 40
2.0
 40
3.0
 40
3.0
 40
3.0
 40
4.0
 40
4.0
 40
4.0
 40
5.0
 40
5.0
 40
5.0
 40
6.0
 40
6.0
 40
6.0
 40
7.0
 40
7.0
 40
7.0
 40
8.0
 40
8.0
 40
8.0
 40
9.0
 40
9.0
 40
9.0
 40
10.0
 40
10.0
 40
10.0
 40
11.0
 40
11.0
 40
11.0
 40
12.0
 40
12.0
 40
12.0
 40
13.0
 40
13.0
 40
13.0
 40
14.0
 40
14.0
 40
14.0
 40
15.0
 40
15.0
 40
15.0
 40
16.0
 40
16.0
 40
16.0
 40
17.0
 40
17.0
 40
17.0
 40
17.0
 10
57.65413702065079
 20
-76.03979398235872
 30
0.0
 10
56.15469619619296
 20
-75.59105378600658
 30
0.0
 10
56.22277641074288
 20
-75.63098799234014
 30
0.0
 10
53.18546935389588
 20
-76.18095651118833
 30
0.0
 10
53.18546935389588
 20
-76.18095651118833
 30
0.0
 10
57.05383120810988
 20
-76.0587587277738
 30
0.0
 10
57.05383120810988
 20
-76.0587587277738
 30
0.0
 10
57.05383120810988
 20
-76.0587587277738
 30
0.0
 10
57.52841666371101
 20
-76.04376727533972
 30
0.0
 10
57.52841666371101
 20
-76.04376727533972
 30
0.0
 10
57.52841666371101
 20
-76.04376727533972
 30
0.0
 10
60.61226539809672
 20
-75.94635305610863
 30
0.0
 10
60.61226539809672
 20
-75.94635305610863
 30
0.0
 10
60.08964401922496
 20
-76.69077565958844
 30
0.0
 10
59.71951288445689
 20
-76.86318842250145
 30
0.0
 10
59.23838291174375
 20
-76.7695356310805
 30
0.0
 10
58.72475498689587
 20
-76.66955705638856
 30
0.0
 10
58.76760043728314
 20
-76.69308166727528
 30
0.0
 10
58.43093619571209
 20
-76.53884580764729
 30
0.0
 10
58.43093619571209
 20
-76.53884580764729
 30
0.0
 10
58.06178649792657
 20
-76.31100642183192
 30
0.0
 10
58.06178649792657
 20
-76.31100642183192
 30
0.0
 10
58.06178649792657
 20
-76.31100642183192
 30
0.0
 10
57.71049556781715
 20
-76.05169849478669
 30
0.0
 10
57.71049556781715
 20
-76.05169849478669
 30
0.0
 10
57.67513711852381
 20
-75.99170598754554
 30
0.0
 10
57.04106834516811
 20
-76.9903327017736
 30
0.0
 10
53.80601042976973
 20
-77.8064131791125
 30
0.0
 10
53.80601042976973
 20
-77.8064131791125
 30
0.0
 10
53.74901778389548
 20
-77.83450414934865
 30
0.0
 10
53.74901778389548
 20
-77.83450414934865
 30
0.0
 10
53.74901778389548
 20
-77.83450414934865
 30
0.0
 10
60.0248139690796
 20
-74.74095210625183
 30
0.0
 10
60.0248139690796
 20
-74.74095210625183
 30
0.0
 10
60.0248139690796
 20
-74.74095210625183
 30
0.0
 10
60.0248139690796
 20
-74.74095210625183
 30
0.0
 10
60.0248139690796
 20
-74.74095210625183
 30
0.0
 10
58.85529496383126
 20
-74.19996358405025
 30
0.0
 10
58.48337539356616
 20
-74.50909596605095
 30
0.0
 10
58.48337539356616
 20
-74.50909596605095
 30
0.0
 10
58.29462503579924
 20
-74.61445994628747
 30
0.0
 10
58.0240325360768
 20
-74.89385398408416
 30
0.0
 10
58.0240325360768
 20
-74.89385398408416
 30
0.0
 10
58.0240325360768
 20
-74.89385398408416
 30
0.0
 10
57.9370966164707
 20
-74.97796993140715
 30
0.0
 10
57.86580051776616
 20
-75.13765688117668
 30
0.0
 10
57.81616147347311
 20
-75.24883698382796
 30
0.0
 10
57.78032796380118
 20
-75.40637280861239
 30
0.0
 10
57.70406357545743
 20
-75.70282781794819
 30
0.0
 10
57.67614125824792
 20
-75.81136747831624
 30
0.0
 10
57.68126825084783
 20
-75.8670750403564
 30
0.0
 10
57.7402716228824
 20
-75.97175844235336
 30
0.0
  0
SPLINE
  5
B9
330
B4
100
AcDbEntity
  8
text
370
     0
100
AcDbSpline
210
0.0
220
0.0
230
1.0
 70
    11
 71
     3
 72
    77
 73
    73
 74
     0
 42
0.0000000001
 43
0.0000000001
 12
1.0
 22
0.0
 32
0.0
 13
1.0
 23
0.0
 33
0.0
 40
0.0
 40
0.0
 40
0.0
 40
0.0
 40
1.0
 40
1.0
 40
1.0
 40
2.0
 40
2.0
 40
2.0
 40
3.0
 40
3.0
 40
3.0
 40
4.0
 40
4.0
 40
4.0
 40
5.0
 40
5.0
 40
5.0
 40
6.0
 40
6.0
 40
6.0
 40
7.0
 40
7.0
 40
7.0
 40
8.0
 40
8.0
 40
8.0
 40
9.0
 40
9.0
 40
9.0
 40
10.0
 40
10.0
 40
10.0
 40
11.0
 40
11.0
 40
11.0
 40
12.0
 40
12.0
 40
12.0
 40
13.0
 40
13.0
 40
13.0
 40
14.0
 40
14.0
 40
14.0
 40
15.0
 40
15.0
 40
15.0
 40
16.0
 40
16.0
 40
16.0
 40
17.0
 40
17.0
 40
17.0
 40
18.0
 40
18.0
 40
18.0
 40
19.0
 40
19.0
 40
19.0
 40
20.0
 40
20.0
 40
20.0
 40
21.0
 40
21.0
 40
21.0
 40
22.0
 40
22.0
 40
22.0
 40
23.0
 40
23.0
 40
23.0
 40
24.0
 40
24.0
 40
24.0
 40
24.0
 10
53.82686088064051
 20
-77.99282767147402
 30
0.0
 10
53.82686088064051
 20
-77.99282767147402
 30
0.0
 10
53.67097030993295
 20
-77.67639565115383
 30
0.0
 10
53.67097030993295
 20
-77.67639565115383
 30
0.0
 10
53.67097030993295
 20
-77.67639565115383
 30
0.0
 10
56.56312796980019
 20
-76.25064288458317
 30
0.0
 10
56.56312796980019
 20
-76.25064288458317
 30
0.0
 10
56.56312796980019
 20
-76.25064288458317
 30
0.0
 10
53.19089625406339
 20
-76.3570963350774
 30
0.0
 10
53.19089625406339
 20
-76.3570963350774
 30
0.0
 10
53.19089625406339
 20
-76.3570963350774
 30
0.0
 10
53.15403373237122
 20
-76.00724688855027
 30
0.0
 10
53.15403373237122
 20
-76.00724688855027
 30
0.0
 10
53.15403373237122
 20
-76.00724688855027
 30
0.0
 10
53.72867565931089
 20
-75.9028604953472
 30
0.0
 10
53.72867565931089
 20
-75.9028604953472
 30
0.0
 10
56.07805852547702
 20
-75.47446287175639
 30
0.0
 10
56.2530693761277
 20
-75.44259573851782
 30
0.0
 10
57.4733221970032
 20
-75.80191919762939
 30
0.0
 10
57.4733221970032
 20
-75.80191919762939
 30
0.0
 10
57.52396510063637
 20
-75.77711451013559
 30
0.0
 10
57.52396510063637
 20
-75.77711451013559
 30
0.0
 10
57.52620441270179
 20
-75.7559271729013
 30
0.0
 10
57.52775470567015
 20
-75.73129474018177
 30
0.0
 10
57.52775470567015
 20
-75.7027004476542
 30
0.0
 10
57.52792696044441
 20
-75.4096950766337
 30
0.0
 10
57.61749944306091
 20
-75.23640677372562
 30
0.0
 10
57.6767550854072
 20
-75.12185734884106
 30
0.0
 10
57.68726262663721
 20
-75.10170354025236
 30
0.0
 10
57.69690889399592
 20
-75.08327227940627
 30
0.0
 10
57.70466035883773
 20
-75.06587454720575
 30
0.0
 10
57.78751490525799
 20
-74.88035615532506
 30
0.0
 10
57.88983424116991
 20
-74.77803681941313
 30
0.0
 10
57.90137531104549
 20
-74.76701251386034
 30
0.0
 10
57.92686901763634
 20
-74.74048527862391
 30
0.0
 10
58.19196911522631
 20
-74.46970077348327
 30
0.0
 10
58.39746906092147
 20
-74.35515134859871
 30
0.0
 10
58.41779512428445
 20
-74.33465303046148
 30
0.0
 10
58.86410724439856
 20
-74.00960827142816
 30
0.0
 10
60.0988294663121
 20
-74.58097735765685
 30
0.0
 10
60.0988294663121
 20
-74.58097735765685
 30
0.0
 10
60.43386500225265
 20
-74.73600665449308
 30
0.0
 10
60.43386500225265
 20
-74.73600665449308
 30
0.0
 10
60.43386500225265
 20
-74.73600665449308
 30
0.0
 10
58.18060030012499
 20
-75.84670543893763
 30
0.0
 10
58.18060030012499
 20
-75.84670543893763
 30
0.0
 10
58.18060030012499
 20
-75.84670543893763
 30
0.0
 10
60.95941431852751
 20
-75.75885550406376
 30
0.0
 10
60.95941431852751
 20
-75.75885550406376
 30
0.0
 10
60.95941431852751
 20
-75.75885550406376
 30
0.0
 10
60.75667044922056
 20
-76.0475545057277
 30
0.0
 10
60.75667044922056
 20
-76.0475545057277
 30
0.0
 10
60.22491996107225
 20
-76.8053032577084
 30
0.0
 10
59.79101018470503
 20
-77.05713973768016
 30
0.0
 10
59.20465493311551
 20
-76.9425903127956
 30
0.0
 10
59.20465493311551
 20
-76.9425903127956
 30
0.0
 10
59.01327987890988
 20
-76.90607230065196
 30
0.0
 10
59.01327987890988
 20
-76.90607230065196
 30
0.0
 10
58.67755532387228
 20
-76.84233803417483
 30
0.0
 10
58.653095145927
 20
-76.83475882410728
 30
0.0
 10
58.35733369851831
 20
-76.6991943167627
 30
0.0
 10
58.35733369851831
 20
-76.6991943167627
 30
0.0
 10
57.96907143733065
 20
-76.46096596395768
 30
0.0
 10
57.96907143733065
 20
-76.46096596395768
 30
0.0
 10
57.96907143733065
 20
-76.46096596395768
 30
0.0
 10
57.71103378548544
 20
-76.27114120272041
 30
0.0
 10
57.71103378548544
 20
-76.27114120272041
 30
0.0
 10
56.92658554349405
 20
-76.95327010879988
 30
0.0
 10
55.63381346265405
 20
-77.52550046889988
 30
0.0
 10
53.86734075259219
 20
-77.97284611765957
 30
0.0
 10
53.86734075259219
 20
-77.97284611765957
 30
0.0
 10
53.82686088064051
 20
-77.99282767147402
 30
0.0
 10
53.82686088064051
 20
-77.99282767147402
 30
0.0
  0
SPLINE
  5
BA
330
B4
100
AcDbEntity
  8
text
370
     0
100
AcDbSpline
210
0.0
220
0.0
230
1.0
 70
    11
 71
     3
 72
    20
 73
    16
 74
     0
 42
0.0000000001
 43
0.0000000001
 12
1.0
 22
0.0
 32
0.0
 13
1.0
 23
0.0
 33
0.0
 40
0.0
 40
0.0
 40
0.0
 40
0.0
 40
1.0
 40
1.0
 40
1.0
 40
2.0
 40
2.0
 40
2.0
 40
3.0
 40
3.0
 40
3.0
 40
4.0
 40
4.0
 40
4.0
 40
5.0
 40
5.0
 40
5.0
 40
5.0
 10
58.2145344906547
 20
-76.1986219427559
 30
0.0
 10
58.2145344906547
 20
-76.1986219427559
 30
0.0
 10
58.52355955568162
 20
-76.3887912135417
 30
0.0
 10
58.52355955568162
 20
-76.3887912135417
 30
0.0
 10
58.77246770449091
 20
-76.5012735811351
 30
0.0
 10
58.77246770449091
 20
-76.5012735811351
 30
0.0
 10
59.07890894790388
 20
-76.55932344006156
 30
0.0
 10
59.07890894790388
 20
-76.55932344006156
 30
0.0
 10
59.2721788046264
 20
-76.596358216528
 30
0.0
 10
59.2721788046264
 20
-76.596358216528
 30
0.0
 10
59.58757729630103
 20
-76.65716415184265
 30
0.0
 10
59.86215140647543
 20
-76.5958414522052
 30
0.0
 10
60.24800210082342
 20
-76.13419865718173
 30
0.0
 10
60.24800210082342
 20
-76.13419865718173
 30
0.0
 10
58.2145344906547
 20
-76.1986219427559
 30
0.0
 10
58.2145344906547
 20
-76.1986219427559
 30
0.0
  0
SPLINE
  5
BB
330
B4
100
AcDbEntity
  8
text
370
     0
100
AcDbSpline
210
0.0
220
0.0
230
1.0
 70
    11
 71
     3
 72
    26
 73
    22
 74
     0
 42
0.0000000001
 43
0.0000000001
 12
1.0
 22
0.0
 32
0.0
 13
1.0
 23
0.0
 33
0.0
 40
0.0
 40
0.0
 40
0.0
 40
0.0
 40
1.0
 40
1.0
 40
1.0
 40
2.0
 40
2.0
 40
2.0
 40
3.0
 40
3.0
 40
3.0
 40
4.0
 40
4.0
 40
4.0
 40
5.0
 40
5.0
 40
5.0
 40
6.0
 40
6.0
 40
6.0
 40
7.0
 40
7.0
 40
7.0
 40
7.0
 10
58.8666910660125
 20
-74.59803058030883
 30
0.0
 10
58.67100964245031
 20
-74.59803058030883
 30
0.0
 10
58.59108342719251
 20
-74.64884573871626
 30
0.0
 10
58.58953313422415
 20
-74.64987926736184
 30
0.0
 10
58.43347030874233
 20
-74.73893498565555
 30
0.0
 10
58.22108017207668
 20
-74.94391816702792
 30
0.0
 10
58.15062796940332
 20
-75.01660968176668
 30
0.0
 10
58.14718287391807
 20
-75.02005477725193
 30
0.0
 10
58.08155380492406
 20
-75.08688962966578
 30
0.0
 10
58.02677678670859
 20
-75.20970728371493
 30
0.0
 10
58.01644150025284
 20
-75.23261716869185
 30
0.0
 10
58.00386690173168
 20
-75.25724960141139
 30
0.0
 10
57.99008651979067
 20
-75.28394909142207
 30
0.0
 10
57.94822860964489
 20
-75.36508109009971
 30
0.0
 10
57.90154756581975
 20
-75.45499808226472
 30
0.0
 10
57.88604463613613
 20
-75.59865856399965
 30
0.0
 10
57.88604463613613
 20
-75.59865856399965
 30
0.0
 10
59.59860160185382
 20
-74.75443791533917
 30
0.0
 10
59.59860160185382
 20
-74.75443791533917
 30
0.0
 10
59.26373832068754
 20
-74.63196477083854
 30
0.0
 10
59.02654349652809
 20
-74.59803058030883
 30
0.0
 10
58.8666910660125
 20
-74.59803058030883
 30
0.0
  0
HATCH
  5
BC
330
B4
100
AcDbEntity
  8
text
 62
   250
420
  1842203
100
AcDbHatch
 10
0.0
 20
0.0
 30
0.0
210
0.0
220
0.0
230
1.0
  2
SOLID
 70
     1
 71
     0
 91
        3
 92
        1
 93
        1
 72
     4
 94
        3
 73
     0
 74
     1
 95
       77
 96
       73
 40
0.0
 40
0.0
 40
0.0
 40
0.0
 40
1.0
 40
1.0
 40
1.0
 40
2.0
 40
2.0
 40
2.0
 40
3.0
 40
3.0
 40
3.0
 40
4.0
 40
4.0
 40
4.0
 40
5.0
 40
5.0
 40
5.0
 40
6.0
 40
6.0
 40
6.0
 40
7.0
 40
7.0
 40
7.0
 40
8.0
 40
8.0
 40
8.0
 40
9.0
 40
9.0
 40
9.0
 40
10.0
 40
10.0
 40
10.0
 40
11.0
 40
11.0
 40
11.0
 40
12.0
 40
12.0
 40
12.0
 40
13.0
 40
13.0
 40
13.0
 40
14.0
 40
14.0
 40
14.0
 40
15.0
 40
15.0
 40
15.0
 40
16.0
 40
16.0
 40
16.0
 40
17.0
 40
17.0
 40
17.0
 40
18.0
 40
18.0
 40
18.0
 40
19.0
 40
19.0
 40
19.0
 40
20.0
 40
20.0
 40
20.0
 40
21.0
 40
21.0
 40
21.0
 40
22.0
 40
22.0
 40
22.0
 40
23.0
 40
23.0
 40
23.0
 40
24.0
 40
24.0
 40
24.0
 40
24.0
 10
53.82686088064051
 20
-77.99282767147402
 10
53.82686088064051
 20
-77.99282767147402
 10
53.67097030993295
 20
-77.67639565115383
 10
53.67097030993295
 20
-77.67639565115383
 10
53.67097030993295
 20
-77.67639565115383
 10
56.56312796980019
 20
-76.25064288458317
 10
56.56312796980019
 20
-76.25064288458317
 10
56.56312796980019
 20
-76.25064288458317
 10
53.19089625406339
 20
-76.3570963350774
 10
53.19089625406339
 20
-76.3570963350774
 10
53.19089625406339
 20
-76.3570963350774
 10
53.15403373237122
 20
-76.00724688855027
 10
53.15403373237122
 20
-76.00724688855027
 10
53.15403373237122
 20
-76.00724688855027
 10
53.72867565931089
 20
-75.9028604953472
 10
53.72867565931089
 20
-75.9028604953472
 10
56.07805852547702
 20
-75.47446287175639
 10
56.2530693761277
 20
-75.44259573851782
 10
57.4733221970032
 20
-75.80191919762939
 10
57.4733221970032
 20
-75.80191919762939
 10
57.52396510063637
 20
-75.77711451013559
 10
57.52396510063637
 20
-75.77711451013559
 10
57.52620441270179
 20
-75.7559271729013
 10
57.52775470567015
 20
-75.73129474018177
 10
57.52775470567015
 20
-75.7027004476542
 10
57.52792696044441
 20
-75.4096950766337
 10
57.61749944306091
 20
-75.23640677372562
 10
57.6767550854072
 20
-75.12185734884106
 10
57.68726262663721
 20
-75.10170354025236
 10
57.69690889399592
 20
-75.08327227940627
 10
57.70466035883773
 20
-75.06587454720575
 10
57.78751490525799
 20
-74.88035615532506
 10
57.88983424116991
 20
-74.77803681941313
 10
57.90137531104549
 20
-74.76701251386034
 10
57.92686901763634
 20
-74.74048527862391
 10
58.19196911522631
 20
-74.46970077348327
 10
58.39746906092147
 20
-74.35515134859871
 10
58.41779512428445
 20
-74.33465303046148
 10
58.86410724439856
 20
-74.00960827142816
 10
60.0988294663121
 20
-74.58097735765685
 10
60.0988294663121
 20
-74.58097735765685
 10
60.43386500225265
 20
-74.73600665449308
 10
60.43386500225265
 20
-74.73600665449308
 10
60.43386500225265
 20
-74.73600665449308
 10
58.18060030012499
 20
-75.84670543893763
 10
58.18060030012499
 20
-75.84670543893763
 10
58.18060030012499
 20
-75.84670543893763
 10
60.95941431852751
 20
-75.75885550406376
 10
60.95941431852751
 20
-75.75885550406376
 10
60.95941431852751
 20
-75.75885550406376
 10
60.75667044922056
 20
-76.0475545057277
 10
60.75667044922056
 20
-76.0475545057277
 10
60.22491996107225
 20
-76.8053032577084
 10
59.79101018470503
 20
-77.05713973768016
 10
59.20465493311551
 20
-76.9425903127956
 10
59.20465493311551
 20
-76.9425903127956
 10
59.01327987890988
 20
-76.90607230065196
 10
59.01327987890988
 20
-76.90607230065196
 10
58.67755532387228
 20
-76.84233803417483
 10
58.653095145927
 20
-76.83475882410728
 10
58.35733369851831
 20
-76.6991943167627
 10
58.35733369851831
 20
-76.6991943167627
 10
57.96907143733065
 20
-76.46096596395768
 10
57.96907143733065
 20
-76.46096596395768
 10
57.96907143733065
 20
-76.46096596395768
 10
57.71103378548544
 20
-76.27114120272041
 10
57.71103378548544
 20
-76.27114120272041
 10
56.92658554349405
 20
-76.95327010879988
 10
55.63381346265405
 20
-77.52550046889988
 10
53.86734075259219
 20
-77.97284611765957
 10
53.86734075259219
 20
-77.97284611765957
 10
53.82686088064051
 20
-77.99282767147402
 10
53.82686088064051
 20
-77.99282767147402
 97
        0
 97
        0
 92
        1
 93
        1
 72
     4
 94
        3
 73
     0
 74
     1
 95
       20
 96
       16
 40
0.0
 40
0.0
 40
0.0
 40
0.0
 40
1.0
 40
1.0
 40
1.0
 40
2.0
 40
2.0
 40
2.0
 40
3.0
 40
3.0
 40
3.0
 40
4.0
 40
4.0
 40
4.0
 40
5.0
 40
5.0
 40
5.0
 40
5.0
 10
58.2145344906547
 20
-76.1986219427559
 10
58.2145344906547
 20
-76.1986219427559
 10
58.52355955568162
 20
-76.3887912135417
 10
58.52355955568162
 20
-76.3887912135417
 10
58.77246770449091
 20
-76.5012735811351
 10
58.77246770449091
 20
-76.5012735811351
 10
59.07890894790388
 20
-76.55932344006156
 10
59.07890894790388
 20
-76.55932344006156
 10
59.2721788046264
 20
-76.596358216528
 10
59.2721788046264
 20
-76.596358216528
 10
59.58757729630103
 20
-76.65716415184265
 10
59.86215140647543
 20
-76.5958414522052
 10
60.24800210082342
 20
-76.13419865718173
 10
60.24800210082342
 20
-76.13419865718173
 10
58.2145344906547
 20
-76.1986219427559
 10
58.2145344906547
 20
-76.1986219427559
 97
        0
 97
        0
 92
        1
 93
        1
 72
     4
 94
        3
 73
     0
 74
     1
 95
       26
 96
       22
 40
0.0
 40
0.0
 40
0.0
 40
0.0
 40
1.0
 40
1.0
 40
1.0
 40
2.0
 40
2.0
 40
2.0
 40
3.0
 40
3.0
 40
3.0
 40
4.0
 40
4.0
 40
4.0
 40
5.0
 40
5.0
 40
5.0
 40
6.0
 40
6.0
 40
6.0
 40
7.0
 40
7.0
 40
7.0
 40
7.0
 10
58.8666910660125
 20
-74.59803058030883
 10
58.67100964245031
 20
-74.59803058030883
 10
58.59108342719251
 20
-74.64884573871626
 10
58.58953313422415
 20
-74.64987926736184
 10
58.43347030874233
 20
-74.73893498565555
 10
58.22108017207668
 20
-74.94391816702792
 10
58.15062796940332
 20
-75.01660968176668
 10
58.14718287391807
 20
-75.02005477725193
 10
58.08155380492406
 20
-75.08688962966578
 10
58.02677678670859
 20
-75.20970728371493
 10
58.01644150025284
 20
-75.23261716869185
 10
58.00386690173168
 20
-75.25724960141139
 10
57.99008651979067
 20
-75.28394909142207
 10
57.94822860964489
 20
-75.36508109009971
 10
57.90154756581975
 20
-75.45499808226472
 10
57.88604463613613
 20
-75.59865856399965
 10
57.88604463613613
 20
-75.59865856399965
 10
59.59860160185382
 20
-74.75443791533917
 10
59.59860160185382
 20
-74.75443791533917
 10
59.26373832068754
 20
-74.63196477083854
 10
59.02654349652809
 20
-74.59803058030883
 10
58.8666910660125
 20
-74.59803058030883
 97
        0
 97
        0
 75
     2
 76
     1
 98
        0
  0
ENDBLK
  5
B7
330
B4
100
AcDbEntity
  8
0
100
AcDbBlockEnd
  0
ENDSEC
  0
SECTION
  2
ENTITIES
  0
MTEXT
  5
41
330
1F
100
AcDbEntity
  8
text
 62
    18
420
        0
100
AcDbMText
 10
41.37035264032912
 20
-76.12789881687341
 30
0.0
 40
3.155216826201034
 41
0.0
 46
0.0
 71
     7
 72
     1
  1
\fOctagonal|b0|i0|c0|p34;\W1.06971;cv
 11
0.7071067811865474
 21
-0.7071067811865477
 31
0.0
 73
     1
 44
1.0
  0
MTEXT
  5
42
330
1F
100
AcDbEntity
  8
text
 62
    18
420
        0
100
AcDbMText
 10
68.46320181383061
 20
-80.70297098592685
 30
0.0
 40
3.165651718801415
 41
0.0
 46
0.0
 71
     7
 72
     1
  1
\fOctagonal|b0|i0|c0|p34;\W1.06971;gate
 11
0.7071067811865476
 21
0.7071067811865475
 31
0.0
 73
     1
 44
1.0
  0
MTEXT
  5
43
330
1F
100
AcDbEntity
  8
text
 62
    18
420
        0
100
AcDbMText
 10
52.86563975118524
 20
-63.66226398148027
 30
0.0
 40
2.684118439257661
 41
0.0
 46
0.0
 71
     7
 72
     1
  1
\fOctagonal|b0|i0|c0|p34;\W1;splitter
 73
     1
 44
1.0
  0
POLYLINE
  5
44
330
1F
100
AcDbEntity
  8
text
 62
   250
420
  1842203
370
    35
100
AcDb2dPolyline
 66
     1
 10
0.0
 20
0.0
 30
0.0
  0
VERTEX
  5
45
330
44
100
AcDbEntity
  8
text
 62
   250
420
  1842203
370
    35
100
AcDbVertex
100
AcDb2dVertex
 10
49.00016180545728
 20
-80.76088747980978
 30
0.0
  0
VERTEX
  5
BD
330
44
100
AcDbEntity
  8
0
100
AcDbVertex
100
AcDb2dVertex
 10
49.00016180545728
 20
-80.76088747980978
 30
0.0
  0
SEQEND
  5
46
330
44
100
AcDbEntity
  8
text
 62
   250
420
  1842203
370
    35
  0
POLYLINE
  5
47
330
1F
100
AcDbEntity
  8
text
 62
   250
420
  1842203
370
    35
100
AcDb2dPolyline
 66
     1
 10
0.0
 20
0.0
 30
0.0
  0
VERTEX
  5
48
330
47
100
AcDbEntity
  8
text
 62
   250
420
  1842203
370
    35
100
AcDbVertex
100
AcDb2dVertex
 10
49.38797040667457
 20
-81.37842497965543
 30
0.0
  0
VERTEX
  5
49
330
47
100
AcDbEntity
  8
text
 62
   250
420
  1842203
370
    35
100
AcDbVertex
100
AcDb2dVertex
 10
48.60300459336738
 20
-81.38135303521008
 30
0.0
  0
VERTEX
  5
4A
330
47
100
AcDbEntity
  8
text
 62
   250
420
  1842203
370
    35
100
AcDbVertex
100
AcDb2dVertex
 10
48.04589794091369
 20
-80.8283385909041
 30
0.0
  0
VERTEX
  5
4B
330
47
100
AcDbEntity
  8
text
 62
   250
420
  1842203
370
    35
100
AcDbVertex
100
AcDb2dVertex
 10
48.04296988543284
 20
-80.04333747998929
 30
0.0
  0
VERTEX
  5
4C
330
47
100
AcDbEntity
  8
text
 62
   250
420
  1842203
370
    35
100
AcDbVertex
100
AcDb2dVertex
 10
48.59598431576871
 20
-79.48623081346186
 30
0.0
  0
VERTEX
  5
4D
330
47
100
AcDbEntity
  8
text
 62
   250
420
  1842203
370
    35
100
AcDbVertex
100
AcDb2dVertex
 10
49.38095012907589
 20
-79.48333803568472
 30
0.0
  0
VERTEX
  5
4E
330
47
100
AcDbEntity
  8
text
 62
   250
420
  1842203
370
    35
100
AcDbVertex
100
AcDb2dVertex
 10
49.93809205930646
 20
-80.03635247999102
 30
0.0
  0
VERTEX
  5
4F
330
47
100
AcDbEntity
  8
text
 62
   250
420
  1842203
370
    35
100
AcDbVertex
100
AcDb2dVertex
 10
49.94098609862573
 20
-80.82131831312799
 30
0.0
  0
VERTEX
  5
50
330
47
100
AcDbEntity
  8
text
 62
   250
420
  1842203
370
    35
100
AcDbVertex
100
AcDb2dVertex
 10
49.38797040667457
 20
-81.37842497965543
 30
0.0
  0
SEQEND
  5
51
330
47
100
AcDbEntity
  8
text
 62
   250
420
  1842203
370
    35
  0
POLYLINE
  5
52
330
1F
100
AcDbEntity
  8
text
 62
   250
420
  1842203
370
    35
100
AcDb2dPolyline
 66
     1
 10
0.0
 20
0.0
 30
0.0
  0
VERTEX
  5
53
330
52
100
AcDbEntity
  8
text
 62
   250
420
  1842203
370
    35
100
AcDbVertex
100
AcDb2dVertex
 10
52.27217561087014
 20
-80.75788886869944
 30
0.0
  0
VERTEX
  5
BE
330
52
100
AcDbEntity
  8
0
100
AcDbVertex
100
AcDb2dVertex
 10
52.27217561087014
 20
-80.75788886869944
 30
0.0
  0
SEQEND
  5
54
330
52
100
AcDbEntity
  8
text
 62
   250
420
  1842203
370
    35
  0
POLYLINE
  5
55
330
1F
100
AcDbEntity
  8
text
 62
   250
420
  1842203
370
    35
100
AcDb2dPolyline
 66
     1
 10
0.0
 20
0.0
 30
0.0
  0
VERTEX
  5
56
330
55
100
AcDbEntity
  8
text
 62
   250
420
  1842203
370
    35
100
AcDbVertex
100
AcDb2dVertex
 10
52.27242255530829
 20
-80.82131831312799
 30
0.0
  0
VERTEX
  5
57
330
55
100
AcDbEntity
  8
text
 62
   250
420
  1842203
370
    35
100
AcDbVertex
100
AcDb2dVertex
 10
52.27242255530829
 20
-80.82131831312799
 30
0.0
  0
VERTEX
  5
58
330
55
100
AcDbEntity
  8
text
 62
   250
420
  1842203
370
    35
100
AcDbVertex
100
AcDb2dVertex
 10
51.71940812497242
 20
-81.37842497965543
 30
0.0
  0
VERTEX
  5
59
330
55
100
AcDbEntity
  8
text
 62
   250
420
  1842203
370
    35
100
AcDbVertex
100
AcDb2dVertex
 10
50.93440832059984
 20
-81.38135303521008
 30
0.0
  0
VERTEX
  5
5A
330
55
100
AcDbEntity
  8
text
 62
   250
420
  1842203
370
    35
100
AcDbVertex
100
AcDb2dVertex
 10
50.37730038143466
 20
-80.8283385909041
 30
0.0
  0
VERTEX
  5
5B
330
55
100
AcDbEntity
  8
text
 62
   250
420
  1842203
370
    35
100
AcDbVertex
100
AcDb2dVertex
 10
50.37440760373068
 20
-80.04333747998929
 30
0.0
  0
VERTEX
  5
5C
330
55
100
AcDbEntity
  8
text
 62
   250
420
  1842203
370
    35
100
AcDbVertex
100
AcDb2dVertex
 10
50.92742203406655
 20
-79.48623081346186
 30
0.0
  0
VERTEX
  5
5D
330
55
100
AcDbEntity
  8
text
 62
   250
420
  1842203
370
    35
100
AcDbVertex
100
AcDb2dVertex
 10
51.71238784737374
 20
-79.48333803568472
 30
0.0
  0
VERTEX
  5
5E
330
55
100
AcDbEntity
  8
text
 62
   250
420
  1842203
370
    35
100
AcDbVertex
100
AcDb2dVertex
 10
52.26949449982743
 20
-80.03635247999102
 30
0.0
  0
SEQEND
  5
5F
330
55
100
AcDbEntity
  8
text
 62
   250
420
  1842203
370
    35
  0
POLYLINE
  5
60
330
1F
100
AcDbEntity
  8
text
 62
   250
420
  1842203
370
    35
100
AcDb2dPolyline
 66
     1
 10
0.0
 20
0.0
 30
0.0
  0
VERTEX
  5
61
330
60
100
AcDbEntity
  8
text
 62
   250
420
  1842203
370
    35
100
AcDbVertex
100
AcDb2dVertex
 10
52.66298282312204
 20
-80.04333747998929
 30
0.0
  0
VERTEX
  5
62
330
60
100
AcDbEntity
  8
text
 62
   250
420
  1842203
370
    35
100
AcDbVertex
100
AcDb2dVertex
 10
53.21599725345791
 20
-79.48623081346186
 30
0.0
  0
VERTEX
  5
63
330
60
100
AcDbEntity
  8
text
 62
   250
420
  1842203
370
    35
100
AcDbVertex
100
AcDb2dVertex
 10
54.0009630667651
 20
-79.48333803568472
 30
0.0
  0
VERTEX
  5
64
330
60
100
AcDbEntity
  8
text
 62
   250
420
  1842203
370
    35
100
AcDbVertex
100
AcDb2dVertex
 10
54.55806971921879
 20
-80.03635247999102
 30
0.0
  0
SEQEND
  5
65
330
60
100
AcDbEntity
  8
text
 62
   250
420
  1842203
370
    35
  0
POLYLINE
  5
66
330
1F
100
AcDbEntity
  8
text
 62
   250
420
  1842203
370
    35
100
AcDb2dPolyline
 66
     1
 10
0.0
 20
0.0
 30
0.0
  0
VERTEX
  5
67
330
66
100
AcDbEntity
  8
text
 62
   250
420
  1842203
370
    35
100
AcDbVertex
100
AcDb2dVertex
 10
53.61054391005886
 20
-79.48333803568472
 30
0.0
  0
VERTEX
  5
68
330
66
100
AcDbEntity
  8
text
 62
   250
420
  1842203
370
    35
100
AcDbVertex
100
AcDb2dVertex
 10
53.61054391005886
 20
-81.38135303521008
 30
0.0
  0
SEQEND
  5
69
330
66
100
AcDbEntity
  8
text
 62
   250
420
  1842203
370
    35
  0
POLYLINE
  5
6A
330
1F
100
AcDbEntity
  8
text
 62
   250
420
  1842203
370
    35
100
AcDb2dPolyline
 66
     1
 10
0.0
 20
0.0
 30
0.0
  0
VERTEX
  5
6B
330
6A
100
AcDbEntity
  8
text
 62
   250
420
  1842203
370
    35
100
AcDbVertex
100
AcDb2dVertex
 10
56.29363050827428
 20
-81.37842497965543
 30
0.0
  0
VERTEX
  5
6C
330
6A
100
AcDbEntity
  8
text
 62
   250
420
  1842203
370
    35
100
AcDbVertex
100
AcDb2dVertex
 10
55.50866469496709
 20
-81.38135303521008
 30
0.0
  0
VERTEX
  5
6D
330
6A
100
AcDbEntity
  8
text
 62
   250
420
  1842203
370
    35
100
AcDbVertex
100
AcDb2dVertex
 10
54.9515580425134
 20
-80.8283385909041
 30
0.0
  0
VERTEX
  5
6E
330
6A
100
AcDbEntity
  8
text
 62
   250
420
  1842203
370
    35
100
AcDbVertex
100
AcDb2dVertex
 10
54.94862998703255
 20
-80.04333747998929
 30
0.0
  0
VERTEX
  5
6F
330
6A
100
AcDbEntity
  8
text
 62
   250
420
  1842203
370
    35
100
AcDbVertex
100
AcDb2dVertex
 10
55.50164441736842
 20
-79.48623081346186
 30
0.0
  0
VERTEX
  5
70
330
6A
100
AcDbEntity
  8
text
 62
   250
420
  1842203
370
    35
100
AcDbVertex
100
AcDb2dVertex
 10
56.28664550845249
 20
-79.48333803568472
 30
0.0
  0
VERTEX
  5
71
330
6A
100
AcDbEntity
  8
text
 62
   250
420
  1842203
370
    35
100
AcDbVertex
100
AcDb2dVertex
 10
56.84375216090618
 20
-80.03635247999102
 30
0.0
  0
VERTEX
  5
72
330
6A
100
AcDbEntity
  8
text
 62
   250
420
  1842203
370
    35
100
AcDbVertex
100
AcDb2dVertex
 10
56.84664493861015
 20
-80.82131831312799
 30
0.0
  0
VERTEX
  5
73
330
6A
100
AcDbEntity
  8
text
 62
   250
420
  1842203
370
    35
100
AcDbVertex
100
AcDb2dVertex
 10
56.29363050827428
 20
-81.37842497965543
 30
0.0
  0
SEQEND
  5
74
330
6A
100
AcDbEntity
  8
text
 62
   250
420
  1842203
370
    35
  0
POLYLINE
  5
75
330
1F
100
AcDbEntity
  8
text
 62
   250
420
  1842203
370
    35
100
AcDb2dPolyline
 66
     1
 10
0.0
 20
0.0
 30
0.0
  0
VERTEX
  5
76
330
75
100
AcDbEntity
  8
text
 62
   250
420
  1842203
370
    35
100
AcDbVertex
100
AcDb2dVertex
 10
58.27123212448813
 20
-80.70292609093525
 30
0.0
  0
VERTEX
  5
BF
330
75
100
AcDbEntity
  8
0
100
AcDbVertex
100
AcDb2dVertex
 10
58.27123212448813
 20
-80.70292609093525
 30
0.0
  0
SEQEND
  5
77
330
75
100
AcDbEntity
  8
text
 62
   250
420
  1842203
370
    35
  0
POLYLINE
  5
78
330
1F
100
AcDbEntity
  8
text
 62
   250
420
  1842203
370
    35
100
AcDb2dPolyline
 66
     1
 10
0.0
 20
0.0
 30
0.0
  0
VERTEX
  5
79
330
78
100
AcDbEntity
  8
text
 62
   250
420
  1842203
370
    35
100
AcDbVertex
100
AcDb2dVertex
 10
59.21209043381817
 20
-80.76332164647594
 30
0.0
  0
VERTEX
  5
7A
330
78
100
AcDbEntity
  8
text
 62
   250
420
  1842203
370
    35
100
AcDbVertex
100
AcDb2dVertex
 10
58.6590760034823
 20
-81.3204635907809
 30
0.0
  0
VERTEX
  5
7B
330
78
100
AcDbEntity
  8
text
 62
   250
420
  1842203
370
    35
100
AcDbVertex
100
AcDb2dVertex
 10
57.87407491239823
 20
-81.32335636855804
 30
0.0
  0
VERTEX
  5
7C
330
78
100
AcDbEntity
  8
text
 62
   250
420
  1842203
370
    35
100
AcDbVertex
100
AcDb2dVertex
 10
57.31696825994454
 20
-80.77034192425172
 30
0.0
  0
SEQEND
  5
7D
330
78
100
AcDbEntity
  8
text
 62
   250
420
  1842203
370
    35
  0
POLYLINE
  5
7E
330
1F
100
AcDbEntity
  8
text
 62
   250
420
  1842203
370
    35
100
AcDb2dPolyline
 66
     1
 10
0.0
 20
0.0
 30
0.0
  0
VERTEX
  5
7F
330
7E
100
AcDbEntity
  8
text
 62
   250
420
  1842203
370
    35
100
AcDbVertex
100
AcDb2dVertex
 10
57.31407548224056
 20
-79.98537609111476
 30
0.0
  0
VERTEX
  5
80
330
7E
100
AcDbEntity
  8
text
 62
   250
420
  1842203
370
    35
100
AcDbVertex
100
AcDb2dVertex
 10
57.86708991257643
 20
-79.42823414680949
 30
0.0
  0
VERTEX
  5
81
330
7E
100
AcDbEntity
  8
text
 62
   250
420
  1842203
370
    35
100
AcDbVertex
100
AcDb2dVertex
 10
58.65205572588362
 20
-79.42534136903268
 30
0.0
  0
VERTEX
  5
82
330
7E
100
AcDbEntity
  8
text
 62
   250
420
  1842203
370
    35
100
AcDbVertex
100
AcDb2dVertex
 10
59.20916387408676
 20
-79.97835581333865
 30
0.0
  0
VERTEX
  5
83
330
7E
100
AcDbEntity
  8
text
 62
   250
420
  1842203
370
    35
100
AcDbVertex
100
AcDb2dVertex
 10
59.20916387408676
 20
-79.97835581333865
 30
0.0
  0
SEQEND
  5
84
330
7E
100
AcDbEntity
  8
text
 62
   250
420
  1842203
370
    35
  0
SPLINE
  5
85
330
1F
100
AcDbEntity
  8
text
 62
   250
420
  1842203
370
    35
100
AcDbSpline
210
0.0
220
0.0
230
1.0
 70
     8
 71
     3
 72
    20
 73
    16
 74
     0
 42
0.0000000001
 43
0.0000000001
 12
1.0
 22
0.0
 32
0.0
 13
1.0
 23
0.0
 33
0.0
 40
0.0
 40
0.0
 40
0.0
 40
0.0
 40
1.0
 40
1.0
 40
1.0
 40
2.0
 40
2.0
 40
2.0
 40
3.0
 40
3.0
 40
3.0
 40
4.0
 40
4.0
 40
4.0
 40
5.0
 40
5.0
 40
5.0
 40
5.0
 10
58.96479321790502
 20
-80.46173192432903
 30
0.0
 10
58.97562498525616
 20
-80.26699859104448
 30
0.0
 10
58.82657488809793
 20
-80.10038164664157
 30
0.0
 10
58.63184155973266
 20
-80.08958664664425
 30
0.0
 10
58.44381100897417
 20
-80.07910914664686
 30
0.0
 10
58.28195656865897
 20
-80.21778609105671
 30
0.0
 10
58.26135434696236
 20
-80.40271220212153
 30
0.0
 10
58.26135434696236
 20
-80.40271220212153
 30
0.0
 10
58.26198934694615
 20
-80.39392803545694
 30
0.0
 10
58.26198934694615
 20
-80.39392803545694
 30
0.0
 10
58.24099906970388
 20
-80.57881886874425
 30
0.0
 10
58.07882712939679
 20
-80.71714303537634
 30
0.0
 10
57.89079657863829
 20
-80.70627747982334
 30
0.0
 10
57.69613380582678
 20
-80.69502386871505
 30
0.0
 10
57.54743797628699
 20
-80.5280541465347
 30
0.0
 10
57.558691587111
 20
-80.33339136880552
 30
0.0
  0
POLYLINE
  5
86
330
1F
100
AcDbEntity
  8
text
 62
   250
420
  1842203
370
    35
100
AcDb2dPolyline
 66
     1
 10
0.0
 20
0.0
 30
0.0
  0
VERTEX
  5
87
330
86
100
AcDbEntity
  8
text
 62
   250
420
  1842203
370
    35
100
AcDbVertex
100
AcDb2dVertex
 10
61.56127287388553
 20
-80.78692247980331
 30
0.0
  0
VERTEX
  5
88
330
86
100
AcDbEntity
  8
text
 62
   250
420
  1842203
370
    35
100
AcDbVertex
100
AcDb2dVertex
 10
61.56127287388553
 20
-80.78692247980331
 30
0.0
  0
VERTEX
  5
89
330
86
100
AcDbEntity
  8
text
 62
   250
420
  1842203
370
    35
100
AcDbVertex
100
AcDb2dVertex
 10
61.00825844354966
 20
-81.34402914633074
 30
0.0
  0
VERTEX
  5
8A
330
86
100
AcDbEntity
  8
text
 62
   250
420
  1842203
370
    35
100
AcDbVertex
100
AcDb2dVertex
 10
60.22325735246559
 20
-81.3469572018854
 30
0.0
  0
VERTEX
  5
8B
330
86
100
AcDbEntity
  8
text
 62
   250
420
  1842203
370
    35
100
AcDbVertex
100
AcDb2dVertex
 10
59.6661507000119
 20
-80.79394275757942
 30
0.0
  0
VERTEX
  5
8C
330
86
100
AcDbEntity
  8
text
 62
   250
420
  1842203
370
    35
100
AcDbVertex
100
AcDb2dVertex
 10
59.66325792230793
 20
-80.00897692444212
 30
0.0
  0
VERTEX
  5
8D
330
86
100
AcDbEntity
  8
text
 62
   250
420
  1842203
370
    35
100
AcDbVertex
100
AcDb2dVertex
 10
60.2162723526438
 20
-79.45183498013716
 30
0.0
  0
VERTEX
  5
8E
330
86
100
AcDbEntity
  8
text
 62
   250
420
  1842203
370
    35
100
AcDbVertex
100
AcDb2dVertex
 10
61.00123816595098
 20
-79.44894220236004
 30
0.0
  0
VERTEX
  5
8F
330
86
100
AcDbEntity
  8
text
 62
   250
420
  1842203
370
    35
100
AcDbVertex
100
AcDb2dVertex
 10
61.55834481840468
 20
-80.00195664666634
 30
0.0
  0
SEQEND
  5
90
330
86
100
AcDbEntity
  8
text
 62
   250
420
  1842203
370
    35
  0
POLYLINE
  5
91
330
1F
100
AcDbEntity
  8
text
 62
   250
420
  1842203
370
    35
100
AcDb2dPolyline
 66
     1
 10
0.0
 20
0.0
 30
0.0
  0
VERTEX
  5
92
330
91
100
AcDbEntity
  8
text
 62
   250
420
  1842203
370
    35
100
AcDbVertex
100
AcDb2dVertex
 10
59.66470431115992
 20
-80.39794970212272
 30
0.0
  0
VERTEX
  5
93
330
91
100
AcDbEntity
  8
text
 62
   250
420
  1842203
370
    35
100
AcDbVertex
100
AcDb2dVertex
 10
60.61226539809672
 20
-80.39794970212272
 30
0.0
  0
SEQEND
  5
94
330
91
100
AcDbEntity
  8
text
 62
   250
420
  1842203
370
    35
  0
POLYLINE
  5
95
330
1F
100
AcDbEntity
  8
text
 62
   250
420
  1842203
370
    35
100
AcDb2dPolyline
 66
     1
 10
0.0
 20
0.0
 30
0.0
  0
VERTEX
  5
96
330
95
100
AcDbEntity
  8
text
 62
   250
420
  1842203
370
    35
100
AcDbVertex
100
AcDb2dVertex
 10
63.2383078311008
 20
-79.4459435912497
 30
0.0
  0
VERTEX
  5
97
330
95
100
AcDbEntity
  8
text
 62
   250
420
  1842203
370
    35
100
AcDbVertex
100
AcDb2dVertex
 10
63.7954144835545
 20
-79.99895803555569
 30
0.0
  0
VERTEX
  5
98
330
95
100
AcDbEntity
  8
text
 62
   250
420
  1842203
370
    35
100
AcDbVertex
100
AcDb2dVertex
 10
63.79830726125847
 20
-80.78392386869298
 30
0.0
  0
VERTEX
  5
99
330
95
100
AcDbEntity
  8
text
 62
   250
420
  1842203
370
    35
100
AcDbVertex
100
AcDb2dVertex
 10
63.27640783012879
 20
-81.30970386856143
 30
0.0
  0
VERTEX
  5
9A
330
95
100
AcDbEntity
  8
text
 62
   250
420
  1842203
370
    35
100
AcDbVertex
100
AcDb2dVertex
 10
62.45330831772014
 20
-79.44883636902684
 30
0.0
  0
VERTEX
  5
9B
330
95
100
AcDbEntity
  8
text
 62
   250
420
  1842203
370
    35
100
AcDbVertex
100
AcDb2dVertex
 10
61.90032758745775
 20
-80.0059783133318
 30
0.0
  0
VERTEX
  5
9C
330
95
100
AcDbEntity
  8
text
 62
   250
420
  1842203
370
    35
100
AcDbVertex
100
AcDb2dVertex
 10
61.90322036516172
 20
-80.79094414646909
 30
0.0
  0
VERTEX
  5
9D
330
95
100
AcDbEntity
  8
text
 62
   250
420
  1842203
370
    35
100
AcDbVertex
100
AcDb2dVertex
 10
62.46032701761541
 20
-81.34395859077506
 30
0.0
  0
SEQEND
  5
9E
330
95
100
AcDbEntity
  8
text
 62
   250
420
  1842203
370
    35
  0
POLYLINE
  5
9F
330
1F
100
AcDbEntity
  8
text
 62
   250
420
  1842203
370
    35
100
AcDb2dPolyline
 66
     1
 10
0.0
 20
0.0
 30
0.0
  0
VERTEX
  5
A0
330
9F
100
AcDbEntity
  8
text
 62
   250
420
  1842203
370
    35
100
AcDbVertex
100
AcDb2dVertex
 10
65.77742582187805
 20
-81.57023025738532
 30
0.0
  0
VERTEX
  5
C0
330
9F
100
AcDbEntity
  8
0
100
AcDbVertex
100
AcDb2dVertex
 10
65.77742582187805
 20
-81.57023025738532
 30
0.0
  0
SEQEND
  5
A1
330
9F
100
AcDbEntity
  8
text
 62
   250
420
  1842203
370
    35
  0
POLYLINE
  5
A2
330
1F
100
AcDbEntity
  8
text
 62
   250
420
  1842203
370
    35
100
AcDb2dPolyline
 66
     1
 10
0.0
 20
0.0
 30
0.0
  0
VERTEX
  5
A3
330
A2
100
AcDbEntity
  8
text
 62
   250
420
  1842203
370
    35
100
AcDbVertex
100
AcDb2dVertex
 10
66.11775053541788
 20
-80.78247747980441
 30
0.0
  0
VERTEX
  5
A4
330
A2
100
AcDbEntity
  8
text
 62
   250
420
  1842203
370
    35
100
AcDbVertex
100
AcDb2dVertex
 10
65.564736105082
 20
-81.33958414633184
 30
0.0
  0
VERTEX
  5
A5
330
A2
100
AcDbEntity
  8
text
 62
   250
420
  1842203
370
    35
100
AcDbVertex
100
AcDb2dVertex
 10
64.77977029177482
 20
-81.34251220188649
 30
0.0
  0
VERTEX
  5
A6
330
A2
100
AcDbEntity
  8
text
 62
   250
420
  1842203
370
    35
100
AcDbVertex
100
AcDb2dVertex
 10
64.22262836154425
 20
-80.78949775758052
 30
0.0
  0
SEQEND
  5
A7
330
A2
100
AcDbEntity
  8
text
 62
   250
420
  1842203
370
    35
  0
POLYLINE
  5
A8
330
1F
100
AcDbEntity
  8
text
 62
   250
420
  1842203
370
    35
100
AcDb2dPolyline
 66
     1
 10
0.0
 20
0.0
 30
0.0
  0
VERTEX
  5
A9
330
A8
100
AcDbEntity
  8
text
 62
   250
420
  1842203
370
    35
100
AcDbVertex
100
AcDb2dVertex
 10
64.21973558384028
 20
-80.00453192444323
 30
0.0
  0
VERTEX
  5
AA
330
A8
100
AcDbEntity
  8
text
 62
   250
420
  1842203
370
    35
100
AcDbVertex
100
AcDb2dVertex
 10
64.77275001417614
 20
-79.44738998013827
 30
0.0
  0
VERTEX
  5
AB
330
A8
100
AcDbEntity
  8
text
 62
   250
420
  1842203
370
    35
100
AcDbVertex
100
AcDb2dVertex
 10
65.55771582748334
 20
-79.44449720236115
 30
0.0
  0
VERTEX
  5
AC
330
A8
100
AcDbEntity
  8
text
 62
   250
420
  1842203
370
    35
100
AcDbVertex
100
AcDb2dVertex
 10
66.11482247993702
 20
-79.99751164666745
 30
0.0
  0
VERTEX
  5
AD
330
A8
100
AcDbEntity
  8
text
 62
   250
420
  1842203
370
    35
100
AcDbVertex
100
AcDb2dVertex
 10
66.11482247993702
 20
-79.99751164666745
 30
0.0
  0
SEQEND
  5
AE
330
A8
100
AcDbEntity
  8
text
 62
   250
420
  1842203
370
    35
  0
SPLINE
  5
AF
330
1F
100
AcDbEntity
  8
text
 62
   250
420
  1842203
370
    35
100
AcDbSpline
210
0.0
220
0.0
230
1.0
 70
     8
 71
     3
 72
    20
 73
    16
 74
     0
 42
0.0000000001
 43
0.0000000001
 12
1.0
 22
0.0
 32
0.0
 13
1.0
 23
0.0
 33
0.0
 40
0.0
 40
0.0
 40
0.0
 40
0.0
 40
1.0
 40
1.0
 40
1.0
 40
2.0
 40
2.0
 40
2.0
 40
3.0
 40
3.0
 40
3.0
 40
4.0
 40
4.0
 40
4.0
 40
5.0
 40
5.0
 40
5.0
 40
5.0
 10
65.87045331950473
 20
-80.4808877576575
 30
0.0
 10
65.88131887478309
 20
-80.28615442437295
 30
0.0
 10
65.73223498969764
 20
-80.11953747997003
 30
0.0
 10
65.53753693910924
 20
-80.1087072021952
 30
0.0
 10
65.34947111057387
 20
-80.09826497997533
 30
0.0
 10
65.18761667025868
 20
-80.23694192438518
 30
0.0
 10
65.16701444856207
 20
-80.42186803545
 30
0.0
 10
65.16701444856207
 20
-80.42186803545
 30
0.0
 10
65.16768472632275
 20
-80.41311914656325
 30
0.0
 10
65.16768472632275
 20
-80.41311914656325
 30
0.0
 10
65.1466591713036
 20
-80.59797470207272
 30
0.0
 10
64.98448887264264
 20
-80.73629886870481
 30
0.0
 10
64.79649195801488
 20
-80.72543331315212
 30
0.0
 10
64.60179390742648
 20
-80.71414442426601
 30
0.0
 10
64.4530980778867
 20
-80.54720997986317
 30
0.0
 10
64.4643516887107
 20
-80.35251192435648
 30
0.0
  0
INSERT
  5
B1
330
1F
100
AcDbEntity
  8
text
100
AcDbBlockReference
  2
block 2
 10
0.0
 20
0.0
 30
0.0
  0
ENDSEC
  0
SECTION
  2
OBJECTS
  0
DICTIONARY
  5
C
330
0
100
AcDbDictionary
281
     1
  3
ACAD_GROUP
350
D
  3
ACAD_LAYOUT
350
1A
  3
ACAD_MATERIAL
350
3B
  3
ACAD_MLEADERSTYLE
350
C2
  3
ACAD_MLINESTYLE
350
17
  3
ACAD_PLOTSETTINGS
350
19
  3
ACAD_PLOTSTYLENAME
350
E
  3
ACAD_TABLESTYLE
350
C1
  3
ACAD_VISUALSTYLE
350
2A
  0
SUN
  5
3F
330
29
100
AcDbSun
 90
        1
290
     0
 63
     7
421
 16777215
 40
1.0
291
     1
 91
  2455826
 92
 54000000
292
     0
 70
     2
 71
   256
280
     1
  0
DICTIONARY
  5
D
102
{ACAD_REACTORS
330
C
102
}
330
C
100
AcDbDictionary
281
     1
  0
DICTIONARY
  5
1A
102
{ACAD_REACTORS
330
C
102
}
330
C
100
AcDbDictionary
281
     1
  3
Layout1
350
1E
  3
Layout2
350
26
  3
Model
350
22
  0
DICTIONARY
  5
3B
102
{ACAD_REACTORS
330
C
102
}
330
C
100
AcDbDictionary
281
     1
  3
ByBlock
350
3D
  3
ByLayer
350
3C
  3
Global
350
3E
  0
DICTIONARY
  5
C2
102
{ACAD_REACTORS
330
C
102
}
330
C
100
AcDbDictionary
281
     1
  0
DICTIONARY
  5
17
102
{ACAD_REACTORS
330
C
102
}
330
C
100
AcDbDictionary
281
     1
  3
Standard
350
18
  0
DICTIONARY
  5
19
102
{ACAD_REACTORS
330
C
102
}
330
C
100
AcDbDictionary
281
     1
  0
ACDBDICTIONARYWDFLT
  5
E
102
{ACAD_REACTORS
330
C
102
}
330
C
100
AcDbDictionary
281
     1
  3
Normal
350
F
100
AcDbDictionaryWithDefault
340
F
  0
DICTIONARY
  5
C1
102
{ACAD_REACTORS
330
C
102
}
330
C
100
AcDbDictionary
281
     1
  0
DICTIONARY
  5
2A
102
{ACAD_REACTORS
330
C
102
}
330
C
100
AcDbDictionary
281
     1
  3
2dWireframe
350
2F
  3
3D Hidden
350
31
  3
3dWireframe
350
30
  3
Basic
350
32
  3
Brighten
350
36
  3
ColorChange
350
3A
  3
Conceptual
350
34
  3
Dim
350
35
  3
Facepattern
350
39
  3
Flat
350
2B
  3
FlatWithEdges
350
2C
  3
Gouraud
350
2D
  3
GouraudWithEdges
350
2E
  3
Linepattern
350
38
  3
Realistic
350
33
  3
Thicken
350
37
  0
LAYOUT
  5
1E
102
{ACAD_REACTORS
330
1A
102
}
330
1A
100
AcDbPlotSettings
  1

  2
none_device
  4

  6

 40
0.0
 41
0.0
 42
0.0
 43
0.0
 44
0.0
 45
0.0
 46
0.0
 47
0.0
 48
0.0
 49
0.0
140
0.0
141
0.0
142
1.0
143
1.0
 70
   688
 72
     0
 73
     0
 74
     5
  7

 75
    16
 76
     0
 77
     2
 78
   300
147
1.0
148
0.0
149
0.0
100
AcDbLayout
  1
Layout1
 70
     1
 71
     1
 10
0.0
 20
0.0
 11
12.0
 21
9.0
 12
0.0
 22
0.0
 32
0.0
 14
1.000000000000000E+20
 24
1.000000000000000E+20
 34
1.000000000000000E+20
 15
-1.000000000000000E+20
 25
-1.000000000000000E+20
 35
-1.000000000000000E+20
146
0.0
 13
0.0
 23
0.0
 33
0.0
 16
1.0
 26
0.0
 36
0.0
 17
0.0
 27
1.0
 37
0.0
 76
     0
330
1B
  0
LAYOUT
  5
26
102
{ACAD_REACTORS
330
1A
102
}
330
1A
100
AcDbPlotSettings
  1

  2
none_device
  4

  6

 40
0.0
 41
0.0
 42
0.0
 43
0.0
 44
0.0
 45
0.0
 46
0.0
 47
0.0
 48
0.0
 49
0.0
140
0.0
141
0.0
142
1.0
143
1.0
 70
   688
 72
     0
 73
     0
 74
     5
  7

 75
    16
 76
     0
 77
     2
 78
   300
147
1.0
148
0.0
149
0.0
100
AcDbLayout
  1
Layout2
 70
     1
 71
     2
 10
0.0
 20
0.0
 11
0.0
 21
0.0
 12
0.0
 22
0.0
 32
0.0
 14
0.0
 24
0.0
 34
0.0
 15
0.0
 25
0.0
 35
0.0
146
0.0
 13
0.0
 23
0.0
 33
0.0
 16
1.0
 26
0.0
 36
0.0
 17
0.0
 27
1.0
 37
0.0
 76
     0
330
23
  0
LAYOUT
  5
22
102
{ACAD_REACTORS
330
1A
102
}
330
1A
100
AcDbPlotSettings
  1

  2
none_device
  4

  6

 40
0.0
 41
0.0
 42
0.0
 43
0.0
 44
0.0
 45
0.0
 46
0.0
 47
0.0
 48
0.0
 49
0.0
140
0.0
141
0.0
142
1.0
143
1.0
 70
  1712
 72
     0
 73
     0
 74
     0
  7

 75
     0
 76
     0
 77
     2
 78
   300
147
1.0
148
0.0
149
0.0
100
AcDbLayout
  1
Model
 70
     1
 71
     0
 10
0.0
 20
0.0
 11
12.0
 21
9.0
 12
0.0
 22
0.0
 32
0.0
 14
1.000000000000000E+20
 24
1.000000000000000E+20
 34
1.000000000000000E+20
 15
-1.000000000000000E+20
 25
-1.000000000000000E+20
 35
-1.000000000000000E+20
146
0.0
 13
0.0
 23
0.0
 33
0.0
 16
1.0
 26
0.0
 36
0.0
 17
0.0
 27
1.0
 37
0.0
 76
     0
330
1F
331
29
  0
MATERIAL
  5
3D
102
{ACAD_REACTORS
330
3B
102
}
330
3B
100
AcDbMaterial
  1
ByBlock
 72
     1
 94
      127
  0
MATERIAL
  5
3C
102
{ACAD_REACTORS
330
3B
102
}
330
3B
100
AcDbMaterial
  1
ByLayer
 72
     1
 94
      127
  0
MATERIAL
  5
3E
102
{ACAD_REACTORS
330
3B
102
}
330
3B
100
AcDbMaterial
  1
Global
 72
     1
 94
      127
  0
MLINESTYLE
  5
18
102
{ACAD_REACTORS
330
17
102
}
330
17
100
AcDbMlineStyle
  2
Standard
 70
     0
  3

 62
   256
 51
90.0
 52
90.0
 71
     2
 49
0.5
 62
   256
  6
BYLAYER
 49
-0.5
 62
   256
  6
BYLAYER
  0
ACDBPLACEHOLDER
  5
F
102
{ACAD_REACTORS
330
E
102
}
330
E
  0
VISUALSTYLE
  5
2F
102
{ACAD_REACTORS
330
2A
102
}
330
2A
100
AcDbVisualStyle
  2
2dWireframe
 70
     4
177
     2
291
     0
 71
     0
176
     1
 72
     2
176
     1
 73
     0
176
     1
 90
        0
176
     1
 40
-0.6
176
     1
 41
-30.0
176
     1
 62
     5
 63
     7
421
 16777215
176
     1
 74
     1
176
     1
 91
        4
176
     1
 64
     7
176
     1
 65
   257
176
     1
 75
     1
176
     1
175
     1
176
     1
 42
1.0
176
     1
 92
        0
176
     1
 66
   257
176
     1
 43
1.0
176
     1
 76
     1
176
     1
 77
     6
176
     1
 78
     2
176
     1
 67
     7
176
     1
 79
     5
176
     1
170
     0
176
     1
171
     0
176
     1
290
     0
176
     1
 93
        1
176
     1
 44
0.0
176
     1
173
     0
176
     1
  0
VISUALSTYLE
  5
31
102
{ACAD_REACTORS
330
2A
102
}
330
2A
100
AcDbVisualStyle
  2
3D Hidden
 70
     6
177
     2
291
     0
 71
     1
176
     1
 72
     2
176
     1
 73
     2
176
     1
 90
        0
176
     1
 40
-0.6
176
     1
 41
-30.0
176
     1
 62
     5
 63
     7
421
 16777215
176
     1
 74
     2
176
     1
 91
        2
176
     1
 64
     7
176
     1
 65
   257
176
     1
 75
     2
176
     1
175
     1
176
     1
 42
40.0
176
     1
 92
        0
176
     1
 66
   257
176
     1
 43
1.0
176
     1
 76
     1
176
     1
 77
     6
176
     1
 78
     2
176
     1
 67
     7
176
     1
 79
     3
176
     1
170
     0
176
     1
171
     0
176
     1
290
     0
176
     1
 93
        1
176
     1
 44
0.0
176
     1
173
     0
176
     1
  0
VISUALSTYLE
  5
30
102
{ACAD_REACTORS
330
2A
102
}
330
2A
100
AcDbVisualStyle
  2
3dWireframe
 70
     5
177
     2
291
     0
 71
     0
176
     1
 72
     2
176
     1
 73
     0
176
     1
 90
        0
176
     1
 40
-0.6
176
     1
 41
-30.0
176
     1
 62
     5
 63
     7
421
 16777215
176
     1
 74
     1
176
     1
 91
        4
176
     1
 64
     7
176
     1
 65
   257
176
     1
 75
     1
176
     1
175
     1
176
     1
 42
1.0
176
     1
 92
        0
176
     1
 66
   257
176
     1
 43
1.0
176
     1
 76
     1
176
     1
 77
     6
176
     1
 78
     2
176
     1
 67
     7
176
     1
 79
     5
176
     1
170
     0
176
     1
171
     0
176
     1
290
     0
176
     1
 93
        1
176
     1
 44
0.0
176
     1
173
     0
176
     1
  0
VISUALSTYLE
  5
32
102
{ACAD_REACTORS
330
2A
102
}
330
2A
100
AcDbVisualStyle
  2
Basic
 70
     7
177
     2
291
     1
 71
     1
176
     1
 72
     0
176
     1
 73
     1
176
     1
 90
        0
176
     1
 40
-0.6
176
     1
 41
-30.0
176
     1
 62
     5
 63
     7
421
 16777215
176
     1
 74
     0
176
     1
 91
        4
176
     1
 64
     7
176
     1
 65
   257
176
     1
 75
     1
176
     1
175
     1
176
     1
 42
1.0
176
     1
 92
        8
176
     1
 66
     7
176
     1
 43
1.0
176
     1
 76
     1
176
     1
 77
     6
176
     1
 78
     2
176
     1
 67
     7
176
     1
 79
     5
176
     1
170
     0
176
     1
171
     0
176
     1
290
     0
176
     1
 93
        1
176
     1
 44
0.0
176
     1
173
     0
176
     1
  0
VISUALSTYLE
  5
36
102
{ACAD_REACTORS
330
2A
102
}
330
2A
100
AcDbVisualStyle
  2
Brighten
 70
    12
177
     2
291
     1
 71
     2
176
     1
 72
     2
176
     1
 73
     0
176
     1
 90
        0
176
     1
 40
-0.6
176
     1
 41
-30.0
176
     1
 62
     5
 63
     7
421
 16777215
176
     1
 74
     1
176
     1
 91
        4
176
     1
 64
     7
176
     1
 65
   257
176
     1
 75
     1
176
     1
175
     1
176
     1
 42
1.0
176
     1
 92
        8
176
     1
 66
     7
176
     1
 43
1.0
176
     1
 76
     1
176
     1
 77
     6
176
     1
 78
     2
176
     1
 67
     7
176
     1
 79
     5
176
     1
170
     0
176
     1
171
     0
176
     1
290
     0
176
     1
 93
        1
176
     1
 44
50.0
176
     1
173
     0
176
     1
  0
VISUALSTYLE
  5
3A
102
{ACAD_REACTORS
330
2A
102
}
330
2A
100
AcDbVisualStyle
  2
ColorChange
 70
    16
177
     2
291
     1
 71
     2
176
     1
 72
     2
176
     1
 73
     3
176
     1
 90
        0
176
     1
 40
-0.6
176
     1
 41
-30.0
176
     1
 62
     5
 63
     8
421
  8421504
176
     1
 74
     1
176
     1
 91
        4
176
     1
 64
     7
176
     1
 65
   257
176
     1
 75
     1
176
     1
175
     1
176
     1
 42
1.0
176
     1
 92
        8
176
     1
 66
     8
424
  8421504
176
     1
 43
1.0
176
     1
 76
     1
176
     1
 77
     6
176
     1
 78
     2
176
     1
 67
     7
176
     1
 79
     5
176
     1
170
     0
176
     1
171
     0
176
     1
290
     0
176
     1
 93
        1
176
     1
 44
0.0
176
     1
173
     0
176
     1
  0
VISUALSTYLE
  5
34
102
{ACAD_REACTORS
330
2A
102
}
330
2A
100
AcDbVisualStyle
  2
Conceptual
 70
     9
177
     2
291
     0
 71
     3
176
     1
 72
     2
176
     1
 73
     0
176
     1
 90
        0
176
     1
 40
-0.6
176
     1
 41
-30.0
176
     1
 62
     5
 63
     7
421
 16777215
176
     1
 74
     2
176
     1
 91
        2
176
     1
 64
     7
176
     1
 65
   257
176
     1
 75
     1
176
     1
175
     1
176
     1
 42
40.0
176
     1
 92
        8
176
     1
 66
     7
176
     1
 43
1.0
176
     1
 76
     1
176
     1
 77
     6
176
     1
 78
     2
176
     1
 67
     7
176
     1
 79
     3
176
     1
170
     0
176
     1
171
     0
176
     1
290
     0
176
     1
 93
        1
176
     1
 44
0.0
176
     1
173
     0
176
     1
  0
VISUALSTYLE
  5
35
102
{ACAD_REACTORS
330
2A
102
}
330
2A
100
AcDbVisualStyle
  2
Dim
 70
    11
177
     2
291
     1
 71
     2
176
     1
 72
     2
176
     1
 73
     0
176
     1
 90
        0
176
     1
 40
-0.6
176
     1
 41
-30.0
176
     1
 62
     5
 63
     7
421
 16777215
176
     1
 74
     1
176
     1
 91
        4
176
     1
 64
     7
176
     1
 65
   257
176
     1
 75
     1
176
     1
175
     1
176
     1
 42
1.0
176
     1
 92
        8
176
     1
 66
     7
176
     1
 43
1.0
176
     1
 76
     1
176
     1
 77
     6
176
     1
 78
     2
176
     1
 67
     7
176
     1
 79
     5
176
     1
170
     0
176
     1
171
     0
176
     1
290
     0
176
     1
 93
        1
176
     1
 44
-50.0
176
     1
173
     0
176
     1
  0
VISUALSTYLE
  5
39
102
{ACAD_REACTORS
330
2A
102
}
330
2A
100
AcDbVisualStyle
  2
Facepattern
 70
    15
177
     2
291
     1
 71
     2
176
     1
 72
     2
176
     1
 73
     0
176
     1
 90
        0
176
     1
 40
-0.6
176
     1
 41
-30.0
176
     1
 62
     5
 63
     7
421
 16777215
176
     1
 74
     1
176
     1
 91
        4
176
     1
 64
     7
176
     1
 65
   257
176
     1
 75
     1
176
     1
175
     1
176
     1
 42
1.0
176
     1
 92
        8
176
     1
 66
     7
176
     1
 43
1.0
176
     1
 76
     1
176
     1
 77
     6
176
     1
 78
     2
176
     1
 67
     7
176
     1
 79
     5
176
     1
170
     0
176
     1
171
     0
176
     1
290
     0
176
     1
 93
        1
176
     1
 44
0.0
176
     1
173
     0
176
     1
  0
VISUALSTYLE
  5
2B
102
{ACAD_REACTORS
330
2A
102
}
330
2A
100
AcDbVisualStyle
  2
Flat
 70
     0
177
     2
291
     1
 71
     2
176
     1
 72
     1
176
     1
 73
     1
176
     1
 90
        2
176
     1
 40
-0.6
176
     1
 41
30.0
176
     1
 62
     5
 63
     7
421
 16777215
176
     1
 74
     0
176
     1
 91
        4
176
     1
 64
     7
176
     1
 65
   257
176
     1
 75
     1
176
     1
175
     1
176
     1
 42
1.0
176
     1
 92
        8
176
     1
 66
     7
176
     1
 43
1.0
176
     1
 76
     1
176
     1
 77
     6
176
     1
 78
     2
176
     1
 67
     7
176
     1
 79
     5
176
     1
170
     0
176
     1
171
     0
176
     1
290
     0
176
     1
 93
       13
176
     1
 44
0.0
176
     1
173
     0
176
     1
  0
VISUALSTYLE
  5
2C
102
{ACAD_REACTORS
330
2A
102
}
330
2A
100
AcDbVisualStyle
  2
FlatWithEdges
 70
     1
177
     2
291
     1
 71
     2
176
     1
 72
     1
176
     1
 73
     1
176
     1
 90
        2
176
     1
 40
-0.6
176
     1
 41
30.0
176
     1
 62
     5
 63
     7
421
 16777215
176
     1
 74
     1
176
     1
 91
        4
176
     1
 64
     7
176
     1
 65
   257
176
     1
 75
     1
176
     1
175
     1
176
     1
 42
1.0
176
     1
 92
        0
176
     1
 66
   257
176
     1
 43
1.0
176
     1
 76
     1
176
     1
 77
     6
176
     1
 78
     2
176
     1
 67
     7
176
     1
 79
     5
176
     1
170
     0
176
     1
171
     0
176
     1
290
     0
176
     1
 93
       13
176
     1
 44
0.0
176
     1
173
     0
176
     1
  0
VISUALSTYLE
  5
2D
102
{ACAD_REACTORS
330
2A
102
}
330
2A
100
AcDbVisualStyle
  2
Gouraud
 70
     2
177
     2
291
     1
 71
     2
176
     1
 72
     2
176
     1
 73
     1
176
     1
 90
        2
176
     1
 40
-0.6
176
     1
 41
30.0
176
     1
 62
     5
 63
     7
421
 16777215
176
     1
 74
     0
176
     1
 91
        4
176
     1
 64
     7
176
     1
 65
   257
176
     1
 75
     1
176
     1
175
     1
176
     1
 42
1.0
176
     1
 92
        0
176
     1
 66
     7
176
     1
 43
1.0
176
     1
 76
     1
176
     1
 77
     6
176
     1
 78
     2
176
     1
 67
     7
176
     1
 79
     5
176
     1
170
     0
176
     1
171
     0
176
     1
290
     0
176
     1
 93
       13
176
     1
 44
0.0
176
     1
173
     0
176
     1
  0
VISUALSTYLE
  5
2E
102
{ACAD_REACTORS
330
2A
102
}
330
2A
100
AcDbVisualStyle
  2
GouraudWithEdges
 70
     3
177
     2
291
     1
 71
     2
176
     1
 72
     2
176
     1
 73
     1
176
     1
 90
        2
176
     1
 40
-0.6
176
     1
 41
30.0
176
     1
 62
     5
 63
     7
421
 16777215
176
     1
 74
     1
176
     1
 91
        4
176
     1
 64
     7
176
     1
 65
   257
176
     1
 75
     1
176
     1
175
     1
176
     1
 42
1.0
176
     1
 92
        0
176
     1
 66
   257
176
     1
 43
1.0
176
     1
 76
     1
176
     1
 77
     6
176
     1
 78
     2
176
     1
 67
     7
176
     1
 79
     5
176
     1
170
     0
176
     1
171
     0
176
     1
290
     0
176
     1
 93
       13
176
     1
 44
0.0
176
     1
173
     0
176
     1
  0
VISUALSTYLE
  5
38
102
{ACAD_REACTORS
330
2A
102
}
330
2A
100
AcDbVisualStyle
  2
Linepattern
 70
    14
177
     2
291
     1
 71
     2
176
     1
 72
     2
176
     1
 73
     0
176
     1
 90
        0
176
     1
 40
-0.6
176
     1
 41
-30.0
176
     1
 62
     5
 63
     7
421
 16777215
176
     1
 74
     1
176
     1
 91
        4
176
     1
 64
     7
176
     1
 65
   257
176
     1
 75
     7
176
     1
175
     7
176
     1
 42
1.0
176
     1
 92
        8
176
     1
 66
     7
176
     1
 43
1.0
176
     1
 76
     1
176
     1
 77
     6
176
     1
 78
     2
176
     1
 67
     7
176
     1
 79
     5
176
     1
170
     0
176
     1
171
     0
176
     1
290
     0
176
     1
 93
        1
176
     1
 44
0.0
176
     1
173
     0
176
     1
  0
VISUALSTYLE
  5
33
102
{ACAD_REACTORS
330
2A
102
}
330
2A
100
AcDbVisualStyle
  2
Realistic
 70
     8
177
     2
291
     0
 71
     2
176
     1
 72
     2
176
     1
 73
     0
176
     1
 90
        0
176
     1
 40
-0.6
176
     1
 41
-30.0
176
     1
 62
     5
 63
     7
421
 16777215
176
     1
 74
     1
176
     1
 91
        0
176
     1
 64
     7
176
     1
 65
   257
176
     1
 75
     1
176
     1
175
     1
176
     1
 42
1.0
176
     1
 92
        8
176
     1
 66
     8
424
  7895160
176
     1
 43
1.0
176
     1
 76
     1
176
     1
 77
     6
176
     1
 78
     2
176
     1
 67
     7
176
     1
 79
     5
176
     1
170
     0
176
     1
171
     0
176
     1
290
     0
176
     1
 93
       13
176
     1
 44
0.0
176
     1
173
     0
176
     1
  0
VISUALSTYLE
  5
37
102
{ACAD_REACTORS
330
2A
102
}
330
2A
100
AcDbVisualStyle
  2
Thicken
 70
    13
177
     2
291
     1
 71
     2
176
     1
 72
     2
176
     1
 73
     0
176
     1
 90
        0
176
     1
 40
-0.6
176
     1
 41
-30.0
176
     1
 62
     5
 63
     7
421
 16777215
176
     1
 74
     1
176
     1
 91
        4
176
     1
 64
     7
176
     1
 65
   257
176
     1
 75
     1
176
     1
175
     1
176
     1
 42
1.0
176
     1
 92
       12
176
     1
 66
     7
176
     1
 43
1.0
176
     1
 76
     1
176
     1
 77
     6
176
     1
 78
     2
176
     1
 67
     7
176
     1
 79
     5
176
     1
170
     0
176
     1
171
     0
176
     1
290
     0
176
     1
 93
        1
176
     1
 44
0.0
176
     1
173
     0
176
     1
  0
ENDSEC
  0
EOF
