  0
SECTION
  2
HEADER
  9
$ACADVER
  1
AC1024
  9
$ACADMAINTVER
 70
     6
  9
$DWGCODEPAGE
  3
ANSI_1252
  9
$INSBASE
 10
0.0
 20
0.0
 30
0.0
  9
$EXTMIN
 10
1.000000000000000E+20
 20
1.000000000000000E+20
 30
1.000000000000000E+20
  9
$EXTMAX
 10
-1.000000000000000E+20
 20
-1.000000000000000E+20
 30
-1.000000000000000E+20
  9
$LIMMIN
 10
0.0
 20
0.0
  9
$LIMMAX
 10
12.0
 20
9.0
  9
$ORTHOMODE
 70
     0
  9
$REGENMODE
 70
     1
  9
$FILLMODE
 70
     1
  9
$QTEXTMODE
 70
     0
  9
$MIRRTEXT
 70
     1
  9
$LTSCALE
 40
1.0
  9
$ATTMODE
 70
     1
  9
$TEXTSIZE
 40
0.2
  9
$TRACEWID
 40
0.05
  9
$TEXTSTYLE
  7
Standard
  9
$CLAYER
  8
0
  9
$CELTYPE
  6
ByLayer
  9
$CECOLOR
 62
   256
  9
$CELTSCALE
 40
1.0
  9
$DISPSILH
 70
     0
  9
$DIMSCALE
 40
1.0
  9
$DIMASZ
 40
0.18
  9
$DIMEXO
 40
0.0625
  9
$DIMDLI
 40
0.38
  9
$DIMRND
 40
0.0
  9
$DIMDLE
 40
0.0
  9
$DIMEXE
 40
0.18
  9
$DIMTP
 40
0.0
  9
$DIMTM
 40
0.0
  9
$DIMTXT
 40
0.18
  9
$DIMCEN
 40
0.09
  9
$DIMTSZ
 40
0.0
  9
$DIMTOL
 70
     0
  9
$DIMLIM
 70
     0
  9
$DIMTIH
 70
     1
  9
$DIMTOH
 70
     1
  9
$DIMSE1
 70
     0
  9
$DIMSE2
 70
     0
  9
$DIMTAD
 70
     0
  9
$DIMZIN
 70
     0
  9
$DIMBLK
  1

  9
$DIMASO
 70
     1
  9
$DIMSHO
 70
     1
  9
$DIMPOST
  1

  9
$DIMAPOST
  1

  9
$DIMALT
 70
     0
  9
$DIMALTD
 70
     2
  9
$DIMALTF
 40
25.4
  9
$DIMLFAC
 40
1.0
  9
$DIMTOFL
 70
     0
  9
$DIMTVP
 40
0.0
  9
$DIMTIX
 70
     0
  9
$DIMSOXD
 70
     0
  9
$DIMSAH
 70
     0
  9
$DIMBLK1
  1

  9
$DIMBLK2
  1

  9
$DIMSTYLE
  2
Standard
  9
$DIMCLRD
 70
     0
  9
$DIMCLRE
 70
     0
  9
$DIMCLRT
 70
     0
  9
$DIMTFAC
 40
1.0
  9
$DIMGAP
 40
0.09
  9
$DIMJUST
 70
     0
  9
$DIMSD1
 70
     0
  9
$DIMSD2
 70
     0
  9
$DIMTOLJ
 70
     1
  9
$DIMTZIN
 70
     0
  9
$DIMALTZ
 70
     0
  9
$DIMALTTZ
 70
     0
  9
$DIMUPT
 70
     0
  9
$DIMDEC
 70
     4
  9
$DIMTDEC
 70
     4
  9
$DIMALTU
 70
     2
  9
$DIMALTTD
 70
     2
  9
$DIMTXSTY
  7
Standard
  9
$DIMAUNIT
 70
     0
  9
$DIMADEC
 70
     0
  9
$DIMALTRND
 40
0.0
  9
$DIMAZIN
 70
     0
  9
$DIMDSEP
 70
    46
  9
$DIMATFIT
 70
     3
  9
$DIMFRAC
 70
     0
  9
$DIMLDRBLK
  1

  9
$DIMLUNIT
 70
     2
  9
$DIMLWD
 70
    -2
  9
$DIMLWE
 70
    -2
  9
$DIMTMOVE
 70
     0
  9
$DIMFXL
 40
1.0
  9
$DIMFXLON
 70
     0
  9
$DIMJOGANG
 40
0.7853981633974483
  9
$DIMTFILL
 70
     0
  9
$DIMTFILLCLR
 70
     0
  9
$DIMARCSYM
 70
     0
  9
$DIMLTYPE
  6

  9
$DIMLTEX1
  6

  9
$DIMLTEX2
  6

  9
$DIMTXTDIRECTION
 70
     0
  9
$LUNITS
 70
     2
  9
$LUPREC
 70
     4
  9
$SKETCHINC
 40
0.1
  9
$FILLETRAD
 40
0.5
  9
$AUNITS
 70
     0
  9
$AUPREC
 70
     0
  9
$MENU
  1
.
  9
$ELEVATION
 40
0.0
  9
$PELEVATION
 40
0.0
  9
$THICKNESS
 40
0.0
  9
$LIMCHECK
 70
     0
  9
$CHAMFERA
 40
0.5
  9
$CHAMFERB
 40
0.5
  9
$CHAMFERC
 40
1.0
  9
$CHAMFERD
 40
0.0
  9
$SKPOLY
 70
     0
  9
$TDCREATE
 40
2459489.770965428
  9
$TDUCREATE
 40
2459489.687632095
  9
$TDUPDATE
 40
2459489.77096559
  9
$TDUUPDATE
 40
2459489.687632257
  9
$TDINDWG
 40
0.0000000116
  9
$TDUSRTIMER
 40
0.0000000116
  9
$USRTIMER
 70
     1
  9
$ANGBASE
 50
0.0
  9
$ANGDIR
 70
     0
  9
$PDMODE
 70
     0
  9
$PDSIZE
 40
0.0
  9
$PLINEWID
 40
0.0
  9
$SPLFRAME
 70
     0
  9
$SPLINETYPE
 70
     6
  9
$SPLINESEGS
 70
     8
  9
$HANDSEED
  5
119
  9
$SURFTAB1
 70
     6
  9
$SURFTAB2
 70
     6
  9
$SURFTYPE
 70
     6
  9
$SURFU
 70
     6
  9
$SURFV
 70
     6
  9
$UCSBASE
  2

  9
$UCSNAME
  2

  9
$UCSORG
 10
0.0
 20
0.0
 30
0.0
  9
$UCSXDIR
 10
1.0
 20
0.0
 30
0.0
  9
$UCSYDIR
 10
0.0
 20
1.0
 30
0.0
  9
$UCSORTHOREF
  2

  9
$UCSORTHOVIEW
 70
     0
  9
$UCSORGTOP
 10
0.0
 20
0.0
 30
0.0
  9
$UCSORGBOTTOM
 10
0.0
 20
0.0
 30
0.0
  9
$UCSORGLEFT
 10
0.0
 20
0.0
 30
0.0
  9
$UCSORGRIGHT
 10
0.0
 20
0.0
 30
0.0
  9
$UCSORGFRONT
 10
0.0
 20
0.0
 30
0.0
  9
$UCSORGBACK
 10
0.0
 20
0.0
 30
0.0
  9
$PUCSBASE
  2

  9
$PUCSNAME
  2

  9
$PUCSORG
 10
0.0
 20
0.0
 30
0.0
  9
$PUCSXDIR
 10
1.0
 20
0.0
 30
0.0
  9
$PUCSYDIR
 10
0.0
 20
1.0
 30
0.0
  9
$PUCSORTHOREF
  2

  9
$PUCSORTHOVIEW
 70
     0
  9
$PUCSORGTOP
 10
0.0
 20
0.0
 30
0.0
  9
$PUCSORGBOTTOM
 10
0.0
 20
0.0
 30
0.0
  9
$PUCSORGLEFT
 10
0.0
 20
0.0
 30
0.0
  9
$PUCSORGRIGHT
 10
0.0
 20
0.0
 30
0.0
  9
$PUCSORGFRONT
 10
0.0
 20
0.0
 30
0.0
  9
$PUCSORGBACK
 10
0.0
 20
0.0
 30
0.0
  9
$USERI1
 70
     0
  9
$USERI2
 70
     0
  9
$USERI3
 70
     0
  9
$USERI4
 70
     0
  9
$USERI5
 70
     0
  9
$USERR1
 40
0.0
  9
$USERR2
 40
0.0
  9
$USERR3
 40
0.0
  9
$USERR4
 40
0.0
  9
$USERR5
 40
0.0
  9
$WORLDVIEW
 70
     1
  9
$SHADEDGE
 70
     3
  9
$SHADEDIF
 70
    70
  9
$TILEMODE
 70
     1
  9
$MAXACTVP
 70
    64
  9
$PINSBASE
 10
0.0
 20
0.0
 30
0.0
  9
$PLIMCHECK
 70
     0
  9
$PEXTMIN
 10
1.000000000000000E+20
 20
1.000000000000000E+20
 30
1.000000000000000E+20
  9
$PEXTMAX
 10
-1.000000000000000E+20
 20
-1.000000000000000E+20
 30
-1.000000000000000E+20
  9
$PLIMMIN
 10
0.0
 20
0.0
  9
$PLIMMAX
 10
12.0
 20
9.0
  9
$UNITMODE
 70
     0
  9
$VISRETAIN
 70
     1
  9
$PLINEGEN
 70
     0
  9
$PSLTSCALE
 70
     1
  9
$TREEDEPTH
 70
  3020
  9
$CMLSTYLE
  2
Standard
  9
$CMLJUST
 70
     0
  9
$CMLSCALE
 40
1.0
  9
$PROXYGRAPHICS
 70
     1
  9
$MEASUREMENT
 70
     0
  9
$CELWEIGHT
370
    -1
  9
$ENDCAPS
280
     0
  9
$JOINSTYLE
280
     0
  9
$LWDISPLAY
290
     1
  9
$INSUNITS
 70
     4
  9
$HYPERLINKBASE
  1

  9
$STYLESHEET
  1

  9
$XEDIT
290
     1
  9
$CEPSNTYPE
380
     0
  9
$PSTYLEMODE
290
     1
  9
$FINGERPRINTGUID
  2
{1448B3E8-B771-4641-BE76-ED50810F4EA8}
  9
$VERSIONGUID
  2
{FAEB1C32-E019-11D5-929B-00C0DF256EC4}
  9
$EXTNAMES
290
     1
  9
$PSVPSCALE
 40
0.0
  9
$OLESTARTUP
290
     0
  9
$SORTENTS
280
   127
  9
$INDEXCTL
280
     0
  9
$HIDETEXT
280
     1
  9
$XCLIPFRAME
280
     2
  9
$HALOGAP
280
     0
  9
$OBSCOLOR
 70
   257
  9
$OBSLTYPE
280
     0
  9
$INTERSECTIONDISPLAY
280
     0
  9
$INTERSECTIONCOLOR
 70
   257
  9
$DIMASSOC
280
     2
  9
$PROJECTNAME
  1

  9
$CAMERADISPLAY
290
     0
  9
$LENSLENGTH
 40
50.0
  9
$CAMERAHEIGHT
 40
0.0
  9
$STEPSPERSEC
 40
2.0
  9
$STEPSIZE
 40
6.0
  9
$3DDWFPREC
 40
2.0
  9
$PSOLWIDTH
 40
0.25
  9
$PSOLHEIGHT
 40
4.0
  9
$LOFTANG1
 40
1.570796326794897
  9
$LOFTANG2
 40
1.570796326794897
  9
$LOFTMAG1
 40
0.0
  9
$LOFTMAG2
 40
0.0
  9
$LOFTPARAM
 70
     7
  9
$LOFTNORMALS
280
     1
  9
$LATITUDE
 40
37.795
  9
$LONGITUDE
 40
-122.394
  9
$NORTHDIRECTION
 40
0.0
  9
$TIMEZONE
 70
 -8000
  9
$LIGHTGLYPHDISPLAY
280
     1
  9
$TILEMODELIGHTSYNCH
280
     1
  9
$CMATERIAL
347
3C
  9
$SOLIDHIST
280
     1
  9
$SHOWHIST
280
     1
  9
$DWFFRAME
280
     2
  9
$DGNFRAME
280
     2
  9
$REALWORLDSCALE
290
     1
  9
$INTERFERECOLOR
 62
   256
  9
$CSHADOW
280
     0
  9
$SHADOWPLANELOCATION
 40
0.0
  0
ENDSEC
  0
SECTION
  2
CLASSES
  0
CLASS
  1
ACDBDICTIONARYWDFLT
  2
AcDbDictionaryWithDefault
  3
ObjectDBX Classes
 90
        0
 91
        4
280
     0
281
     0
  0
CLASS
  1
VISUALSTYLE
  2
AcDbVisualStyle
  3
ObjectDBX Classes
 90
     4095
 91
        4
280
     0
281
     0
  0
CLASS
  1
MATERIAL
  2
AcDbMaterial
  3
ObjectDBX Classes
 90
     1153
 91
        4
280
     0
281
     0
  0
CLASS
  1
SUN
  2
AcDbSun
  3
SCENEOE
 90
     1024
 91
        4
280
     0
281
     0
  0
ENDSEC
  0
SECTION
  2
TABLES
  0
TABLE
  2
VPORT
  5
8
330
0
100
AcDbSymbolTable
 70
     1
  0
VPORT
  5
29
330
8
100
AcDbSymbolTableRecord
100
AcDbViewportTableRecord
  2
*Active
 70
     0
 10
0.0
 20
0.0
 11
1.0
 21
1.0
 12
0.0
 22
0.0
 13
0.0
 23
0.0
 14
0.5
 24
0.5
 15
0.5
 25
0.5
 16
0.0
 26
0.0
 36
1.0
 17
104.9999989878935
 27
-148.500006351764
 37
0.0
 40
297.0000127035281
 41
0.7070706700117675
 42
50.0
 43
0.0
 44
0.0
 50
0.0
 51
0.0
 71
     0
 72
   100
 73
     1
 74
     3
 75
     0
 76
     0
 77
     0
 78
     0
281
     0
 65
     1
110
0.0
120
0.0
130
0.0
111
1.0
121
0.0
131
0.0
112
0.0
122
1.0
132
0.0
 79
     0
146
0.0
 60
     3
 61
     5
292
     1
282
     1
141
0.0
142
0.0
 63
   250
361
3F
  0
ENDTAB
  0
TABLE
  2
LTYPE
  5
5
330
0
100
AcDbSymbolTable
 70
     1
  0
LTYPE
  5
14
330
5
100
AcDbSymbolTableRecord
100
AcDbLinetypeTableRecord
  2
ByBlock
 70
     0
  3

 72
    65
 73
     0
 40
0.0
  0
LTYPE
  5
15
330
5
100
AcDbSymbolTableRecord
100
AcDbLinetypeTableRecord
  2
ByLayer
 70
     0
  3

 72
    65
 73
     0
 40
0.0
  0
LTYPE
  5
16
330
5
100
AcDbSymbolTableRecord
100
AcDbLinetypeTableRecord
  2
Continuous
 70
     0
  3
Solid line
 72
    65
 73
     0
 40
0.0
  0
ENDTAB
  0
TABLE
  2
LAYER
  5
2
330
0
100
AcDbSymbolTable
 70
     2
  0
LAYER
  5
10
330
2
100
AcDbSymbolTableRecord
100
AcDbLayerTableRecord
  2
0
 70
     0
 62
     7
  6
Continuous
370
    -3
390
F
347
3E
  0
LAYER
  5
40
330
2
100
AcDbSymbolTableRecord
100
AcDbLayerTableRecord
  2
text
 70
     0
 62
     7
  6
Continuous
370
    -3
390
F
347
3E
  0
ENDTAB
  0
TABLE
  2
STYLE
  5
3
330
0
100
AcDbSymbolTable
 70
     1
  0
STYLE
  5
11
330
3
100
AcDbSymbolTableRecord
100
AcDbTextStyleTableRecord
  2
Standard
 70
     0
 40
0.0
 41
1.0
 50
0.0
 71
     0
 42
0.2
  3
txt
  4

  0
ENDTAB
  0
TABLE
  2
VIEW
  5
6
330
0
100
AcDbSymbolTable
 70
     0
  0
ENDTAB
  0
TABLE
  2
UCS
  5
7
330
0
100
AcDbSymbolTable
 70
     0
  0
ENDTAB
  0
TABLE
  2
APPID
  5
9
330
0
100
AcDbSymbolTable
 70
     1
  0
APPID
  5
12
330
9
100
AcDbSymbolTableRecord
100
AcDbRegAppTableRecord
  2
ACAD
 70
     0
  0
ENDTAB
  0
TABLE
  2
DIMSTYLE
  5
A
330
0
100
AcDbSymbolTable
 70
     1
100
AcDbDimStyleTable
  0
DIMSTYLE
105
27
330
A
100
AcDbSymbolTableRecord
100
AcDbDimStyleTableRecord
  2
Standard
 70
     0
178
     0
340
11
  0
ENDTAB
  0
TABLE
  2
BLOCK_RECORD
  5
1
330
0
100
AcDbSymbolTable
 70
     2
  0
BLOCK_RECORD
  5
1F
330
1
100
AcDbSymbolTableRecord
100
AcDbBlockTableRecord
  2
*Model_Space
340
22
 70
     0
280
     1
281
     0
  0
BLOCK_RECORD
  5
1B
330
1
100
AcDbSymbolTableRecord
100
AcDbBlockTableRecord
  2
*Paper_Space
340
1E
 70
     0
280
     1
281
     0
  0
BLOCK_RECORD
  5
23
330
1
100
AcDbSymbolTableRecord
100
AcDbBlockTableRecord
  2
*Paper_Space0
340
26
 70
     0
280
     1
281
     0
  0
BLOCK_RECORD
  5
10A
330
1
100
AcDbSymbolTableRecord
100
AcDbBlockTableRecord
  2
block 2
340
0
102
{BLKREFS
331
10B
102
}
 70
     0
280
     1
281
     0
  0
ENDTAB
  0
ENDSEC
  0
SECTION
  2
BLOCKS
  0
BLOCK
  5
20
330
1F
100
AcDbEntity
  8
0
100
AcDbBlockBegin
  2
*Model_Space
 70
     0
 10
0.0
 20
0.0
 30
0.0
  3
*Model_Space
  1

  0
ENDBLK
  5
21
330
1F
100
AcDbEntity
  8
0
100
AcDbBlockEnd
  0
BLOCK
  5
1C
330
1B
100
AcDbEntity
 67
     1
  8
0
100
AcDbBlockBegin
  2
*Paper_Space
 70
     0
 10
0.0
 20
0.0
 30
0.0
  3
*Paper_Space
  1

  0
ENDBLK
  5
1D
330
1B
100
AcDbEntity
 67
     1
  8
0
100
AcDbBlockEnd
  0
BLOCK
  5
24
330
23
100
AcDbEntity
  8
0
100
AcDbBlockBegin
  2
*Paper_Space0
 70
     0
 10
0.0
 20
0.0
 30
0.0
  3
*Paper_Space0
  1

  0
ENDBLK
  5
25
330
23
100
AcDbEntity
  8
0
100
AcDbBlockEnd
  0
BLOCK
  5
10C
330
10A
100
AcDbEntity
  8
0
100
AcDbBlockBegin
  2
block 2
 70
     0
 10
0.0
 20
0.0
 30
0.0
  3
block 2
  1

  0
SPLINE
  5
10E
330
10A
100
AcDbEntity
  8
text
370
     0
100
AcDbSpline
210
0.0
220
0.0
230
1.0
 70
    11
 71
     3
 72
    77
 73
    73
 74
     0
 42
0.0000000001
 43
0.0000000001
 12
1.0
 22
0.0
 32
0.0
 13
1.0
 23
0.0
 33
0.0
 40
0.0
 40
0.0
 40
0.0
 40
0.0
 40
1.0
 40
1.0
 40
1.0
 40
2.0
 40
2.0
 40
2.0
 40
3.0
 40
3.0
 40
3.0
 40
4.0
 40
4.0
 40
4.0
 40
5.0
 40
5.0
 40
5.0
 40
6.0
 40
6.0
 40
6.0
 40
7.0
 40
7.0
 40
7.0
 40
8.0
 40
8.0
 40
8.0
 40
9.0
 40
9.0
 40
9.0
 40
10.0
 40
10.0
 40
10.0
 40
11.0
 40
11.0
 40
11.0
 40
12.0
 40
12.0
 40
12.0
 40
13.0
 40
13.0
 40
13.0
 40
14.0
 40
14.0
 40
14.0
 40
15.0
 40
15.0
 40
15.0
 40
16.0
 40
16.0
 40
16.0
 40
17.0
 40
17.0
 40
17.0
 40
18.0
 40
18.0
 40
18.0
 40
19.0
 40
19.0
 40
19.0
 40
20.0
 40
20.0
 40
20.0
 40
21.0
 40
21.0
 40
21.0
 40
22.0
 40
22.0
 40
22.0
 40
23.0
 40
23.0
 40
23.0
 40
24.0
 40
24.0
 40
24.0
 40
24.0
 10
53.82686088064051
 20
-77.99282767147402
 30
0.0
 10
53.82686088064051
 20
-77.99282767147402
 30
0.0
 10
53.67097030993295
 20
-77.67639565115383
 30
0.0
 10
53.67097030993295
 20
-77.67639565115383
 30
0.0
 10
53.67097030993295
 20
-77.67639565115383
 30
0.0
 10
56.56312796980019
 20
-76.25064288458317
 30
0.0
 10
56.56312796980019
 20
-76.25064288458317
 30
0.0
 10
56.56312796980019
 20
-76.25064288458317
 30
0.0
 10
53.19089625406339
 20
-76.3570963350774
 30
0.0
 10
53.19089625406339
 20
-76.3570963350774
 30
0.0
 10
53.19089625406339
 20
-76.3570963350774
 30
0.0
 10
53.15403373237122
 20
-76.00724688855027
 30
0.0
 10
53.15403373237122
 20
-76.00724688855027
 30
0.0
 10
53.15403373237122
 20
-76.00724688855027
 30
0.0
 10
53.72867565931089
 20
-75.9028604953472
 30
0.0
 10
53.72867565931089
 20
-75.9028604953472
 30
0.0
 10
56.07805852547702
 20
-75.47446287175639
 30
0.0
 10
56.2530693761277
 20
-75.44259573851782
 30
0.0
 10
57.4733221970032
 20
-75.80191919762939
 30
0.0
 10
57.4733221970032
 20
-75.80191919762939
 30
0.0
 10
57.52396510063637
 20
-75.77711451013559
 30
0.0
 10
57.52396510063637
 20
-75.77711451013559
 30
0.0
 10
57.52620441270179
 20
-75.7559271729013
 30
0.0
 10
57.52775470567015
 20
-75.73129474018177
 30
0.0
 10
57.52775470567015
 20
-75.7027004476542
 30
0.0
 10
57.52792696044441
 20
-75.4096950766337
 30
0.0
 10
57.61749944306091
 20
-75.23640677372562
 30
0.0
 10
57.6767550854072
 20
-75.12185734884106
 30
0.0
 10
57.68726262663721
 20
-75.10170354025236
 30
0.0
 10
57.69690889399592
 20
-75.08327227940627
 30
0.0
 10
57.70466035883773
 20
-75.06587454720575
 30
0.0
 10
57.78751490525799
 20
-74.88035615532506
 30
0.0
 10
57.88983424116991
 20
-74.77803681941313
 30
0.0
 10
57.90137531104549
 20
-74.76701251386034
 30
0.0
 10
57.92686901763634
 20
-74.74048527862391
 30
0.0
 10
58.19196911522631
 20
-74.46970077348327
 30
0.0
 10
58.39746906092147
 20
-74.35515134859871
 30
0.0
 10
58.41779512428445
 20
-74.33465303046148
 30
0.0
 10
58.86410724439856
 20
-74.00960827142816
 30
0.0
 10
60.0988294663121
 20
-74.58097735765685
 30
0.0
 10
60.0988294663121
 20
-74.58097735765685
 30
0.0
 10
60.43386500225265
 20
-74.73600665449308
 30
0.0
 10
60.43386500225265
 20
-74.73600665449308
 30
0.0
 10
60.43386500225265
 20
-74.73600665449308
 30
0.0
 10
58.18060030012499
 20
-75.84670543893763
 30
0.0
 10
58.18060030012499
 20
-75.84670543893763
 30
0.0
 10
58.18060030012499
 20
-75.84670543893763
 30
0.0
 10
60.95941431852751
 20
-75.75885550406376
 30
0.0
 10
60.95941431852751
 20
-75.75885550406376
 30
0.0
 10
60.95941431852751
 20
-75.75885550406376
 30
0.0
 10
60.75667044922056
 20
-76.0475545057277
 30
0.0
 10
60.75667044922056
 20
-76.0475545057277
 30
0.0
 10
60.22491996107225
 20
-76.8053032577084
 30
0.0
 10
59.79101018470503
 20
-77.05713973768016
 30
0.0
 10
59.20465493311551
 20
-76.9425903127956
 30
0.0
 10
59.20465493311551
 20
-76.9425903127956
 30
0.0
 10
59.01327987890988
 20
-76.90607230065196
 30
0.0
 10
59.01327987890988
 20
-76.90607230065196
 30
0.0
 10
58.67755532387228
 20
-76.84233803417483
 30
0.0
 10
58.653095145927
 20
-76.83475882410728
 30
0.0
 10
58.35733369851831
 20
-76.6991943167627
 30
0.0
 10
58.35733369851831
 20
-76.6991943167627
 30
0.0
 10
57.96907143733065
 20
-76.46096596395768
 30
0.0
 10
57.96907143733065
 20
-76.46096596395768
 30
0.0
 10
57.96907143733065
 20
-76.46096596395768
 30
0.0
 10
57.71103378548544
 20
-76.27114120272041
 30
0.0
 10
57.71103378548544
 20
-76.27114120272041
 30
0.0
 10
56.92658554349405
 20
-76.95327010879988
 30
0.0
 10
55.63381346265405
 20
-77.52550046889988
 30
0.0
 10
53.86734075259219
 20
-77.97284611765957
 30
0.0
 10
53.86734075259219
 20
-77.97284611765957
 30
0.0
 10
53.82686088064051
 20
-77.99282767147402
 30
0.0
 10
53.82686088064051
 20
-77.99282767147402
 30
0.0
  0
SPLINE
  5
10F
330
10A
100
AcDbEntity
  8
text
370
     0
100
AcDbSpline
210
0.0
220
0.0
230
1.0
 70
    11
 71
     3
 72
    20
 73
    16
 74
     0
 42
0.0000000001
 43
0.0000000001
 12
1.0
 22
0.0
 32
0.0
 13
1.0
 23
0.0
 33
0.0
 40
0.0
 40
0.0
 40
0.0
 40
0.0
 40
1.0
 40
1.0
 40
1.0
 40
2.0
 40
2.0
 40
2.0
 40
3.0
 40
3.0
 40
3.0
 40
4.0
 40
4.0
 40
4.0
 40
5.0
 40
5.0
 40
5.0
 40
5.0
 10
58.2145344906547
 20
-76.1986219427559
 30
0.0
 10
58.2145344906547
 20
-76.1986219427559
 30
0.0
 10
58.52355955568162
 20
-76.3887912135417
 30
0.0
 10
58.52355955568162
 20
-76.3887912135417
 30
0.0
 10
58.77246770449091
 20
-76.5012735811351
 30
0.0
 10
58.77246770449091
 20
-76.5012735811351
 30
0.0
 10
59.07890894790388
 20
-76.55932344006156
 30
0.0
 10
59.07890894790388
 20
-76.55932344006156
 30
0.0
 10
59.2721788046264
 20
-76.596358216528
 30
0.0
 10
59.2721788046264
 20
-76.596358216528
 30
0.0
 10
59.58757729630103
 20
-76.65716415184265
 30
0.0
 10
59.86215140647543
 20
-76.5958414522052
 30
0.0
 10
60.24800210082342
 20
-76.13419865718173
 30
0.0
 10
60.24800210082342
 20
-76.13419865718173
 30
0.0
 10
58.2145344906547
 20
-76.1986219427559
 30
0.0
 10
58.2145344906547
 20
-76.1986219427559
 30
0.0
  0
SPLINE
  5
110
330
10A
100
AcDbEntity
  8
text
370
     0
100
AcDbSpline
210
0.0
220
0.0
230
1.0
 70
    11
 71
     3
 72
    14
 73
    10
 74
     0
 42
0.0000000001
 43
0.0000000001
 12
1.0
 22
0.0
 32
0.0
 13
1.0
 23
0.0
 33
0.0
 40
0.0
 40
0.0
 40
0.0
 40
0.0
 40
1.0
 40
1.0
 40
1.0
 40
2.0
 40
2.0
 40
2.0
 40
3.0
 40
3.0
 40
3.0
 40
3.0
 10
56.14317083014824
 20
-75.90906166722066
 30
0.0
 10
56.05807697166257
 20
-75.90906166722066
 30
0.0
 10
55.96884899859459
 20
-75.9125067627059
 30
0.0
 10
55.87255857978186
 20
-75.91956920845067
 30
0.0
 10
55.87255857978186
 20
-75.91956920845067
 30
0.0
 10
56.19278020513583
 20
-75.90940617676918
 30
0.0
 10
56.19278020513583
 20
-75.90940617676918
 30
0.0
 10
56.1764160015809
 20
-75.90923392199491
 30
0.0
 10
56.1598795432517
 20
-75.90906166722066
 30
0.0
 10
56.14317083014824
 20
-75.90906166722066
 30
0.0
  0
SPLINE
  5
111
330
10A
100
AcDbEntity
  8
text
370
     0
100
AcDbSpline
210
0.0
220
0.0
230
1.0
 70
    11
 71
     3
 72
    26
 73
    22
 74
     0
 42
0.0000000001
 43
0.0000000001
 12
1.0
 22
0.0
 32
0.0
 13
1.0
 23
0.0
 33
0.0
 40
0.0
 40
0.0
 40
0.0
 40
0.0
 40
1.0
 40
1.0
 40
1.0
 40
2.0
 40
2.0
 40
2.0
 40
3.0
 40
3.0
 40
3.0
 40
4.0
 40
4.0
 40
4.0
 40
5.0
 40
5.0
 40
5.0
 40
6.0
 40
6.0
 40
6.0
 40
7.0
 40
7.0
 40
7.0
 40
7.0
 10
58.8666910660125
 20
-74.59803058030883
 30
0.0
 10
58.67100964245031
 20
-74.59803058030883
 30
0.0
 10
58.59108342719251
 20
-74.64884573871626
 30
0.0
 10
58.58953313422415
 20
-74.64987926736184
 30
0.0
 10
58.43347030874233
 20
-74.73893498565555
 30
0.0
 10
58.22108017207668
 20
-74.94391816702792
 30
0.0
 10
58.15062796940332
 20
-75.01660968176668
 30
0.0
 10
58.14718287391807
 20
-75.02005477725193
 30
0.0
 10
58.08155380492406
 20
-75.08688962966578
 30
0.0
 10
58.02677678670859
 20
-75.20970728371493
 30
0.0
 10
58.01644150025284
 20
-75.23261716869185
 30
0.0
 10
58.00386690173168
 20
-75.25724960141139
 30
0.0
 10
57.99008651979067
 20
-75.28394909142207
 30
0.0
 10
57.94822860964489
 20
-75.36508109009971
 30
0.0
 10
57.90154756581975
 20
-75.45499808226472
 30
0.0
 10
57.88604463613613
 20
-75.59865856399965
 30
0.0
 10
57.88604463613613
 20
-75.59865856399965
 30
0.0
 10
59.59860160185382
 20
-74.75443791533917
 30
0.0
 10
59.59860160185382
 20
-74.75443791533917
 30
0.0
 10
59.26373832068754
 20
-74.63196477083854
 30
0.0
 10
59.02654349652809
 20
-74.59803058030883
 30
0.0
 10
58.8666910660125
 20
-74.59803058030883
 30
0.0
  0
HATCH
  5
112
330
10A
100
AcDbEntity
  8
text
 62
   250
420
  1842203
100
AcDbHatch
 10
0.0
 20
0.0
 30
0.0
210
0.0
220
0.0
230
1.0
  2
SOLID
 70
     1
 71
     0
 91
        4
 92
        1
 93
        1
 72
     4
 94
        3
 73
     0
 74
     1
 95
       77
 96
       73
 40
0.0
 40
0.0
 40
0.0
 40
0.0
 40
1.0
 40
1.0
 40
1.0
 40
2.0
 40
2.0
 40
2.0
 40
3.0
 40
3.0
 40
3.0
 40
4.0
 40
4.0
 40
4.0
 40
5.0
 40
5.0
 40
5.0
 40
6.0
 40
6.0
 40
6.0
 40
7.0
 40
7.0
 40
7.0
 40
8.0
 40
8.0
 40
8.0
 40
9.0
 40
9.0
 40
9.0
 40
10.0
 40
10.0
 40
10.0
 40
11.0
 40
11.0
 40
11.0
 40
12.0
 40
12.0
 40
12.0
 40
13.0
 40
13.0
 40
13.0
 40
14.0
 40
14.0
 40
14.0
 40
15.0
 40
15.0
 40
15.0
 40
16.0
 40
16.0
 40
16.0
 40
17.0
 40
17.0
 40
17.0
 40
18.0
 40
18.0
 40
18.0
 40
19.0
 40
19.0
 40
19.0
 40
20.0
 40
20.0
 40
20.0
 40
21.0
 40
21.0
 40
21.0
 40
22.0
 40
22.0
 40
22.0
 40
23.0
 40
23.0
 40
23.0
 40
24.0
 40
24.0
 40
24.0
 40
24.0
 10
53.82686088064051
 20
-77.99282767147402
 10
53.82686088064051
 20
-77.99282767147402
 10
53.67097030993295
 20
-77.67639565115383
 10
53.67097030993295
 20
-77.67639565115383
 10
53.67097030993295
 20
-77.67639565115383
 10
56.56312796980019
 20
-76.25064288458317
 10
56.56312796980019
 20
-76.25064288458317
 10
56.56312796980019
 20
-76.25064288458317
 10
53.19089625406339
 20
-76.3570963350774
 10
53.19089625406339
 20
-76.3570963350774
 10
53.19089625406339
 20
-76.3570963350774
 10
53.15403373237122
 20
-76.00724688855027
 10
53.15403373237122
 20
-76.00724688855027
 10
53.15403373237122
 20
-76.00724688855027
 10
53.72867565931089
 20
-75.9028604953472
 10
53.72867565931089
 20
-75.9028604953472
 10
56.07805852547702
 20
-75.47446287175639
 10
56.2530693761277
 20
-75.44259573851782
 10
57.4733221970032
 20
-75.80191919762939
 10
57.4733221970032
 20
-75.80191919762939
 10
57.52396510063637
 20
-75.77711451013559
 10
57.52396510063637
 20
-75.77711451013559
 10
57.52620441270179
 20
-75.7559271729013
 10
57.52775470567015
 20
-75.73129474018177
 10
57.52775470567015
 20
-75.7027004476542
 10
57.52792696044441
 20
-75.4096950766337
 10
57.61749944306091
 20
-75.23640677372562
 10
57.6767550854072
 20
-75.12185734884106
 10
57.68726262663721
 20
-75.10170354025236
 10
57.69690889399592
 20
-75.08327227940627
 10
57.70466035883773
 20
-75.06587454720575
 10
57.78751490525799
 20
-74.88035615532506
 10
57.88983424116991
 20
-74.77803681941313
 10
57.90137531104549
 20
-74.76701251386034
 10
57.92686901763634
 20
-74.74048527862391
 10
58.19196911522631
 20
-74.46970077348327
 10
58.39746906092147
 20
-74.35515134859871
 10
58.41779512428445
 20
-74.33465303046148
 10
58.86410724439856
 20
-74.00960827142816
 10
60.0988294663121
 20
-74.58097735765685
 10
60.0988294663121
 20
-74.58097735765685
 10
60.43386500225265
 20
-74.73600665449308
 10
60.43386500225265
 20
-74.73600665449308
 10
60.43386500225265
 20
-74.73600665449308
 10
58.18060030012499
 20
-75.84670543893763
 10
58.18060030012499
 20
-75.84670543893763
 10
58.18060030012499
 20
-75.84670543893763
 10
60.95941431852751
 20
-75.75885550406376
 10
60.95941431852751
 20
-75.75885550406376
 10
60.95941431852751
 20
-75.75885550406376
 10
60.75667044922056
 20
-76.0475545057277
 10
60.75667044922056
 20
-76.0475545057277
 10
60.22491996107225
 20
-76.8053032577084
 10
59.79101018470503
 20
-77.05713973768016
 10
59.20465493311551
 20
-76.9425903127956
 10
59.20465493311551
 20
-76.9425903127956
 10
59.01327987890988
 20
-76.90607230065196
 10
59.01327987890988
 20
-76.90607230065196
 10
58.67755532387228
 20
-76.84233803417483
 10
58.653095145927
 20
-76.83475882410728
 10
58.35733369851831
 20
-76.6991943167627
 10
58.35733369851831
 20
-76.6991943167627
 10
57.96907143733065
 20
-76.46096596395768
 10
57.96907143733065
 20
-76.46096596395768
 10
57.96907143733065
 20
-76.46096596395768
 10
57.71103378548544
 20
-76.27114120272041
 10
57.71103378548544
 20
-76.27114120272041
 10
56.92658554349405
 20
-76.95327010879988
 10
55.63381346265405
 20
-77.52550046889988
 10
53.86734075259219
 20
-77.97284611765957
 10
53.86734075259219
 20
-77.97284611765957
 10
53.82686088064051
 20
-77.99282767147402
 10
53.82686088064051
 20
-77.99282767147402
 97
        0
 97
        0
 92
        1
 93
        1
 72
     4
 94
        3
 73
     0
 74
     1
 95
       20
 96
       16
 40
0.0
 40
0.0
 40
0.0
 40
0.0
 40
1.0
 40
1.0
 40
1.0
 40
2.0
 40
2.0
 40
2.0
 40
3.0
 40
3.0
 40
3.0
 40
4.0
 40
4.0
 40
4.0
 40
5.0
 40
5.0
 40
5.0
 40
5.0
 10
58.2145344906547
 20
-76.1986219427559
 10
58.2145344906547
 20
-76.1986219427559
 10
58.52355955568162
 20
-76.3887912135417
 10
58.52355955568162
 20
-76.3887912135417
 10
58.77246770449091
 20
-76.5012735811351
 10
58.77246770449091
 20
-76.5012735811351
 10
59.07890894790388
 20
-76.55932344006156
 10
59.07890894790388
 20
-76.55932344006156
 10
59.2721788046264
 20
-76.596358216528
 10
59.2721788046264
 20
-76.596358216528
 10
59.58757729630103
 20
-76.65716415184265
 10
59.86215140647543
 20
-76.5958414522052
 10
60.24800210082342
 20
-76.13419865718173
 10
60.24800210082342
 20
-76.13419865718173
 10
58.2145344906547
 20
-76.1986219427559
 10
58.2145344906547
 20
-76.1986219427559
 97
        0
 97
        0
 92
        1
 93
        1
 72
     4
 94
        3
 73
     0
 74
     1
 95
       14
 96
       10
 40
0.0
 40
0.0
 40
0.0
 40
0.0
 40
1.0
 40
1.0
 40
1.0
 40
2.0
 40
2.0
 40
2.0
 40
3.0
 40
3.0
 40
3.0
 40
3.0
 10
56.14317083014824
 20
-75.90906166722066
 10
56.05807697166257
 20
-75.90906166722066
 10
55.96884899859459
 20
-75.9125067627059
 10
55.87255857978186
 20
-75.91956920845067
 10
55.87255857978186
 20
-75.91956920845067
 10
56.19278020513583
 20
-75.90940617676918
 10
56.19278020513583
 20
-75.90940617676918
 10
56.1764160015809
 20
-75.90923392199491
 10
56.1598795432517
 20
-75.90906166722066
 10
56.14317083014824
 20
-75.90906166722066
 97
        0
 97
        0
 92
        1
 93
        1
 72
     4
 94
        3
 73
     0
 74
     1
 95
       26
 96
       22
 40
0.0
 40
0.0
 40
0.0
 40
0.0
 40
1.0
 40
1.0
 40
1.0
 40
2.0
 40
2.0
 40
2.0
 40
3.0
 40
3.0
 40
3.0
 40
4.0
 40
4.0
 40
4.0
 40
5.0
 40
5.0
 40
5.0
 40
6.0
 40
6.0
 40
6.0
 40
7.0
 40
7.0
 40
7.0
 40
7.0
 10
58.8666910660125
 20
-74.59803058030883
 10
58.67100964245031
 20
-74.59803058030883
 10
58.59108342719251
 20
-74.64884573871626
 10
58.58953313422415
 20
-74.64987926736184
 10
58.43347030874233
 20
-74.73893498565555
 10
58.22108017207668
 20
-74.94391816702792
 10
58.15062796940332
 20
-75.01660968176668
 10
58.14718287391807
 20
-75.02005477725193
 10
58.08155380492406
 20
-75.08688962966578
 10
58.02677678670859
 20
-75.20970728371493
 10
58.01644150025284
 20
-75.23261716869185
 10
58.00386690173168
 20
-75.25724960141139
 10
57.99008651979067
 20
-75.28394909142207
 10
57.94822860964489
 20
-75.36508109009971
 10
57.90154756581975
 20
-75.45499808226472
 10
57.88604463613613
 20
-75.59865856399965
 10
57.88604463613613
 20
-75.59865856399965
 10
59.59860160185382
 20
-74.75443791533917
 10
59.59860160185382
 20
-74.75443791533917
 10
59.26373832068754
 20
-74.63196477083854
 10
59.02654349652809
 20
-74.59803058030883
 10
58.8666910660125
 20
-74.59803058030883
 97
        0
 97
        0
 75
     2
 76
     1
 98
        0
  0
ENDBLK
  5
10D
330
10A
100
AcDbEntity
  8
0
100
AcDbBlockEnd
  0
ENDSEC
  0
SECTION
  2
ENTITIES
  0
MTEXT
  5
41
330
1F
100
AcDbEntity
  8
text
 62
   250
420
  1842203
100
AcDbMText
 10
41.37035264032912
 20
-76.12789881687341
 30
0.0
 40
3.155216826201034
 41
0.0
 46
0.0
 71
     7
 72
     1
  1
\fOctagonal|b0|i0|c0|p34;\W1.06971;cv
 11
0.7071067811865474
 21
-0.7071067811865477
 31
0.0
 73
     1
 44
1.0
  0
MTEXT
  5
42
330
1F
100
AcDbEntity
  8
text
 62
   250
420
  1842203
100
AcDbMText
 10
68.46320181383061
 20
-80.70297098592685
 30
0.0
 40
3.165651718801415
 41
0.0
 46
0.0
 71
     7
 72
     1
  1
\fOctagonal|b0|i0|c0|p34;\W1.06971;gate
 11
0.7071067811865476
 21
0.7071067811865475
 31
0.0
 73
     1
 44
1.0
  0
MTEXT
  5
43
330
1F
100
AcDbEntity
  8
text
 62
   250
420
  1842203
100
AcDbMText
 10
52.91184351975815
 20
-63.6281575361763
 30
0.0
 40
2.796953101507946
 41
0.0
 46
0.0
 71
     7
 72
     1
  1
\fOctagonal|b0|i0|c0|p34;\W1;splitter
 73
     1
 44
1.0
  0
POLYLINE
  5
44
330
1F
100
AcDbEntity
  8
text
 62
   250
420
  1842203
370
    35
100
AcDb2dPolyline
 66
     1
 10
0.0
 20
0.0
 30
0.0
  0
VERTEX
  5
45
330
44
100
AcDbEntity
  8
text
 62
   250
420
  1842203
370
    35
100
AcDbVertex
100
AcDb2dVertex
 10
49.00016180545728
 20
-80.76088747980978
 30
0.0
  0
VERTEX
  5
113
330
44
100
AcDbEntity
  8
0
100
AcDbVertex
100
AcDb2dVertex
 10
49.00016180545728
 20
-80.76088747980978
 30
0.0
  0
SEQEND
  5
46
330
44
100
AcDbEntity
  8
text
 62
   250
420
  1842203
370
    35
  0
POLYLINE
  5
47
330
1F
100
AcDbEntity
  8
text
370
     0
100
AcDb2dPolyline
 66
     1
 10
0.0
 20
0.0
 30
0.0
  0
VERTEX
  5
48
330
47
100
AcDbEntity
  8
text
370
     0
100
AcDbVertex
100
AcDb2dVertex
 10
48.53071559116594
 20
-81.55815698915907
 30
0.0
  0
VERTEX
  5
49
330
47
100
AcDbEntity
  8
text
370
     0
100
AcDbVertex
100
AcDb2dVertex
 10
47.86977402232075
 20
-80.90203855399325
 30
0.0
  0
VERTEX
  5
4A
330
47
100
AcDbEntity
  8
text
370
     0
100
AcDbVertex
100
AcDb2dVertex
 10
47.86615667206124
 20
-79.97100149910447
 30
0.0
  0
VERTEX
  5
4B
330
47
100
AcDbEntity
  8
text
370
     0
100
AcDbVertex
100
AcDb2dVertex
 10
48.52227510722707
 20
-79.31023218503356
 30
0.0
  0
VERTEX
  5
4C
330
47
100
AcDbEntity
  8
text
370
     0
100
AcDbVertex
100
AcDb2dVertex
 10
49.45331216211584
 20
-79.30661483477404
 30
0.0
  0
VERTEX
  5
4D
330
47
100
AcDbEntity
  8
text
370
     0
100
AcDbVertex
100
AcDb2dVertex
 10
50.11408147618676
 20
-79.96256101516562
 30
0.0
  0
VERTEX
  5
4E
330
47
100
AcDbEntity
  8
text
370
     0
100
AcDbVertex
100
AcDb2dVertex
 10
50.11769882644627
 20
-80.89359807005438
 30
0.0
  0
VERTEX
  5
4F
330
47
100
AcDbEntity
  8
text
370
     0
100
AcDbVertex
100
AcDb2dVertex
 10
49.46175264605471
 20
-81.55453963889957
 30
0.0
  0
VERTEX
  5
50
330
47
100
AcDbEntity
  8
text
370
     0
100
AcDbVertex
100
AcDb2dVertex
 10
48.53071559116594
 20
-81.55815698915907
 30
0.0
  0
SEQEND
  5
51
330
47
100
AcDbEntity
  8
text
370
     0
  0
POLYLINE
  5
52
330
1F
100
AcDbEntity
  8
text
370
     0
100
AcDb2dPolyline
 66
     1
 10
0.0
 20
0.0
 30
0.0
  0
VERTEX
  5
53
330
52
100
AcDbEntity
  8
text
370
     0
100
AcDbVertex
100
AcDb2dVertex
 10
48.22186278091328
 20
-80.75458846722455
 30
0.0
  0
VERTEX
  5
54
330
52
100
AcDbEntity
  8
text
370
     0
100
AcDbVertex
100
AcDb2dVertex
 10
48.67540960154643
 20
-81.20469019237244
 30
0.0
  0
VERTEX
  5
55
330
52
100
AcDbEntity
  8
text
370
     0
100
AcDbVertex
100
AcDb2dVertex
 10
49.31430255928601
 20
-81.20245088030703
 30
0.0
  0
VERTEX
  5
56
330
52
100
AcDbEntity
  8
text
370
     0
100
AcDbVertex
100
AcDb2dVertex
 10
49.76423202965964
 20
-80.74890405967389
 30
0.0
  0
VERTEX
  5
57
330
52
100
AcDbEntity
  8
text
370
     0
100
AcDbVertex
100
AcDb2dVertex
 10
49.76199271759423
 20
-80.1100111019343
 30
0.0
  0
VERTEX
  5
58
330
52
100
AcDbEntity
  8
text
370
     0
100
AcDbVertex
100
AcDb2dVertex
 10
49.30861815173535
 20
-79.66008163156067
 30
0.0
  0
VERTEX
  5
59
330
52
100
AcDbEntity
  8
text
370
     0
100
AcDbVertex
100
AcDb2dVertex
 10
48.66972519399577
 20
-79.66232094362609
 30
0.0
  0
VERTEX
  5
5A
330
52
100
AcDbEntity
  8
text
370
     0
100
AcDbVertex
100
AcDb2dVertex
 10
48.21962346884787
 20
-80.11569550948496
 30
0.0
  0
VERTEX
  5
5B
330
52
100
AcDbEntity
  8
text
370
     0
100
AcDbVertex
100
AcDb2dVertex
 10
48.22186278091328
 20
-80.75458846722455
 30
0.0
  0
SEQEND
  5
5C
330
52
100
AcDbEntity
  8
text
370
     0
  0
HATCH
  5
5D
330
1F
100
AcDbEntity
  8
text
 62
   250
420
  1842203
100
AcDbHatch
 10
0.0
 20
0.0
 30
0.0
210
0.0
220
0.0
230
1.0
  2
SOLID
 70
     1
 71
     0
 91
        2
 92
        1
 93
        8
 72
     1
 10
48.53071559116594
 20
-81.55815698915907
 11
47.86977402232075
 21
-80.90203855399325
 72
     1
 10
47.86977402232075
 20
-80.90203855399325
 11
47.86615667206124
 21
-79.97100149910447
 72
     1
 10
47.86615667206124
 20
-79.97100149910447
 11
48.52227510722707
 21
-79.31023218503356
 72
     1
 10
48.52227510722707
 20
-79.31023218503356
 11
49.45331216211584
 21
-79.30661483477404
 72
     1
 10
49.45331216211584
 20
-79.30661483477404
 11
50.11408147618676
 21
-79.96256101516562
 72
     1
 10
50.11408147618676
 20
-79.96256101516562
 11
50.11769882644627
 21
-80.89359807005438
 72
     1
 10
50.11769882644627
 20
-80.89359807005438
 11
49.46175264605471
 21
-81.55453963889957
 72
     1
 10
49.46175264605471
 20
-81.55453963889957
 11
48.53071559116594
 21
-81.55815698915907
 97
        0
 92
        1
 93
        8
 72
     1
 10
48.22186278091328
 20
-80.75458846722455
 11
48.67540960154643
 21
-81.20469019237244
 72
     1
 10
48.67540960154643
 20
-81.20469019237244
 11
49.31430255928601
 21
-81.20245088030703
 72
     1
 10
49.31430255928601
 20
-81.20245088030703
 11
49.76423202965964
 21
-80.74890405967389
 72
     1
 10
49.76423202965964
 20
-80.74890405967389
 11
49.76199271759423
 21
-80.1100111019343
 72
     1
 10
49.76199271759423
 20
-80.1100111019343
 11
49.30861815173535
 21
-79.66008163156067
 72
     1
 10
49.30861815173535
 20
-79.66008163156067
 11
48.66972519399577
 21
-79.66232094362609
 72
     1
 10
48.66972519399577
 20
-79.66232094362609
 11
48.21962346884787
 21
-80.11569550948496
 72
     1
 10
48.21962346884787
 20
-80.11569550948496
 11
48.22186278091328
 21
-80.75458846722455
 97
        0
 75
     2
 76
     1
 98
        0
  0
POLYLINE
  5
5E
330
1F
100
AcDbEntity
  8
text
 62
   250
420
  1842203
370
    35
100
AcDb2dPolyline
 66
     1
 10
0.0
 20
0.0
 30
0.0
  0
VERTEX
  5
5F
330
5E
100
AcDbEntity
  8
text
 62
   250
420
  1842203
370
    35
100
AcDbVertex
100
AcDb2dVertex
 10
52.27217561087014
 20
-80.75788886869944
 30
0.0
  0
VERTEX
  5
114
330
5E
100
AcDbEntity
  8
0
100
AcDbVertex
100
AcDb2dVertex
 10
52.27217561087014
 20
-80.75788886869944
 30
0.0
  0
SEQEND
  5
60
330
5E
100
AcDbEntity
  8
text
 62
   250
420
  1842203
370
    35
  0
POLYLINE
  5
61
330
1F
100
AcDbEntity
  8
text
370
     0
100
AcDb2dPolyline
 66
     1
 10
0.0
 20
0.0
 30
0.0
  0
VERTEX
  5
62
330
61
100
AcDbEntity
  8
text
370
     0
100
AcDbVertex
100
AcDb2dVertex
 10
50.8620117060345
 20
-81.55815698915907
 30
0.0
  0
VERTEX
  5
63
330
61
100
AcDbEntity
  8
text
370
     0
100
AcDbVertex
100
AcDb2dVertex
 10
50.20124239196358
 20
-80.90203855399325
 30
0.0
  0
VERTEX
  5
64
330
61
100
AcDbEntity
  8
text
370
     0
100
AcDbVertex
100
AcDb2dVertex
 10
50.19762504170407
 20
-79.97100149910447
 30
0.0
  0
VERTEX
  5
65
330
61
100
AcDbEntity
  8
text
370
     0
100
AcDbVertex
100
AcDb2dVertex
 10
50.8537434768699
 20
-79.31023218503356
 30
0.0
  0
VERTEX
  5
66
330
61
100
AcDbEntity
  8
text
370
     0
100
AcDbVertex
100
AcDb2dVertex
 10
51.78478053175867
 20
-79.30661483477404
 30
0.0
  0
VERTEX
  5
67
330
61
100
AcDbEntity
  8
text
370
     0
100
AcDbVertex
100
AcDb2dVertex
 10
52.39370115877658
 20
-79.91105683766114
 30
0.0
  0
VERTEX
  5
68
330
61
100
AcDbEntity
  8
text
370
     0
100
AcDbVertex
100
AcDb2dVertex
 10
52.14530977429006
 20
-80.16151527943879
 30
0.0
  0
VERTEX
  5
69
330
61
100
AcDbEntity
  8
text
370
     0
100
AcDbVertex
100
AcDb2dVertex
 10
51.64008652137817
 20
-79.66008163156067
 30
0.0
  0
VERTEX
  5
6A
330
61
100
AcDbEntity
  8
text
370
     0
100
AcDbVertex
100
AcDb2dVertex
 10
51.00119356363859
 20
-79.66232094362609
 30
0.0
  0
VERTEX
  5
6B
330
61
100
AcDbEntity
  8
text
370
     0
100
AcDbVertex
100
AcDb2dVertex
 10
50.5510918384907
 20
-80.11569550948496
 30
0.0
  0
VERTEX
  5
6C
330
61
100
AcDbEntity
  8
text
370
     0
100
AcDbVertex
100
AcDb2dVertex
 10
50.55333115055611
 20
-80.75458846722455
 30
0.0
  0
VERTEX
  5
6D
330
61
100
AcDbEntity
  8
text
370
     0
100
AcDbVertex
100
AcDb2dVertex
 10
51.00670571641499
 20
-81.20469019237244
 30
0.0
  0
VERTEX
  5
6E
330
61
100
AcDbEntity
  8
text
370
     0
100
AcDbVertex
100
AcDb2dVertex
 10
51.64559867415458
 20
-81.20245088030703
 30
0.0
  0
VERTEX
  5
6F
330
61
100
AcDbEntity
  8
text
370
     0
100
AcDbVertex
100
AcDb2dVertex
 10
52.14720457680695
 20
-80.69705537262088
 30
0.0
  0
VERTEX
  5
70
330
61
100
AcDbEntity
  8
text
370
     0
100
AcDbVertex
100
AcDb2dVertex
 10
52.39766301858462
 20
-80.94544675710739
 30
0.0
  0
VERTEX
  5
71
330
61
100
AcDbEntity
  8
text
370
     0
100
AcDbVertex
100
AcDb2dVertex
 10
51.79304876092327
 20
-81.55453963889957
 30
0.0
  0
VERTEX
  5
72
330
61
100
AcDbEntity
  8
text
370
     0
100
AcDbVertex
100
AcDb2dVertex
 10
50.8620117060345
 20
-81.55815698915907
 30
0.0
  0
SEQEND
  5
74
330
61
100
AcDbEntity
  8
text
370
     0
  0
HATCH
  5
73
330
1F
100
AcDbEntity
  8
text
 62
   250
420
  1842203
100
AcDbHatch
 10
0.0
 20
0.0
 30
0.0
210
0.0
220
0.0
230
1.0
  2
SOLID
 70
     1
 71
     0
 91
        1
 92
        1
 93
       16
 72
     1
 10
50.8620117060345
 20
-81.55815698915907
 11
50.20124239196358
 21
-80.90203855399325
 72
     1
 10
50.20124239196358
 20
-80.90203855399325
 11
50.19762504170407
 21
-79.97100149910447
 72
     1
 10
50.19762504170407
 20
-79.97100149910447
 11
50.8537434768699
 21
-79.31023218503356
 72
     1
 10
50.8537434768699
 20
-79.31023218503356
 11
51.78478053175867
 21
-79.30661483477404
 72
     1
 10
51.78478053175867
 20
-79.30661483477404
 11
52.39370115877658
 21
-79.91105683766114
 72
     1
 10
52.39370115877658
 20
-79.91105683766114
 11
52.14530977429006
 21
-80.16151527943879
 72
     1
 10
52.14530977429006
 20
-80.16151527943879
 11
51.64008652137817
 21
-79.66008163156067
 72
     1
 10
51.64008652137817
 20
-79.66008163156067
 11
51.00119356363859
 21
-79.66232094362609
 72
     1
 10
51.00119356363859
 20
-79.66232094362609
 11
50.5510918384907
 21
-80.11569550948496
 72
     1
 10
50.5510918384907
 20
-80.11569550948496
 11
50.55333115055611
 21
-80.75458846722455
 72
     1
 10
50.55333115055611
 20
-80.75458846722455
 11
51.00670571641499
 21
-81.20469019237244
 72
     1
 10
51.00670571641499
 20
-81.20469019237244
 11
51.64559867415458
 21
-81.20245088030703
 72
     1
 10
51.64559867415458
 20
-81.20245088030703
 11
52.14720457680695
 21
-80.69705537262088
 72
     1
 10
52.14720457680695
 20
-80.69705537262088
 11
52.39766301858462
 21
-80.94544675710739
 72
     1
 10
52.39766301858462
 20
-80.94544675710739
 11
51.79304876092327
 21
-81.55453963889957
 72
     1
 10
51.79304876092327
 20
-81.55453963889957
 11
50.8620117060345
 21
-81.55815698915907
 97
        0
 75
     2
 76
     1
 98
        0
  0
POLYLINE
  5
75
330
1F
100
AcDbEntity
  8
text
370
     0
100
AcDb2dPolyline
 66
     1
 10
0.0
 20
0.0
 30
0.0
  0
VERTEX
  5
76
330
75
100
AcDbEntity
  8
text
370
     0
100
AcDbVertex
100
AcDb2dVertex
 10
52.78816459183768
 20
-80.16754419653797
 30
0.0
  0
VERTEX
  5
77
330
75
100
AcDbEntity
  8
text
370
     0
100
AcDbVertex
100
AcDb2dVertex
 10
52.53770615006002
 20
-79.91915281205146
 30
0.0
  0
VERTEX
  5
78
330
75
100
AcDbEntity
  8
text
370
     0
100
AcDbVertex
100
AcDb2dVertex
 10
53.14232040772136
 20
-79.31023218503356
 30
0.0
  0
VERTEX
  5
79
330
75
100
AcDbEntity
  8
text
370
     0
100
AcDbVertex
100
AcDb2dVertex
 10
54.07335746261013
 20
-79.30661483477404
 30
0.0
  0
VERTEX
  5
7A
330
75
100
AcDbEntity
  8
text
370
     0
100
AcDbVertex
100
AcDb2dVertex
 10
54.68227808962804
 20
-79.91105683766114
 30
0.0
  0
VERTEX
  5
7B
330
75
100
AcDbEntity
  8
text
370
     0
100
AcDbVertex
100
AcDb2dVertex
 10
54.43388670514153
 20
-80.16151527943879
 30
0.0
  0
VERTEX
  5
7C
330
75
100
AcDbEntity
  8
text
370
     0
100
AcDbVertex
100
AcDb2dVertex
 10
53.92866345222964
 20
-79.66008163156067
 30
0.0
  0
VERTEX
  5
7D
330
75
100
AcDbEntity
  8
text
370
     0
100
AcDbVertex
100
AcDb2dVertex
 10
53.28977049449006
 20
-79.66232094362609
 30
0.0
  0
VERTEX
  5
7E
330
75
100
AcDbEntity
  8
text
370
     0
100
AcDbVertex
100
AcDb2dVertex
 10
52.78816459183768
 20
-80.16754419653797
 30
0.0
  0
SEQEND
  5
80
330
75
100
AcDbEntity
  8
text
370
     0
  0
HATCH
  5
7F
330
1F
100
AcDbEntity
  8
text
 62
   250
420
  1842203
100
AcDbHatch
 10
0.0
 20
0.0
 30
0.0
210
0.0
220
0.0
230
1.0
  2
SOLID
 70
     1
 71
     0
 91
        1
 92
        1
 93
        8
 72
     1
 10
52.78816459183768
 20
-80.16754419653797
 11
52.53770615006002
 21
-79.91915281205146
 72
     1
 10
52.53770615006002
 20
-79.91915281205146
 11
53.14232040772136
 21
-79.31023218503356
 72
     1
 10
53.14232040772136
 20
-79.31023218503356
 11
54.07335746261013
 21
-79.30661483477404
 72
     1
 10
54.07335746261013
 20
-79.30661483477404
 11
54.68227808962804
 21
-79.91105683766114
 72
     1
 10
54.68227808962804
 20
-79.91105683766114
 11
54.43388670514153
 21
-80.16151527943879
 72
     1
 10
54.43388670514153
 20
-80.16151527943879
 11
53.92866345222964
 21
-79.66008163156067
 72
     1
 10
53.92866345222964
 20
-79.66008163156067
 11
53.28977049449006
 21
-79.66232094362609
 72
     1
 10
53.28977049449006
 20
-79.66232094362609
 11
52.78816459183768
 21
-80.16754419653797
 97
        0
 75
     2
 76
     1
 98
        0
  0
POLYLINE
  5
81
330
1F
100
AcDbEntity
  8
text
370
     0
100
AcDb2dPolyline
 66
     1
 10
0.0
 20
0.0
 30
0.0
  0
VERTEX
  5
82
330
81
100
AcDbEntity
  8
text
370
     0
100
AcDbVertex
100
AcDb2dVertex
 10
53.78689777301161
 20
-81.38142359076576
 30
0.0
  0
VERTEX
  5
83
330
81
100
AcDbEntity
  8
text
370
     0
100
AcDbVertex
100
AcDb2dVertex
 10
53.43411999532203
 20
-81.38142359076576
 30
0.0
  0
VERTEX
  5
84
330
81
100
AcDbEntity
  8
text
370
     0
100
AcDbVertex
100
AcDb2dVertex
 10
53.43411999532203
 20
-79.48334823316736
 30
0.0
  0
VERTEX
  5
85
330
81
100
AcDbEntity
  8
text
370
     0
100
AcDbVertex
100
AcDb2dVertex
 10
53.78689777301161
 20
-79.48334823316736
 30
0.0
  0
VERTEX
  5
86
330
81
100
AcDbEntity
  8
text
370
     0
100
AcDbVertex
100
AcDb2dVertex
 10
53.78689777301161
 20
-81.38142359076576
 30
0.0
  0
SEQEND
  5
88
330
81
100
AcDbEntity
  8
text
370
     0
  0
HATCH
  5
87
330
1F
100
AcDbEntity
  8
text
 62
   250
420
  1842203
100
AcDbHatch
 10
0.0
 20
0.0
 30
0.0
210
0.0
220
0.0
230
1.0
  2
SOLID
 70
     1
 71
     0
 91
        1
 92
        1
 93
        4
 72
     1
 10
53.78689777301161
 20
-81.38142359076576
 11
53.43411999532203
 21
-81.38142359076576
 72
     1
 10
53.43411999532203
 20
-81.38142359076576
 11
53.43411999532203
 21
-79.48334823316736
 72
     1
 10
53.43411999532203
 20
-79.48334823316736
 11
53.78689777301161
 21
-79.48334823316736
 72
     1
 10
53.78689777301161
 20
-79.48334823316736
 11
53.78689777301161
 21
-81.38142359076576
 97
        0
 75
     2
 76
     1
 98
        0
  0
POLYLINE
  5
89
330
1F
100
AcDbEntity
  8
text
370
     0
100
AcDb2dPolyline
 66
     1
 10
0.0
 20
0.0
 30
0.0
  0
VERTEX
  5
8A
330
89
100
AcDbEntity
  8
text
370
     0
100
AcDbVertex
100
AcDb2dVertex
 10
55.43623723657497
 20
-81.55815698915907
 30
0.0
  0
VERTEX
  5
8B
330
89
100
AcDbEntity
  8
text
370
     0
100
AcDbVertex
100
AcDb2dVertex
 10
54.77546792250405
 20
-80.90203855399325
 30
0.0
  0
VERTEX
  5
8C
330
89
100
AcDbEntity
  8
text
370
     0
100
AcDbVertex
100
AcDb2dVertex
 10
54.77185057224454
 20
-79.97100149910447
 30
0.0
  0
VERTEX
  5
8D
330
89
100
AcDbEntity
  8
text
370
     0
100
AcDbVertex
100
AcDb2dVertex
 10
55.42796900741037
 20
-79.31023218503356
 30
0.0
  0
VERTEX
  5
8E
330
89
100
AcDbEntity
  8
text
370
     0
100
AcDbVertex
100
AcDb2dVertex
 10
56.35900606229914
 20
-79.30661483477404
 30
0.0
  0
VERTEX
  5
8F
330
89
100
AcDbEntity
  8
text
370
     0
100
AcDbVertex
100
AcDb2dVertex
 10
57.01977537637006
 20
-79.96256101516562
 30
0.0
  0
VERTEX
  5
90
330
89
100
AcDbEntity
  8
text
370
     0
100
AcDbVertex
100
AcDb2dVertex
 10
57.02339272662957
 20
-80.89359807005438
 30
0.0
  0
VERTEX
  5
91
330
89
100
AcDbEntity
  8
text
370
     0
100
AcDbVertex
100
AcDb2dVertex
 10
56.36727429146374
 20
-81.55453963889957
 30
0.0
  0
VERTEX
  5
92
330
89
100
AcDbEntity
  8
text
370
     0
100
AcDbVertex
100
AcDb2dVertex
 10
55.43623723657497
 20
-81.55815698915907
 30
0.0
  0
SEQEND
  5
93
330
89
100
AcDbEntity
  8
text
370
     0
  0
POLYLINE
  5
94
330
1F
100
AcDbEntity
  8
text
370
     0
100
AcDb2dPolyline
 66
     1
 10
0.0
 20
0.0
 30
0.0
  0
VERTEX
  5
95
330
94
100
AcDbEntity
  8
text
370
     0
100
AcDbVertex
100
AcDb2dVertex
 10
55.12755668109659
 20
-80.75458846722455
 30
0.0
  0
VERTEX
  5
96
330
94
100
AcDbEntity
  8
text
370
     0
100
AcDbVertex
100
AcDb2dVertex
 10
55.58093124695547
 20
-81.20469019237244
 30
0.0
  0
VERTEX
  5
97
330
94
100
AcDbEntity
  8
text
370
     0
100
AcDbVertex
100
AcDb2dVertex
 10
56.21982420469504
 20
-81.20245088030703
 30
0.0
  0
VERTEX
  5
98
330
94
100
AcDbEntity
  8
text
370
     0
100
AcDbVertex
100
AcDb2dVertex
 10
56.66992592984294
 20
-80.74890405967389
 30
0.0
  0
VERTEX
  5
99
330
94
100
AcDbEntity
  8
text
370
     0
100
AcDbVertex
100
AcDb2dVertex
 10
56.66768661777753
 20
-80.1100111019343
 30
0.0
  0
VERTEX
  5
9A
330
94
100
AcDbEntity
  8
text
370
     0
100
AcDbVertex
100
AcDb2dVertex
 10
56.21431205191865
 20
-79.66008163156067
 30
0.0
  0
VERTEX
  5
9B
330
94
100
AcDbEntity
  8
text
370
     0
100
AcDbVertex
100
AcDb2dVertex
 10
55.57541909417906
 20
-79.66232094362609
 30
0.0
  0
VERTEX
  5
9C
330
94
100
AcDbEntity
  8
text
370
     0
100
AcDbVertex
100
AcDb2dVertex
 10
55.12531736903117
 20
-80.11569550948496
 30
0.0
  0
VERTEX
  5
9D
330
94
100
AcDbEntity
  8
text
370
     0
100
AcDbVertex
100
AcDb2dVertex
 10
55.12755668109659
 20
-80.75458846722455
 30
0.0
  0
SEQEND
  5
9E
330
94
100
AcDbEntity
  8
text
370
     0
  0
HATCH
  5
9F
330
1F
100
AcDbEntity
  8
text
 62
   250
420
  1842203
100
AcDbHatch
 10
0.0
 20
0.0
 30
0.0
210
0.0
220
0.0
230
1.0
  2
SOLID
 70
     1
 71
     0
 91
        2
 92
        1
 93
        8
 72
     1
 10
55.43623723657497
 20
-81.55815698915907
 11
54.77546792250405
 21
-80.90203855399325
 72
     1
 10
54.77546792250405
 20
-80.90203855399325
 11
54.77185057224454
 21
-79.97100149910447
 72
     1
 10
54.77185057224454
 20
-79.97100149910447
 11
55.42796900741037
 21
-79.31023218503356
 72
     1
 10
55.42796900741037
 20
-79.31023218503356
 11
56.35900606229914
 21
-79.30661483477404
 72
     1
 10
56.35900606229914
 20
-79.30661483477404
 11
57.01977537637006
 21
-79.96256101516562
 72
     1
 10
57.01977537637006
 20
-79.96256101516562
 11
57.02339272662957
 21
-80.89359807005438
 72
     1
 10
57.02339272662957
 20
-80.89359807005438
 11
56.36727429146374
 21
-81.55453963889957
 72
     1
 10
56.36727429146374
 20
-81.55453963889957
 11
55.43623723657497
 21
-81.55815698915907
 97
        0
 92
        1
 93
        8
 72
     1
 10
55.12755668109659
 20
-80.75458846722455
 11
55.58093124695547
 21
-81.20469019237244
 72
     1
 10
55.58093124695547
 20
-81.20469019237244
 11
56.21982420469504
 21
-81.20245088030703
 72
     1
 10
56.21982420469504
 20
-81.20245088030703
 11
56.66992592984294
 21
-80.74890405967389
 72
     1
 10
56.66992592984294
 20
-80.74890405967389
 11
56.66768661777753
 21
-80.1100111019343
 72
     1
 10
56.66768661777753
 20
-80.1100111019343
 11
56.21431205191865
 21
-79.66008163156067
 72
     1
 10
56.21431205191865
 20
-79.66008163156067
 11
55.57541909417906
 21
-79.66232094362609
 72
     1
 10
55.57541909417906
 20
-79.66232094362609
 11
55.12531736903117
 21
-80.11569550948496
 72
     1
 10
55.12531736903117
 20
-80.11569550948496
 11
55.12755668109659
 21
-80.75458846722455
 97
        0
 75
     2
 76
     1
 98
        0
  0
POLYLINE
  5
A0
330
1F
100
AcDbEntity
  8
text
 62
   250
420
  1842203
370
    35
100
AcDb2dPolyline
 66
     1
 10
0.0
 20
0.0
 30
0.0
  0
VERTEX
  5
A1
330
A0
100
AcDbEntity
  8
text
 62
   250
420
  1842203
370
    35
100
AcDbVertex
100
AcDb2dVertex
 10
58.27123212448813
 20
-80.70292609093525
 30
0.0
  0
VERTEX
  5
115
330
A0
100
AcDbEntity
  8
0
100
AcDbVertex
100
AcDb2dVertex
 10
58.27123212448813
 20
-80.70292609093525
 30
0.0
  0
SEQEND
  5
A2
330
A0
100
AcDbEntity
  8
text
 62
   250
420
  1842203
370
    35
  0
POLYLINE
  5
A3
330
1F
100
AcDbEntity
  8
text
370
     0
100
AcDb2dPolyline
 66
     1
 10
0.0
 20
0.0
 30
0.0
  0
VERTEX
  5
A4
330
A3
100
AcDbEntity
  8
text
370
     0
100
AcDbVertex
100
AcDb2dVertex
 10
57.80181205152177
 20
-81.50010713023262
 30
0.0
  0
VERTEX
  5
A5
330
A3
100
AcDbEntity
  8
text
370
     0
100
AcDbVertex
100
AcDb2dVertex
 10
57.1927191697296
 20
-80.89549287257127
 30
0.0
  0
VERTEX
  5
A6
330
A3
100
AcDbEntity
  8
text
370
     0
100
AcDbVertex
100
AcDb2dVertex
 10
57.44111055421612
 20
-80.6450344307936
 30
0.0
  0
VERTEX
  5
A7
330
A3
100
AcDbEntity
  8
text
370
     0
100
AcDbVertex
100
AcDb2dVertex
 10
57.94650606190226
 20
-81.14664033344599
 30
0.0
  0
VERTEX
  5
A8
330
A3
100
AcDbEntity
  8
text
370
     0
100
AcDbVertex
100
AcDb2dVertex
 10
58.58539901964185
 20
-81.14440102138057
 30
0.0
  0
VERTEX
  5
A9
330
A3
100
AcDbEntity
  8
text
370
     0
100
AcDbVertex
100
AcDb2dVertex
 10
59.08683266751996
 20
-80.63917776846868
 30
0.0
  0
VERTEX
  5
AA
330
A3
100
AcDbEntity
  8
text
370
     0
100
AcDbVertex
100
AcDb2dVertex
 10
59.33729110929762
 20
-80.8875691529552
 30
0.0
  0
VERTEX
  5
AB
330
A3
100
AcDbEntity
  8
text
370
     0
100
AcDbVertex
100
AcDb2dVertex
 10
58.73284910641054
 20
-81.4964897799731
 30
0.0
  0
VERTEX
  5
AC
330
A3
100
AcDbEntity
  8
text
370
     0
100
AcDbVertex
100
AcDb2dVertex
 10
57.80181205152177
 20
-81.50010713023262
 30
0.0
  0
SEQEND
  5
AE
330
A3
100
AcDbEntity
  8
text
370
     0
  0
HATCH
  5
AD
330
1F
100
AcDbEntity
  8
text
 62
   250
420
  1842203
100
AcDbHatch
 10
0.0
 20
0.0
 30
0.0
210
0.0
220
0.0
230
1.0
  2
SOLID
 70
     1
 71
     0
 91
        1
 92
        1
 93
        8
 72
     1
 10
57.80181205152177
 20
-81.50010713023262
 11
57.1927191697296
 21
-80.89549287257127
 72
     1
 10
57.1927191697296
 20
-80.89549287257127
 11
57.44111055421612
 21
-80.6450344307936
 72
     1
 10
57.44111055421612
 20
-80.6450344307936
 11
57.94650606190226
 21
-81.14664033344599
 72
     1
 10
57.94650606190226
 20
-81.14664033344599
 11
58.58539901964185
 21
-81.14440102138057
 72
     1
 10
58.58539901964185
 20
-81.14440102138057
 11
59.08683266751996
 21
-80.63917776846868
 72
     1
 10
59.08683266751996
 20
-80.63917776846868
 11
59.33729110929762
 21
-80.8875691529552
 72
     1
 10
59.33729110929762
 20
-80.8875691529552
 11
58.73284910641054
 21
-81.4964897799731
 72
     1
 10
58.73284910641054
 20
-81.4964897799731
 11
57.80181205152177
 21
-81.50010713023262
 97
        0
 75
     2
 76
     1
 98
        0
  0
POLYLINE
  5
AF
330
1F
100
AcDbEntity
  8
text
370
     0
100
AcDb2dPolyline
 66
     1
 10
0.0
 20
0.0
 30
0.0
  0
VERTEX
  5
B0
330
AF
100
AcDbEntity
  8
text
370
     0
100
AcDbVertex
100
AcDb2dVertex
 10
57.43938800647349
 20
-80.10949433761152
 30
0.0
  0
VERTEX
  5
B1
330
AF
100
AcDbEntity
  8
text
370
     0
100
AcDbVertex
100
AcDb2dVertex
 10
57.18892956469583
 20
-79.86110295312501
 30
0.0
  0
VERTEX
  5
B2
330
AF
100
AcDbEntity
  8
text
370
     0
100
AcDbVertex
100
AcDb2dVertex
 10
57.79337156758291
 20
-79.2521823261071
 30
0.0
  0
VERTEX
  5
B3
330
AF
100
AcDbEntity
  8
text
370
     0
100
AcDbVertex
100
AcDb2dVertex
 10
58.72440862247168
 20
-79.24856497584759
 30
0.0
  0
VERTEX
  5
B4
330
AF
100
AcDbEntity
  8
text
370
     0
100
AcDbVertex
100
AcDb2dVertex
 10
59.33332924948959
 20
-79.85317923350892
 30
0.0
  0
VERTEX
  5
B5
330
AF
100
AcDbEntity
  8
text
370
     0
100
AcDbVertex
100
AcDb2dVertex
 10
59.08493786500308
 20
-80.10363767528659
 30
0.0
  0
VERTEX
  5
B6
330
AF
100
AcDbEntity
  8
text
370
     0
100
AcDbVertex
100
AcDb2dVertex
 10
58.57971461209119
 20
-79.60203177263422
 30
0.0
  0
VERTEX
  5
B7
330
AF
100
AcDbEntity
  8
text
370
     0
100
AcDbVertex
100
AcDb2dVertex
 10
57.9408216543516
 20
-79.60427108469963
 30
0.0
  0
VERTEX
  5
B8
330
AF
100
AcDbEntity
  8
text
370
     0
100
AcDbVertex
100
AcDb2dVertex
 10
57.43938800647349
 20
-80.10949433761152
 30
0.0
  0
SEQEND
  5
BA
330
AF
100
AcDbEntity
  8
text
370
     0
  0
HATCH
  5
B9
330
1F
100
AcDbEntity
  8
text
 62
   250
420
  1842203
100
AcDbHatch
 10
0.0
 20
0.0
 30
0.0
210
0.0
220
0.0
230
1.0
  2
SOLID
 70
     1
 71
     0
 91
        1
 92
        1
 93
        8
 72
     1
 10
57.43938800647349
 20
-80.10949433761152
 11
57.18892956469583
 21
-79.86110295312501
 72
     1
 10
57.18892956469583
 20
-79.86110295312501
 11
57.79337156758291
 21
-79.2521823261071
 72
     1
 10
57.79337156758291
 20
-79.2521823261071
 11
58.72440862247168
 21
-79.24856497584759
 72
     1
 10
58.72440862247168
 20
-79.24856497584759
 11
59.33332924948959
 21
-79.85317923350892
 72
     1
 10
59.33332924948959
 20
-79.85317923350892
 11
59.08493786500308
 21
-80.10363767528659
 72
     1
 10
59.08493786500308
 20
-80.10363767528659
 11
58.57971461209119
 21
-79.60203177263422
 72
     1
 10
58.57971461209119
 20
-79.60203177263422
 11
57.9408216543516
 21
-79.60427108469963
 72
     1
 10
57.9408216543516
 20
-79.60427108469963
 11
57.43938800647349
 21
-80.10949433761152
 97
        0
 75
     2
 76
     1
 98
        0
  0
SPLINE
  5
BB
330
1F
100
AcDbEntity
  8
text
370
     0
100
AcDbSpline
210
0.0
220
0.0
230
1.0
 70
    11
 71
     3
 72
    50
 73
    46
 74
     0
 42
0.0000000001
 43
0.0000000001
 12
1.0
 22
0.0
 32
0.0
 13
1.0
 23
0.0
 33
0.0
 40
0.0
 40
0.0
 40
0.0
 40
0.0
 40
1.0
 40
1.0
 40
1.0
 40
2.0
 40
2.0
 40
2.0
 40
3.0
 40
3.0
 40
3.0
 40
4.0
 40
4.0
 40
4.0
 40
5.0
 40
5.0
 40
5.0
 40
6.0
 40
6.0
 40
6.0
 40
7.0
 40
7.0
 40
7.0
 40
8.0
 40
8.0
 40
8.0
 40
9.0
 40
9.0
 40
9.0
 40
10.0
 40
10.0
 40
10.0
 40
11.0
 40
11.0
 40
11.0
 40
12.0
 40
12.0
 40
12.0
 40
13.0
 40
13.0
 40
13.0
 40
14.0
 40
14.0
 40
14.0
 40
15.0
 40
15.0
 40
15.0
 40
15.0
 10
57.91171059750124
 20
-80.88326278359864
 30
0.0
 10
57.90137531104549
 20
-80.88326278359864
 30
0.0
 10
57.89104002458974
 20
-80.88309052882437
 30
0.0
 10
57.88070473813399
 20
-80.88240150972732
 30
0.0
 10
57.73945582323875
 20
-80.87413328056272
 30
0.0
 10
57.60992023299335
 20
-80.81160479750544
 30
0.0
 10
57.51586912624604
 20
-80.70601262088253
 30
0.0
 10
57.42164576472445
 20
-80.60024818948536
 30
0.0
 10
57.37444795657653
 20
-80.46433917259225
 30
0.0
 10
57.38271618574113
 20
-80.323090257697
 30
0.0
 10
57.38271618574113
 20
-80.323090257697
 30
0.0
 10
57.73480494433366
 20
-80.3437608306085
 30
0.0
 10
57.73480494433366
 20
-80.3437608306085
 30
0.0
 10
57.73204886794547
 20
-80.39078638398217
 30
0.0
 10
57.74789630717761
 20
-80.4360893896132
 30
0.0
 10
57.77924667609339
 20
-80.47122936356276
 30
0.0
 10
57.81076929978342
 20
-80.50654159228657
 30
0.0
 10
57.85400524812331
 20
-80.52755667474659
 30
0.0
 10
57.90120305627123
 20
-80.53031275113479
 30
0.0
 10
57.99645994643839
 20
-80.53375784662003
 30
0.0
 10
58.07604165214766
 20
-80.46709524898046
 30
0.0
 10
58.08654919337767
 20
-80.3740776708787
 30
0.0
 10
58.08654919337767
 20
-80.3740776708787
 30
0.0
 10
58.08723821247472
 20
-80.37424992565298
 30
0.0
 10
58.08723821247472
 20
-80.37424992565298
 30
0.0
 10
58.12220593165001
 20
-80.09984807025282
 30
0.0
 10
58.36784123974832
 20
-79.8955539079775
 30
0.0
 10
58.64155407605142
 20
-79.9134684045008
 30
0.0
 10
58.93300915410356
 20
-79.92966035328148
 30
0.0
 10
59.1569403606448
 20
-80.17994654028487
 30
0.0
 10
59.14092066663839
 20
-80.47140161833701
 30
0.0
 10
59.14092066663839
 20
-80.47140161833701
 30
0.0
 10
58.78883190804585
 20
-80.45210908361962
 30
0.0
 10
58.78883190804585
 20
-80.45210908361962
 30
0.0
 10
58.79417180604798
 20
-80.35478513616131
 30
0.0
 10
58.71924097924381
 20
-80.27106931586974
 30
0.0
 10
58.62208928655976
 20
-80.26555716309333
 30
0.0
 10
58.52976072755506
 20
-80.26038951986546
 30
0.0
 10
58.44690618113481
 20
-80.32929142957046
 30
0.0
 10
58.43674314945331
 20
-80.42213675289794
 30
0.0
 10
58.43674314945331
 20
-80.42213675289794
 30
0.0
 10
58.43622638513053
 20
-80.42213675289794
 30
0.0
 10
58.43622638513053
 20
-80.42213675289794
 30
0.0
 10
58.40211993982656
 20
-80.68654783139087
 30
0.0
 10
58.17629393076843
 20
-80.88326278359864
 30
0.0
 10
57.91171059750124
 20
-80.88326278359864
 30
0.0
  0
HATCH
  5
BC
330
1F
100
AcDbEntity
  8
text
 62
   250
420
  1842203
100
AcDbHatch
 10
0.0
 20
0.0
 30
0.0
210
0.0
220
0.0
230
1.0
  2
SOLID
 70
     1
 71
     0
 91
        1
 92
        1
 93
        1
 72
     4
 94
        3
 73
     0
 74
     1
 95
       50
 96
       46
 40
0.0
 40
0.0
 40
0.0
 40
0.0
 40
1.0
 40
1.0
 40
1.0
 40
2.0
 40
2.0
 40
2.0
 40
3.0
 40
3.0
 40
3.0
 40
4.0
 40
4.0
 40
4.0
 40
5.0
 40
5.0
 40
5.0
 40
6.0
 40
6.0
 40
6.0
 40
7.0
 40
7.0
 40
7.0
 40
8.0
 40
8.0
 40
8.0
 40
9.0
 40
9.0
 40
9.0
 40
10.0
 40
10.0
 40
10.0
 40
11.0
 40
11.0
 40
11.0
 40
12.0
 40
12.0
 40
12.0
 40
13.0
 40
13.0
 40
13.0
 40
14.0
 40
14.0
 40
14.0
 40
15.0
 40
15.0
 40
15.0
 40
15.0
 10
57.91171059750124
 20
-80.88326278359864
 10
57.90137531104549
 20
-80.88326278359864
 10
57.89104002458974
 20
-80.88309052882437
 10
57.88070473813399
 20
-80.88240150972732
 10
57.73945582323875
 20
-80.87413328056272
 10
57.60992023299335
 20
-80.81160479750544
 10
57.51586912624604
 20
-80.70601262088253
 10
57.42164576472445
 20
-80.60024818948536
 10
57.37444795657653
 20
-80.46433917259225
 10
57.38271618574113
 20
-80.323090257697
 10
57.38271618574113
 20
-80.323090257697
 10
57.73480494433366
 20
-80.3437608306085
 10
57.73480494433366
 20
-80.3437608306085
 10
57.73204886794547
 20
-80.39078638398217
 10
57.74789630717761
 20
-80.4360893896132
 10
57.77924667609339
 20
-80.47122936356276
 10
57.81076929978342
 20
-80.50654159228657
 10
57.85400524812331
 20
-80.52755667474659
 10
57.90120305627123
 20
-80.53031275113479
 10
57.99645994643839
 20
-80.53375784662003
 10
58.07604165214766
 20
-80.46709524898046
 10
58.08654919337767
 20
-80.3740776708787
 10
58.08654919337767
 20
-80.3740776708787
 10
58.08723821247472
 20
-80.37424992565298
 10
58.08723821247472
 20
-80.37424992565298
 10
58.12220593165001
 20
-80.09984807025282
 10
58.36784123974832
 20
-79.8955539079775
 10
58.64155407605142
 20
-79.9134684045008
 10
58.93300915410356
 20
-79.92966035328148
 10
59.1569403606448
 20
-80.17994654028487
 10
59.14092066663839
 20
-80.47140161833701
 10
59.14092066663839
 20
-80.47140161833701
 10
58.78883190804585
 20
-80.45210908361962
 10
58.78883190804585
 20
-80.45210908361962
 10
58.79417180604798
 20
-80.35478513616131
 10
58.71924097924381
 20
-80.27106931586974
 10
58.62208928655976
 20
-80.26555716309333
 10
58.52976072755506
 20
-80.26038951986546
 10
58.44690618113481
 20
-80.32929142957046
 10
58.43674314945331
 20
-80.42213675289794
 10
58.43674314945331
 20
-80.42213675289794
 10
58.43622638513053
 20
-80.42213675289794
 10
58.43622638513053
 20
-80.42213675289794
 10
58.40211993982656
 20
-80.68654783139087
 10
58.17629393076843
 20
-80.88326278359864
 10
57.91171059750124
 20
-80.88326278359864
 97
        0
 97
        0
 75
     2
 76
     1
 98
        0
  0
POLYLINE
  5
BD
330
1F
100
AcDbEntity
  8
text
370
     0
100
AcDb2dPolyline
 66
     1
 10
0.0
 20
0.0
 30
0.0
  0
VERTEX
  5
BE
330
BD
100
AcDbEntity
  8
text
370
     0
100
AcDbVertex
100
AcDb2dVertex
 10
60.15085040813938
 20
-81.52370603430657
 30
0.0
  0
VERTEX
  5
BF
330
BD
100
AcDbEntity
  8
text
370
     0
100
AcDbVertex
100
AcDb2dVertex
 10
59.49008109406846
 20
-80.86758759914075
 30
0.0
  0
VERTEX
  5
C0
330
BD
100
AcDbEntity
  8
text
370
     0
100
AcDbVertex
100
AcDb2dVertex
 10
59.48646374380894
 20
-79.93655054425197
 30
0.0
  0
VERTEX
  5
C1
330
BD
100
AcDbEntity
  8
text
370
     0
100
AcDbVertex
100
AcDb2dVertex
 10
60.14258217897478
 20
-79.27578123018105
 30
0.0
  0
VERTEX
  5
C2
330
BD
100
AcDbEntity
  8
text
370
     0
100
AcDbVertex
100
AcDb2dVertex
 10
61.07361923386354
 20
-79.27216387992155
 30
0.0
  0
VERTEX
  5
C3
330
BD
100
AcDbEntity
  8
text
370
     0
100
AcDbVertex
100
AcDb2dVertex
 10
61.68253986088145
 20
-79.87677813758289
 30
0.0
  0
VERTEX
  5
C4
330
BD
100
AcDbEntity
  8
text
370
     0
100
AcDbVertex
100
AcDb2dVertex
 10
61.43414847639494
 20
-80.12723657936056
 30
0.0
  0
VERTEX
  5
C5
330
BD
100
AcDbEntity
  8
text
370
     0
100
AcDbVertex
100
AcDb2dVertex
 10
60.92892522348305
 20
-79.62563067670818
 30
0.0
  0
VERTEX
  5
C6
330
BD
100
AcDbEntity
  8
text
370
     0
100
AcDbVertex
100
AcDb2dVertex
 10
60.29003226574347
 20
-79.6278699887736
 30
0.0
  0
VERTEX
  5
C7
330
BD
100
AcDbEntity
  8
text
370
     0
100
AcDbVertex
100
AcDb2dVertex
 10
59.83993054059557
 20
-80.08124455463248
 30
0.0
  0
VERTEX
  5
C8
330
BD
100
AcDbEntity
  8
text
370
     0
100
AcDbVertex
100
AcDb2dVertex
 10
59.84216985266099
 20
-80.72013751237205
 30
0.0
  0
VERTEX
  5
C9
330
BD
100
AcDbEntity
  8
text
370
     0
100
AcDbVertex
100
AcDb2dVertex
 10
60.29554441851987
 20
-81.17023923751995
 30
0.0
  0
VERTEX
  5
CA
330
BD
100
AcDbEntity
  8
text
370
     0
100
AcDbVertex
100
AcDb2dVertex
 10
60.93460963103371
 20
-81.16799992545454
 30
0.0
  0
VERTEX
  5
CB
330
BD
100
AcDbEntity
  8
text
370
     0
100
AcDbVertex
100
AcDb2dVertex
 10
61.43604327891182
 20
-80.66277667254265
 30
0.0
  0
VERTEX
  5
CC
330
BD
100
AcDbEntity
  8
text
370
     0
100
AcDbVertex
100
AcDb2dVertex
 10
61.68650172068949
 20
-80.91116805702916
 30
0.0
  0
VERTEX
  5
CD
330
BD
100
AcDbEntity
  8
text
370
     0
100
AcDbVertex
100
AcDb2dVertex
 10
61.0820597178024
 20
-81.52008868404707
 30
0.0
  0
VERTEX
  5
CE
330
BD
100
AcDbEntity
  8
text
370
     0
100
AcDbVertex
100
AcDb2dVertex
 10
60.15085040813938
 20
-81.52370603430657
 30
0.0
  0
SEQEND
  5
D0
330
BD
100
AcDbEntity
  8
text
370
     0
  0
HATCH
  5
CF
330
1F
100
AcDbEntity
  8
text
 62
   250
420
  1842203
100
AcDbHatch
 10
0.0
 20
0.0
 30
0.0
210
0.0
220
0.0
230
1.0
  2
SOLID
 70
     1
 71
     0
 91
        1
 92
        1
 93
       16
 72
     1
 10
60.15085040813938
 20
-81.52370603430657
 11
59.49008109406846
 21
-80.86758759914075
 72
     1
 10
59.49008109406846
 20
-80.86758759914075
 11
59.48646374380894
 21
-79.93655054425197
 72
     1
 10
59.48646374380894
 20
-79.93655054425197
 11
60.14258217897478
 21
-79.27578123018105
 72
     1
 10
60.14258217897478
 20
-79.27578123018105
 11
61.07361923386354
 21
-79.27216387992155
 72
     1
 10
61.07361923386354
 20
-79.27216387992155
 11
61.68253986088145
 21
-79.87677813758289
 72
     1
 10
61.68253986088145
 20
-79.87677813758289
 11
61.43414847639494
 21
-80.12723657936056
 72
     1
 10
61.43414847639494
 20
-80.12723657936056
 11
60.92892522348305
 21
-79.62563067670818
 72
     1
 10
60.92892522348305
 20
-79.62563067670818
 11
60.29003226574347
 21
-79.6278699887736
 72
     1
 10
60.29003226574347
 20
-79.6278699887736
 11
59.83993054059557
 21
-80.08124455463248
 72
     1
 10
59.83993054059557
 20
-80.08124455463248
 11
59.84216985266099
 21
-80.72013751237205
 72
     1
 10
59.84216985266099
 20
-80.72013751237205
 11
60.29554441851987
 21
-81.17023923751995
 72
     1
 10
60.29554441851987
 20
-81.17023923751995
 11
60.93460963103371
 21
-81.16799992545454
 72
     1
 10
60.93460963103371
 20
-81.16799992545454
 11
61.43604327891182
 21
-80.66277667254265
 72
     1
 10
61.43604327891182
 20
-80.66277667254265
 11
61.68650172068949
 21
-80.91116805702916
 72
     1
 10
61.68650172068949
 20
-80.91116805702916
 11
61.0820597178024
 21
-81.52008868404707
 72
     1
 10
61.0820597178024
 20
-81.52008868404707
 11
60.15085040813938
 21
-81.52370603430657
 97
        0
 75
     2
 76
     1
 98
        0
  0
POLYLINE
  5
D1
330
1F
100
AcDbEntity
  8
text
370
     0
100
AcDb2dPolyline
 66
     1
 10
0.0
 20
0.0
 30
0.0
  0
VERTEX
  5
D2
330
D1
100
AcDbEntity
  8
text
370
     0
100
AcDbVertex
100
AcDb2dVertex
 10
60.61232094838859
 20
-80.57440997334598
 30
0.0
  0
VERTEX
  5
D3
330
D1
100
AcDbEntity
  8
text
370
     0
100
AcDbVertex
100
AcDb2dVertex
 10
59.66474743517062
 20
-80.57440997334598
 30
0.0
  0
VERTEX
  5
D4
330
D1
100
AcDbEntity
  8
text
370
     0
100
AcDbVertex
100
AcDb2dVertex
 10
59.66474743517062
 20
-80.2216321956564
 30
0.0
  0
VERTEX
  5
D5
330
D1
100
AcDbEntity
  8
text
370
     0
100
AcDbVertex
100
AcDb2dVertex
 10
60.61232094838859
 20
-80.2216321956564
 30
0.0
  0
VERTEX
  5
D6
330
D1
100
AcDbEntity
  8
text
370
     0
100
AcDbVertex
100
AcDb2dVertex
 10
60.61232094838859
 20
-80.57440997334598
 30
0.0
  0
SEQEND
  5
D8
330
D1
100
AcDbEntity
  8
text
370
     0
  0
HATCH
  5
D7
330
1F
100
AcDbEntity
  8
text
 62
   250
420
  1842203
100
AcDbHatch
 10
0.0
 20
0.0
 30
0.0
210
0.0
220
0.0
230
1.0
  2
SOLID
 70
     1
 71
     0
 91
        1
 92
        1
 93
        4
 72
     1
 10
60.61232094838859
 20
-80.57440997334598
 11
59.66474743517062
 21
-80.57440997334598
 72
     1
 10
59.66474743517062
 20
-80.57440997334598
 11
59.66474743517062
 21
-80.2216321956564
 72
     1
 10
59.66474743517062
 20
-80.2216321956564
 11
60.61232094838859
 21
-80.2216321956564
 72
     1
 10
60.61232094838859
 20
-80.2216321956564
 11
60.61232094838859
 21
-80.57440997334598
 97
        0
 75
     2
 76
     1
 98
        0
  0
POLYLINE
  5
D9
330
1F
100
AcDbEntity
  8
text
370
     0
100
AcDb2dPolyline
 66
     1
 10
0.0
 20
0.0
 30
0.0
  0
VERTEX
  5
DA
330
D9
100
AcDbEntity
  8
text
370
     0
100
AcDbVertex
100
AcDb2dVertex
 10
63.21956921162567
 20
-81.61741263150537
 30
0.0
  0
VERTEX
  5
DB
330
D9
100
AcDbEntity
  8
text
370
     0
100
AcDbVertex
100
AcDb2dVertex
 10
62.39653590019948
 20
-79.75654430514767
 30
0.0
  0
VERTEX
  5
DC
330
D9
100
AcDbEntity
  8
text
370
     0
100
AcDbVertex
100
AcDb2dVertex
 10
62.07700329394256
 20
-80.07831622347001
 30
0.0
  0
VERTEX
  5
DD
330
D9
100
AcDbEntity
  8
text
370
     0
100
AcDbVertex
100
AcDb2dVertex
 10
62.07924260600797
 20
-80.7172091812096
 30
0.0
  0
VERTEX
  5
DE
330
D9
100
AcDbEntity
  8
text
370
     0
100
AcDbVertex
100
AcDb2dVertex
 10
62.58446585891986
 20
-81.21881508386197
 30
0.0
  0
VERTEX
  5
DF
330
D9
100
AcDbEntity
  8
text
370
     0
100
AcDbVertex
100
AcDb2dVertex
 10
62.33607447443335
 20
-81.46927352563964
 30
0.0
  0
VERTEX
  5
E0
330
D9
100
AcDbEntity
  8
text
370
     0
100
AcDbVertex
100
AcDb2dVertex
 10
61.72715384741544
 20
-80.86465926797828
 30
0.0
  0
VERTEX
  5
E1
330
D9
100
AcDbEntity
  8
text
370
     0
100
AcDbVertex
100
AcDb2dVertex
 10
61.72353649715593
 20
-79.93362221308952
 30
0.0
  0
VERTEX
  5
E2
330
D9
100
AcDbEntity
  8
text
370
     0
100
AcDbVertex
100
AcDb2dVertex
 10
62.51022405121272
 20
-79.14125025148205
 30
0.0
  0
VERTEX
  5
E3
330
D9
100
AcDbEntity
  8
text
370
     0
100
AcDbVertex
100
AcDb2dVertex
 10
63.33325736263891
 20
-81.00211857783975
 30
0.0
  0
VERTEX
  5
E4
330
D9
100
AcDbEntity
  8
text
370
     0
100
AcDbVertex
100
AcDb2dVertex
 10
63.62161185475432
 20
-80.71152477365892
 30
0.0
  0
VERTEX
  5
E5
330
D9
100
AcDbEntity
  8
text
370
     0
100
AcDbVertex
100
AcDb2dVertex
 10
63.61937254268891
 20
-80.07263181591935
 30
0.0
  0
VERTEX
  5
E6
330
D9
100
AcDbEntity
  8
text
370
     0
100
AcDbVertex
100
AcDb2dVertex
 10
63.11414928977702
 20
-79.57119816804124
 30
0.0
  0
VERTEX
  5
E7
330
D9
100
AcDbEntity
  8
text
370
     0
100
AcDbVertex
100
AcDb2dVertex
 10
63.36254067426353
 20
-79.32073972626357
 30
0.0
  0
VERTEX
  5
E8
330
D9
100
AcDbEntity
  8
text
370
     0
100
AcDbVertex
100
AcDb2dVertex
 10
63.97146130128144
 20
-79.92518172915065
 30
0.0
  0
VERTEX
  5
E9
330
D9
100
AcDbEntity
  8
text
370
     0
100
AcDbVertex
100
AcDb2dVertex
 10
63.97507865154095
 20
-80.85621878403943
 30
0.0
  0
VERTEX
  5
EA
330
D9
100
AcDbEntity
  8
text
370
     0
100
AcDbVertex
100
AcDb2dVertex
 10
63.21956921162567
 20
-81.61741263150537
 30
0.0
  0
SEQEND
  5
EC
330
D9
100
AcDbEntity
  8
text
370
     0
  0
HATCH
  5
EB
330
1F
100
AcDbEntity
  8
text
 62
   250
420
  1842203
100
AcDbHatch
 10
0.0
 20
0.0
 30
0.0
210
0.0
220
0.0
230
1.0
  2
SOLID
 70
     1
 71
     0
 91
        1
 92
        1
 93
       16
 72
     1
 10
63.21956921162567
 20
-81.61741263150537
 11
62.39653590019948
 21
-79.75654430514767
 72
     1
 10
62.39653590019948
 20
-79.75654430514767
 11
62.07700329394256
 21
-80.07831622347001
 72
     1
 10
62.07700329394256
 20
-80.07831622347001
 11
62.07924260600797
 21
-80.7172091812096
 72
     1
 10
62.07924260600797
 20
-80.7172091812096
 11
62.58446585891986
 21
-81.21881508386197
 72
     1
 10
62.58446585891986
 20
-81.21881508386197
 11
62.33607447443335
 21
-81.46927352563964
 72
     1
 10
62.33607447443335
 20
-81.46927352563964
 11
61.72715384741544
 21
-80.86465926797828
 72
     1
 10
61.72715384741544
 20
-80.86465926797828
 11
61.72353649715593
 21
-79.93362221308952
 72
     1
 10
61.72353649715593
 20
-79.93362221308952
 11
62.51022405121272
 21
-79.14125025148205
 72
     1
 10
62.51022405121272
 20
-79.14125025148205
 11
63.33325736263891
 21
-81.00211857783975
 72
     1
 10
63.33325736263891
 20
-81.00211857783975
 11
63.62161185475432
 21
-80.71152477365892
 72
     1
 10
63.62161185475432
 20
-80.71152477365892
 11
63.61937254268891
 21
-80.07263181591935
 72
     1
 10
63.61937254268891
 20
-80.07263181591935
 11
63.11414928977702
 21
-79.57119816804124
 72
     1
 10
63.11414928977702
 20
-79.57119816804124
 11
63.36254067426353
 21
-79.32073972626357
 72
     1
 10
63.36254067426353
 20
-79.32073972626357
 11
63.97146130128144
 21
-79.92518172915065
 72
     1
 10
63.97146130128144
 20
-79.92518172915065
 11
63.97507865154095
 21
-80.85621878403943
 72
     1
 10
63.97507865154095
 20
-80.85621878403943
 11
63.21956921162567
 21
-81.61741263150537
 97
        0
 75
     2
 76
     1
 98
        0
  0
POLYLINE
  5
ED
330
1F
100
AcDbEntity
  8
text
 62
   250
420
  1842203
370
    35
100
AcDb2dPolyline
 66
     1
 10
0.0
 20
0.0
 30
0.0
  0
VERTEX
  5
EE
330
ED
100
AcDbEntity
  8
text
 62
   250
420
  1842203
370
    35
100
AcDbVertex
100
AcDb2dVertex
 10
65.77742582187805
 20
-81.57023025738532
 30
0.0
  0
VERTEX
  5
116
330
ED
100
AcDbEntity
  8
0
100
AcDbVertex
100
AcDb2dVertex
 10
65.77742582187805
 20
-81.57023025738532
 30
0.0
  0
SEQEND
  5
EF
330
ED
100
AcDbEntity
  8
text
 62
   250
420
  1842203
370
    35
  0
POLYLINE
  5
F0
330
1F
100
AcDbEntity
  8
text
370
     0
100
AcDb2dPolyline
 66
     1
 10
0.0
 20
0.0
 30
0.0
  0
VERTEX
  5
F1
330
F0
100
AcDbEntity
  8
text
370
     0
100
AcDbVertex
100
AcDb2dVertex
 10
64.70750595170507
 20
-81.51922741017576
 30
0.0
  0
VERTEX
  5
F2
330
F0
100
AcDbEntity
  8
text
370
     0
100
AcDbVertex
100
AcDb2dVertex
 10
64.0984130699129
 20
-80.91478540728866
 30
0.0
  0
VERTEX
  5
F3
330
F0
100
AcDbEntity
  8
text
370
     0
100
AcDbVertex
100
AcDb2dVertex
 10
64.34680445439942
 20
-80.66432696551101
 30
0.0
  0
VERTEX
  5
F4
330
F0
100
AcDbEntity
  8
text
370
     0
100
AcDbVertex
100
AcDb2dVertex
 10
64.85219996208556
 20
-81.16576061338912
 30
0.0
  0
VERTEX
  5
F5
330
F0
100
AcDbEntity
  8
text
370
     0
100
AcDbVertex
100
AcDb2dVertex
 10
65.49109291982515
 20
-81.16352130132371
 30
0.0
  0
VERTEX
  5
F6
330
F0
100
AcDbEntity
  8
text
370
     0
100
AcDbVertex
100
AcDb2dVertex
 10
65.99252656770327
 20
-80.65829804841182
 30
0.0
  0
VERTEX
  5
F7
330
F0
100
AcDbEntity
  8
text
370
     0
100
AcDbVertex
100
AcDb2dVertex
 10
66.24298500948092
 20
-80.90668943289833
 30
0.0
  0
VERTEX
  5
F8
330
F0
100
AcDbEntity
  8
text
370
     0
100
AcDbVertex
100
AcDb2dVertex
 10
65.63854300659384
 20
-81.51561005991624
 30
0.0
  0
VERTEX
  5
F9
330
F0
100
AcDbEntity
  8
text
370
     0
100
AcDbVertex
100
AcDb2dVertex
 10
64.70750595170507
 20
-81.51922741017576
 30
0.0
  0
SEQEND
  5
FB
330
F0
100
AcDbEntity
  8
text
370
     0
  0
HATCH
  5
FA
330
1F
100
AcDbEntity
  8
text
 62
   250
420
  1842203
100
AcDbHatch
 10
0.0
 20
0.0
 30
0.0
210
0.0
220
0.0
230
1.0
  2
SOLID
 70
     1
 71
     0
 91
        1
 92
        1
 93
        8
 72
     1
 10
64.70750595170507
 20
-81.51922741017576
 11
64.0984130699129
 21
-80.91478540728866
 72
     1
 10
64.0984130699129
 20
-80.91478540728866
 11
64.34680445439942
 21
-80.66432696551101
 72
     1
 10
64.34680445439942
 20
-80.66432696551101
 11
64.85219996208556
 21
-81.16576061338912
 72
     1
 10
64.85219996208556
 20
-81.16576061338912
 11
65.49109291982515
 21
-81.16352130132371
 72
     1
 10
65.49109291982515
 20
-81.16352130132371
 11
65.99252656770327
 21
-80.65829804841182
 72
     1
 10
65.99252656770327
 20
-80.65829804841182
 11
66.24298500948092
 21
-80.90668943289833
 72
     1
 10
66.24298500948092
 20
-80.90668943289833
 11
65.63854300659384
 21
-81.51561005991624
 72
     1
 10
65.63854300659384
 20
-81.51561005991624
 11
64.70750595170507
 21
-81.51922741017576
 97
        0
 75
     2
 76
     1
 98
        0
  0
POLYLINE
  5
FC
330
1F
100
AcDbEntity
  8
text
370
     0
100
AcDb2dPolyline
 66
     1
 10
0.0
 20
0.0
 30
0.0
  0
VERTEX
  5
FD
330
FC
100
AcDbEntity
  8
text
370
     0
100
AcDbVertex
100
AcDb2dVertex
 10
64.34490965188253
 20
-80.12878687232892
 30
0.0
  0
VERTEX
  5
FE
330
FC
100
AcDbEntity
  8
text
370
     0
100
AcDbVertex
100
AcDb2dVertex
 10
64.09445121010486
 20
-79.8803954878424
 30
0.0
  0
VERTEX
  5
FF
330
FC
100
AcDbEntity
  8
text
370
     0
100
AcDbVertex
100
AcDb2dVertex
 10
64.6990654677662
 20
-79.27130260605023
 30
0.0
  0
VERTEX
  5
100
330
FC
100
AcDbEntity
  8
text
370
     0
100
AcDbVertex
100
AcDb2dVertex
 10
65.63010252265498
 20
-79.26768525579072
 30
0.0
  0
VERTEX
  5
101
330
FC
100
AcDbEntity
  8
text
370
     0
100
AcDbVertex
100
AcDb2dVertex
 10
66.23902314967289
 20
-79.87229951345206
 30
0.0
  0
VERTEX
  5
102
330
FC
100
AcDbEntity
  8
text
370
     0
100
AcDbVertex
100
AcDb2dVertex
 10
65.99063176518638
 20
-80.12275795522973
 30
0.0
  0
VERTEX
  5
103
330
FC
100
AcDbEntity
  8
text
370
     0
100
AcDbVertex
100
AcDb2dVertex
 10
65.48540851227449
 20
-79.62115205257736
 30
0.0
  0
VERTEX
  5
104
330
FC
100
AcDbEntity
  8
text
370
     0
100
AcDbVertex
100
AcDb2dVertex
 10
64.8465155545349
 20
-79.62339136464277
 30
0.0
  0
VERTEX
  5
105
330
FC
100
AcDbEntity
  8
text
370
     0
100
AcDbVertex
100
AcDb2dVertex
 10
64.34490965188253
 20
-80.12878687232892
 30
0.0
  0
SEQEND
  5
107
330
FC
100
AcDbEntity
  8
text
370
     0
  0
HATCH
  5
106
330
1F
100
AcDbEntity
  8
text
 62
   250
420
  1842203
100
AcDbHatch
 10
0.0
 20
0.0
 30
0.0
210
0.0
220
0.0
230
1.0
  2
SOLID
 70
     1
 71
     0
 91
        1
 92
        1
 93
        8
 72
     1
 10
64.34490965188253
 20
-80.12878687232892
 11
64.09445121010486
 21
-79.8803954878424
 72
     1
 10
64.09445121010486
 20
-79.8803954878424
 11
64.6990654677662
 21
-79.27130260605023
 72
     1
 10
64.6990654677662
 20
-79.27130260605023
 11
65.63010252265498
 21
-79.26768525579072
 72
     1
 10
65.63010252265498
 20
-79.26768525579072
 11
66.23902314967289
 21
-79.87229951345206
 72
     1
 10
66.23902314967289
 20
-79.87229951345206
 11
65.99063176518638
 21
-80.12275795522973
 72
     1
 10
65.99063176518638
 20
-80.12275795522973
 11
65.48540851227449
 21
-79.62115205257736
 72
     1
 10
65.48540851227449
 20
-79.62115205257736
 11
64.8465155545349
 21
-79.62339136464277
 72
     1
 10
64.8465155545349
 20
-79.62339136464277
 11
64.34490965188253
 21
-80.12878687232892
 97
        0
 75
     2
 76
     1
 98
        0
  0
SPLINE
  5
108
330
1F
100
AcDbEntity
  8
text
370
     0
100
AcDbSpline
210
0.0
220
0.0
230
1.0
 70
    11
 71
     3
 72
    47
 73
    43
 74
     0
 42
0.0000000001
 43
0.0000000001
 12
1.0
 22
0.0
 32
0.0
 13
1.0
 23
0.0
 33
0.0
 40
0.0
 40
0.0
 40
0.0
 40
0.0
 40
1.0
 40
1.0
 40
1.0
 40
2.0
 40
2.0
 40
2.0
 40
3.0
 40
3.0
 40
3.0
 40
4.0
 40
4.0
 40
4.0
 40
5.0
 40
5.0
 40
5.0
 40
6.0
 40
6.0
 40
6.0
 40
7.0
 40
7.0
 40
7.0
 40
8.0
 40
8.0
 40
8.0
 40
9.0
 40
9.0
 40
9.0
 40
10.0
 40
10.0
 40
10.0
 40
11.0
 40
11.0
 40
11.0
 40
12.0
 40
12.0
 40
12.0
 40
13.0
 40
13.0
 40
13.0
 40
14.0
 40
14.0
 40
14.0
 40
14.0
 10
64.81723224291028
 20
-80.90238306354176
 30
0.0
 10
64.8070692112288
 20
-80.90238306354176
 30
0.0
 10
64.79673392477304
 20
-80.9022108087675
 30
0.0
 10
64.7863986383173
 20
-80.90152178967045
 30
0.0
 10
64.49494356026516
 20
-80.88464082179273
 30
0.0
 10
64.27135686327244
 20
-80.63366561569228
 30
0.0
 10
64.28823783115017
 20
-80.34238279241441
 30
0.0
 10
64.28823783115017
 20
-80.34238279241441
 30
0.0
 10
64.6403265897427
 20
-80.36270885577738
 30
0.0
 10
64.6403265897427
 20
-80.36270885577738
 30
0.0
 10
64.6348144369663
 20
-80.46003280323569
 30
0.0
 10
64.70940075422196
 20
-80.54374862352726
 30
0.0
 10
64.80689695645452
 20
-80.54943303107792
 30
0.0
 10
64.9057711968812
 20
-80.55511743862859
 30
0.0
 10
64.98190780710522
 20
-80.48604327414932
 30
0.0
 10
64.9925876031095
 20
-80.39302569604759
 30
0.0
 10
64.9925876031095
 20
-80.39302569604759
 30
0.0
 10
64.99293211265802
 20
-80.39319795082184
 30
0.0
 10
64.99293211265802
 20
-80.39319795082184
 30
0.0
 10
65.02824434138184
 20
-80.1187960954217
 30
0.0
 10
65.27026229922063
 20
-79.91484644269491
 30
0.0
 10
65.54724797623471
 20
-79.93258868444394
 30
0.0
 10
65.68866914590423
 20
-79.94034014928575
 30
0.0
 10
65.81837699092388
 20
-80.00286863234304
 30
0.0
 10
65.91260035244547
 20
-80.10828855419169
 30
0.0
 10
66.00682371396705
 20
-80.21370847604032
 30
0.0
 10
66.05436603166349
 20
-80.34944523815918
 30
0.0
 10
66.04644231204742
 20
-80.49069415305442
 30
0.0
 10
66.04644231204742
 20
-80.49069415305442
 30
0.0
 10
65.69435355345489
 20
-80.47105710878849
 30
0.0
 10
65.69435355345489
 20
-80.47105710878849
 30
0.0
 10
65.69969345145702
 20
-80.37373316133018
 30
0.0
 10
65.6249348794271
 20
-80.29018959581288
 30
0.0
 10
65.52778318674305
 20
-80.28467744303647
 30
0.0
 10
65.43631590160967
 20
-80.27985430935712
 30
0.0
 10
65.3526000813181
 20
-80.3484117095136
 30
0.0
 10
65.34243704963662
 20
-80.44125703284108
 30
0.0
 10
65.34243704963662
 20
-80.44125703284108
 30
0.0
 10
65.34209254008809
 20
-80.44125703284108
 30
0.0
 10
65.34209254008809
 20
-80.44125703284108
 30
0.0
 10
65.30764158523559
 20
-80.705668111334
 30
0.0
 10
65.0816433214032
 20
-80.90238306354176
 30
0.0
 10
64.81723224291028
 20
-80.90238306354176
 30
0.0
  0
HATCH
  5
109
330
1F
100
AcDbEntity
  8
text
 62
   250
420
  1842203
100
AcDbHatch
 10
0.0
 20
0.0
 30
0.0
210
0.0
220
0.0
230
1.0
  2
SOLID
 70
     1
 71
     0
 91
        1
 92
        1
 93
        1
 72
     4
 94
        3
 73
     0
 74
     1
 95
       47
 96
       43
 40
0.0
 40
0.0
 40
0.0
 40
0.0
 40
1.0
 40
1.0
 40
1.0
 40
2.0
 40
2.0
 40
2.0
 40
3.0
 40
3.0
 40
3.0
 40
4.0
 40
4.0
 40
4.0
 40
5.0
 40
5.0
 40
5.0
 40
6.0
 40
6.0
 40
6.0
 40
7.0
 40
7.0
 40
7.0
 40
8.0
 40
8.0
 40
8.0
 40
9.0
 40
9.0
 40
9.0
 40
10.0
 40
10.0
 40
10.0
 40
11.0
 40
11.0
 40
11.0
 40
12.0
 40
12.0
 40
12.0
 40
13.0
 40
13.0
 40
13.0
 40
14.0
 40
14.0
 40
14.0
 40
14.0
 10
64.81723224291028
 20
-80.90238306354176
 10
64.8070692112288
 20
-80.90238306354176
 10
64.79673392477304
 20
-80.9022108087675
 10
64.7863986383173
 20
-80.90152178967045
 10
64.49494356026516
 20
-80.88464082179273
 10
64.27135686327244
 20
-80.63366561569228
 10
64.28823783115017
 20
-80.34238279241441
 10
64.28823783115017
 20
-80.34238279241441
 10
64.6403265897427
 20
-80.36270885577738
 10
64.6403265897427
 20
-80.36270885577738
 10
64.6348144369663
 20
-80.46003280323569
 10
64.70940075422196
 20
-80.54374862352726
 10
64.80689695645452
 20
-80.54943303107792
 10
64.9057711968812
 20
-80.55511743862859
 10
64.98190780710522
 20
-80.48604327414932
 10
64.9925876031095
 20
-80.39302569604759
 10
64.9925876031095
 20
-80.39302569604759
 10
64.99293211265802
 20
-80.39319795082184
 10
64.99293211265802
 20
-80.39319795082184
 10
65.02824434138184
 20
-80.1187960954217
 10
65.27026229922063
 20
-79.91484644269491
 10
65.54724797623471
 20
-79.93258868444394
 10
65.68866914590423
 20
-79.94034014928575
 10
65.81837699092388
 20
-80.00286863234304
 10
65.91260035244547
 20
-80.10828855419169
 10
66.00682371396705
 20
-80.21370847604032
 10
66.05436603166349
 20
-80.34944523815918
 10
66.04644231204742
 20
-80.49069415305442
 10
66.04644231204742
 20
-80.49069415305442
 10
65.69435355345489
 20
-80.47105710878849
 10
65.69435355345489
 20
-80.47105710878849
 10
65.69969345145702
 20
-80.37373316133018
 10
65.6249348794271
 20
-80.29018959581288
 10
65.52778318674305
 20
-80.28467744303647
 10
65.43631590160967
 20
-80.27985430935712
 10
65.3526000813181
 20
-80.3484117095136
 10
65.34243704963662
 20
-80.44125703284108
 10
65.34243704963662
 20
-80.44125703284108
 10
65.34209254008809
 20
-80.44125703284108
 10
65.34209254008809
 20
-80.44125703284108
 10
65.30764158523559
 20
-80.705668111334
 10
65.0816433214032
 20
-80.90238306354176
 10
64.81723224291028
 20
-80.90238306354176
 97
        0
 97
        0
 75
     2
 76
     1
 98
        0
  0
INSERT
  5
10B
330
1F
100
AcDbEntity
  8
text
100
AcDbBlockReference
  2
block 2
 10
0.0
 20
0.0
 30
0.0
  0
ENDSEC
  0
SECTION
  2
OBJECTS
  0
DICTIONARY
  5
C
330
0
100
AcDbDictionary
281
     1
  3
ACAD_GROUP
350
D
  3
ACAD_LAYOUT
350
1A
  3
ACAD_MATERIAL
350
3B
  3
ACAD_MLEADERSTYLE
350
118
  3
ACAD_MLINESTYLE
350
17
  3
ACAD_PLOTSETTINGS
350
19
  3
ACAD_PLOTSTYLENAME
350
E
  3
ACAD_TABLESTYLE
350
117
  3
ACAD_VISUALSTYLE
350
2A
  0
SUN
  5
3F
330
29
100
AcDbSun
 90
        1
290
     0
 63
     7
421
 16777215
 40
1.0
291
     1
 91
  2455826
 92
 54000000
292
     0
 70
     2
 71
   256
280
     1
  0
DICTIONARY
  5
D
102
{ACAD_REACTORS
330
C
102
}
330
C
100
AcDbDictionary
281
     1
  0
DICTIONARY
  5
1A
102
{ACAD_REACTORS
330
C
102
}
330
C
100
AcDbDictionary
281
     1
  3
Layout1
350
1E
  3
Layout2
350
26
  3
Model
350
22
  0
DICTIONARY
  5
3B
102
{ACAD_REACTORS
330
C
102
}
330
C
100
AcDbDictionary
281
     1
  3
ByBlock
350
3D
  3
ByLayer
350
3C
  3
Global
350
3E
  0
DICTIONARY
  5
118
102
{ACAD_REACTORS
330
C
102
}
330
C
100
AcDbDictionary
281
     1
  0
DICTIONARY
  5
17
102
{ACAD_REACTORS
330
C
102
}
330
C
100
AcDbDictionary
281
     1
  3
Standard
350
18
  0
DICTIONARY
  5
19
102
{ACAD_REACTORS
330
C
102
}
330
C
100
AcDbDictionary
281
     1
  0
ACDBDICTIONARYWDFLT
  5
E
102
{ACAD_REACTORS
330
C
102
}
330
C
100
AcDbDictionary
281
     1
  3
Normal
350
F
100
AcDbDictionaryWithDefault
340
F
  0
DICTIONARY
  5
117
102
{ACAD_REACTORS
330
C
102
}
330
C
100
AcDbDictionary
281
     1
  0
DICTIONARY
  5
2A
102
{ACAD_REACTORS
330
C
102
}
330
C
100
AcDbDictionary
281
     1
  3
2dWireframe
350
2F
  3
3D Hidden
350
31
  3
3dWireframe
350
30
  3
Basic
350
32
  3
Brighten
350
36
  3
ColorChange
350
3A
  3
Conceptual
350
34
  3
Dim
350
35
  3
Facepattern
350
39
  3
Flat
350
2B
  3
FlatWithEdges
350
2C
  3
Gouraud
350
2D
  3
GouraudWithEdges
350
2E
  3
Linepattern
350
38
  3
Realistic
350
33
  3
Thicken
350
37
  0
LAYOUT
  5
1E
102
{ACAD_REACTORS
330
1A
102
}
330
1A
100
AcDbPlotSettings
  1

  2
none_device
  4

  6

 40
0.0
 41
0.0
 42
0.0
 43
0.0
 44
0.0
 45
0.0
 46
0.0
 47
0.0
 48
0.0
 49
0.0
140
0.0
141
0.0
142
1.0
143
1.0
 70
   688
 72
     0
 73
     0
 74
     5
  7

 75
    16
 76
     0
 77
     2
 78
   300
147
1.0
148
0.0
149
0.0
100
AcDbLayout
  1
Layout1
 70
     1
 71
     1
 10
0.0
 20
0.0
 11
12.0
 21
9.0
 12
0.0
 22
0.0
 32
0.0
 14
1.000000000000000E+20
 24
1.000000000000000E+20
 34
1.000000000000000E+20
 15
-1.000000000000000E+20
 25
-1.000000000000000E+20
 35
-1.000000000000000E+20
146
0.0
 13
0.0
 23
0.0
 33
0.0
 16
1.0
 26
0.0
 36
0.0
 17
0.0
 27
1.0
 37
0.0
 76
     0
330
1B
  0
LAYOUT
  5
26
102
{ACAD_REACTORS
330
1A
102
}
330
1A
100
AcDbPlotSettings
  1

  2
none_device
  4

  6

 40
0.0
 41
0.0
 42
0.0
 43
0.0
 44
0.0
 45
0.0
 46
0.0
 47
0.0
 48
0.0
 49
0.0
140
0.0
141
0.0
142
1.0
143
1.0
 70
   688
 72
     0
 73
     0
 74
     5
  7

 75
    16
 76
     0
 77
     2
 78
   300
147
1.0
148
0.0
149
0.0
100
AcDbLayout
  1
Layout2
 70
     1
 71
     2
 10
0.0
 20
0.0
 11
0.0
 21
0.0
 12
0.0
 22
0.0
 32
0.0
 14
0.0
 24
0.0
 34
0.0
 15
0.0
 25
0.0
 35
0.0
146
0.0
 13
0.0
 23
0.0
 33
0.0
 16
1.0
 26
0.0
 36
0.0
 17
0.0
 27
1.0
 37
0.0
 76
     0
330
23
  0
LAYOUT
  5
22
102
{ACAD_REACTORS
330
1A
102
}
330
1A
100
AcDbPlotSettings
  1

  2
none_device
  4

  6

 40
0.0
 41
0.0
 42
0.0
 43
0.0
 44
0.0
 45
0.0
 46
0.0
 47
0.0
 48
0.0
 49
0.0
140
0.0
141
0.0
142
1.0
143
1.0
 70
  1712
 72
     0
 73
     0
 74
     0
  7

 75
     0
 76
     0
 77
     2
 78
   300
147
1.0
148
0.0
149
0.0
100
AcDbLayout
  1
Model
 70
     1
 71
     0
 10
0.0
 20
0.0
 11
12.0
 21
9.0
 12
0.0
 22
0.0
 32
0.0
 14
1.000000000000000E+20
 24
1.000000000000000E+20
 34
1.000000000000000E+20
 15
-1.000000000000000E+20
 25
-1.000000000000000E+20
 35
-1.000000000000000E+20
146
0.0
 13
0.0
 23
0.0
 33
0.0
 16
1.0
 26
0.0
 36
0.0
 17
0.0
 27
1.0
 37
0.0
 76
     0
330
1F
331
29
  0
MATERIAL
  5
3D
102
{ACAD_REACTORS
330
3B
102
}
330
3B
100
AcDbMaterial
  1
ByBlock
 72
     1
 94
      127
  0
MATERIAL
  5
3C
102
{ACAD_REACTORS
330
3B
102
}
330
3B
100
AcDbMaterial
  1
ByLayer
 72
     1
 94
      127
  0
MATERIAL
  5
3E
102
{ACAD_REACTORS
330
3B
102
}
330
3B
100
AcDbMaterial
  1
Global
 72
     1
 94
      127
  0
MLINESTYLE
  5
18
102
{ACAD_REACTORS
330
17
102
}
330
17
100
AcDbMlineStyle
  2
Standard
 70
     0
  3

 62
   256
 51
90.0
 52
90.0
 71
     2
 49
0.5
 62
   256
  6
BYLAYER
 49
-0.5
 62
   256
  6
BYLAYER
  0
ACDBPLACEHOLDER
  5
F
102
{ACAD_REACTORS
330
E
102
}
330
E
  0
VISUALSTYLE
  5
2F
102
{ACAD_REACTORS
330
2A
102
}
330
2A
100
AcDbVisualStyle
  2
2dWireframe
 70
     4
177
     2
291
     0
 71
     0
176
     1
 72
     2
176
     1
 73
     0
176
     1
 90
        0
176
     1
 40
-0.6
176
     1
 41
-30.0
176
     1
 62
     5
 63
     7
421
 16777215
176
     1
 74
     1
176
     1
 91
        4
176
     1
 64
     7
176
     1
 65
   257
176
     1
 75
     1
176
     1
175
     1
176
     1
 42
1.0
176
     1
 92
        0
176
     1
 66
   257
176
     1
 43
1.0
176
     1
 76
     1
176
     1
 77
     6
176
     1
 78
     2
176
     1
 67
     7
176
     1
 79
     5
176
     1
170
     0
176
     1
171
     0
176
     1
290
     0
176
     1
 93
        1
176
     1
 44
0.0
176
     1
173
     0
176
     1
  0
VISUALSTYLE
  5
31
102
{ACAD_REACTORS
330
2A
102
}
330
2A
100
AcDbVisualStyle
  2
3D Hidden
 70
     6
177
     2
291
     0
 71
     1
176
     1
 72
     2
176
     1
 73
     2
176
     1
 90
        0
176
     1
 40
-0.6
176
     1
 41
-30.0
176
     1
 62
     5
 63
     7
421
 16777215
176
     1
 74
     2
176
     1
 91
        2
176
     1
 64
     7
176
     1
 65
   257
176
     1
 75
     2
176
     1
175
     1
176
     1
 42
40.0
176
     1
 92
        0
176
     1
 66
   257
176
     1
 43
1.0
176
     1
 76
     1
176
     1
 77
     6
176
     1
 78
     2
176
     1
 67
     7
176
     1
 79
     3
176
     1
170
     0
176
     1
171
     0
176
     1
290
     0
176
     1
 93
        1
176
     1
 44
0.0
176
     1
173
     0
176
     1
  0
VISUALSTYLE
  5
30
102
{ACAD_REACTORS
330
2A
102
}
330
2A
100
AcDbVisualStyle
  2
3dWireframe
 70
     5
177
     2
291
     0
 71
     0
176
     1
 72
     2
176
     1
 73
     0
176
     1
 90
        0
176
     1
 40
-0.6
176
     1
 41
-30.0
176
     1
 62
     5
 63
     7
421
 16777215
176
     1
 74
     1
176
     1
 91
        4
176
     1
 64
     7
176
     1
 65
   257
176
     1
 75
     1
176
     1
175
     1
176
     1
 42
1.0
176
     1
 92
        0
176
     1
 66
   257
176
     1
 43
1.0
176
     1
 76
     1
176
     1
 77
     6
176
     1
 78
     2
176
     1
 67
     7
176
     1
 79
     5
176
     1
170
     0
176
     1
171
     0
176
     1
290
     0
176
     1
 93
        1
176
     1
 44
0.0
176
     1
173
     0
176
     1
  0
VISUALSTYLE
  5
32
102
{ACAD_REACTORS
330
2A
102
}
330
2A
100
AcDbVisualStyle
  2
Basic
 70
     7
177
     2
291
     1
 71
     1
176
     1
 72
     0
176
     1
 73
     1
176
     1
 90
        0
176
     1
 40
-0.6
176
     1
 41
-30.0
176
     1
 62
     5
 63
     7
421
 16777215
176
     1
 74
     0
176
     1
 91
        4
176
     1
 64
     7
176
     1
 65
   257
176
     1
 75
     1
176
     1
175
     1
176
     1
 42
1.0
176
     1
 92
        8
176
     1
 66
     7
176
     1
 43
1.0
176
     1
 76
     1
176
     1
 77
     6
176
     1
 78
     2
176
     1
 67
     7
176
     1
 79
     5
176
     1
170
     0
176
     1
171
     0
176
     1
290
     0
176
     1
 93
        1
176
     1
 44
0.0
176
     1
173
     0
176
     1
  0
VISUALSTYLE
  5
36
102
{ACAD_REACTORS
330
2A
102
}
330
2A
100
AcDbVisualStyle
  2
Brighten
 70
    12
177
     2
291
     1
 71
     2
176
     1
 72
     2
176
     1
 73
     0
176
     1
 90
        0
176
     1
 40
-0.6
176
     1
 41
-30.0
176
     1
 62
     5
 63
     7
421
 16777215
176
     1
 74
     1
176
     1
 91
        4
176
     1
 64
     7
176
     1
 65
   257
176
     1
 75
     1
176
     1
175
     1
176
     1
 42
1.0
176
     1
 92
        8
176
     1
 66
     7
176
     1
 43
1.0
176
     1
 76
     1
176
     1
 77
     6
176
     1
 78
     2
176
     1
 67
     7
176
     1
 79
     5
176
     1
170
     0
176
     1
171
     0
176
     1
290
     0
176
     1
 93
        1
176
     1
 44
50.0
176
     1
173
     0
176
     1
  0
VISUALSTYLE
  5
3A
102
{ACAD_REACTORS
330
2A
102
}
330
2A
100
AcDbVisualStyle
  2
ColorChange
 70
    16
177
     2
291
     1
 71
     2
176
     1
 72
     2
176
     1
 73
     3
176
     1
 90
        0
176
     1
 40
-0.6
176
     1
 41
-30.0
176
     1
 62
     5
 63
     8
421
  8421504
176
     1
 74
     1
176
     1
 91
        4
176
     1
 64
     7
176
     1
 65
   257
176
     1
 75
     1
176
     1
175
     1
176
     1
 42
1.0
176
     1
 92
        8
176
     1
 66
     8
424
  8421504
176
     1
 43
1.0
176
     1
 76
     1
176
     1
 77
     6
176
     1
 78
     2
176
     1
 67
     7
176
     1
 79
     5
176
     1
170
     0
176
     1
171
     0
176
     1
290
     0
176
     1
 93
        1
176
     1
 44
0.0
176
     1
173
     0
176
     1
  0
VISUALSTYLE
  5
34
102
{ACAD_REACTORS
330
2A
102
}
330
2A
100
AcDbVisualStyle
  2
Conceptual
 70
     9
177
     2
291
     0
 71
     3
176
     1
 72
     2
176
     1
 73
     0
176
     1
 90
        0
176
     1
 40
-0.6
176
     1
 41
-30.0
176
     1
 62
     5
 63
     7
421
 16777215
176
     1
 74
     2
176
     1
 91
        2
176
     1
 64
     7
176
     1
 65
   257
176
     1
 75
     1
176
     1
175
     1
176
     1
 42
40.0
176
     1
 92
        8
176
     1
 66
     7
176
     1
 43
1.0
176
     1
 76
     1
176
     1
 77
     6
176
     1
 78
     2
176
     1
 67
     7
176
     1
 79
     3
176
     1
170
     0
176
     1
171
     0
176
     1
290
     0
176
     1
 93
        1
176
     1
 44
0.0
176
     1
173
     0
176
     1
  0
VISUALSTYLE
  5
35
102
{ACAD_REACTORS
330
2A
102
}
330
2A
100
AcDbVisualStyle
  2
Dim
 70
    11
177
     2
291
     1
 71
     2
176
     1
 72
     2
176
     1
 73
     0
176
     1
 90
        0
176
     1
 40
-0.6
176
     1
 41
-30.0
176
     1
 62
     5
 63
     7
421
 16777215
176
     1
 74
     1
176
     1
 91
        4
176
     1
 64
     7
176
     1
 65
   257
176
     1
 75
     1
176
     1
175
     1
176
     1
 42
1.0
176
     1
 92
        8
176
     1
 66
     7
176
     1
 43
1.0
176
     1
 76
     1
176
     1
 77
     6
176
     1
 78
     2
176
     1
 67
     7
176
     1
 79
     5
176
     1
170
     0
176
     1
171
     0
176
     1
290
     0
176
     1
 93
        1
176
     1
 44
-50.0
176
     1
173
     0
176
     1
  0
VISUALSTYLE
  5
39
102
{ACAD_REACTORS
330
2A
102
}
330
2A
100
AcDbVisualStyle
  2
Facepattern
 70
    15
177
     2
291
     1
 71
     2
176
     1
 72
     2
176
     1
 73
     0
176
     1
 90
        0
176
     1
 40
-0.6
176
     1
 41
-30.0
176
     1
 62
     5
 63
     7
421
 16777215
176
     1
 74
     1
176
     1
 91
        4
176
     1
 64
     7
176
     1
 65
   257
176
     1
 75
     1
176
     1
175
     1
176
     1
 42
1.0
176
     1
 92
        8
176
     1
 66
     7
176
     1
 43
1.0
176
     1
 76
     1
176
     1
 77
     6
176
     1
 78
     2
176
     1
 67
     7
176
     1
 79
     5
176
     1
170
     0
176
     1
171
     0
176
     1
290
     0
176
     1
 93
        1
176
     1
 44
0.0
176
     1
173
     0
176
     1
  0
VISUALSTYLE
  5
2B
102
{ACAD_REACTORS
330
2A
102
}
330
2A
100
AcDbVisualStyle
  2
Flat
 70
     0
177
     2
291
     1
 71
     2
176
     1
 72
     1
176
     1
 73
     1
176
     1
 90
        2
176
     1
 40
-0.6
176
     1
 41
30.0
176
     1
 62
     5
 63
     7
421
 16777215
176
     1
 74
     0
176
     1
 91
        4
176
     1
 64
     7
176
     1
 65
   257
176
     1
 75
     1
176
     1
175
     1
176
     1
 42
1.0
176
     1
 92
        8
176
     1
 66
     7
176
     1
 43
1.0
176
     1
 76
     1
176
     1
 77
     6
176
     1
 78
     2
176
     1
 67
     7
176
     1
 79
     5
176
     1
170
     0
176
     1
171
     0
176
     1
290
     0
176
     1
 93
       13
176
     1
 44
0.0
176
     1
173
     0
176
     1
  0
VISUALSTYLE
  5
2C
102
{ACAD_REACTORS
330
2A
102
}
330
2A
100
AcDbVisualStyle
  2
FlatWithEdges
 70
     1
177
     2
291
     1
 71
     2
176
     1
 72
     1
176
     1
 73
     1
176
     1
 90
        2
176
     1
 40
-0.6
176
     1
 41
30.0
176
     1
 62
     5
 63
     7
421
 16777215
176
     1
 74
     1
176
     1
 91
        4
176
     1
 64
     7
176
     1
 65
   257
176
     1
 75
     1
176
     1
175
     1
176
     1
 42
1.0
176
     1
 92
        0
176
     1
 66
   257
176
     1
 43
1.0
176
     1
 76
     1
176
     1
 77
     6
176
     1
 78
     2
176
     1
 67
     7
176
     1
 79
     5
176
     1
170
     0
176
     1
171
     0
176
     1
290
     0
176
     1
 93
       13
176
     1
 44
0.0
176
     1
173
     0
176
     1
  0
VISUALSTYLE
  5
2D
102
{ACAD_REACTORS
330
2A
102
}
330
2A
100
AcDbVisualStyle
  2
Gouraud
 70
     2
177
     2
291
     1
 71
     2
176
     1
 72
     2
176
     1
 73
     1
176
     1
 90
        2
176
     1
 40
-0.6
176
     1
 41
30.0
176
     1
 62
     5
 63
     7
421
 16777215
176
     1
 74
     0
176
     1
 91
        4
176
     1
 64
     7
176
     1
 65
   257
176
     1
 75
     1
176
     1
175
     1
176
     1
 42
1.0
176
     1
 92
        0
176
     1
 66
     7
176
     1
 43
1.0
176
     1
 76
     1
176
     1
 77
     6
176
     1
 78
     2
176
     1
 67
     7
176
     1
 79
     5
176
     1
170
     0
176
     1
171
     0
176
     1
290
     0
176
     1
 93
       13
176
     1
 44
0.0
176
     1
173
     0
176
     1
  0
VISUALSTYLE
  5
2E
102
{ACAD_REACTORS
330
2A
102
}
330
2A
100
AcDbVisualStyle
  2
GouraudWithEdges
 70
     3
177
     2
291
     1
 71
     2
176
     1
 72
     2
176
     1
 73
     1
176
     1
 90
        2
176
     1
 40
-0.6
176
     1
 41
30.0
176
     1
 62
     5
 63
     7
421
 16777215
176
     1
 74
     1
176
     1
 91
        4
176
     1
 64
     7
176
     1
 65
   257
176
     1
 75
     1
176
     1
175
     1
176
     1
 42
1.0
176
     1
 92
        0
176
     1
 66
   257
176
     1
 43
1.0
176
     1
 76
     1
176
     1
 77
     6
176
     1
 78
     2
176
     1
 67
     7
176
     1
 79
     5
176
     1
170
     0
176
     1
171
     0
176
     1
290
     0
176
     1
 93
       13
176
     1
 44
0.0
176
     1
173
     0
176
     1
  0
VISUALSTYLE
  5
38
102
{ACAD_REACTORS
330
2A
102
}
330
2A
100
AcDbVisualStyle
  2
Linepattern
 70
    14
177
     2
291
     1
 71
     2
176
     1
 72
     2
176
     1
 73
     0
176
     1
 90
        0
176
     1
 40
-0.6
176
     1
 41
-30.0
176
     1
 62
     5
 63
     7
421
 16777215
176
     1
 74
     1
176
     1
 91
        4
176
     1
 64
     7
176
     1
 65
   257
176
     1
 75
     7
176
     1
175
     7
176
     1
 42
1.0
176
     1
 92
        8
176
     1
 66
     7
176
     1
 43
1.0
176
     1
 76
     1
176
     1
 77
     6
176
     1
 78
     2
176
     1
 67
     7
176
     1
 79
     5
176
     1
170
     0
176
     1
171
     0
176
     1
290
     0
176
     1
 93
        1
176
     1
 44
0.0
176
     1
173
     0
176
     1
  0
VISUALSTYLE
  5
33
102
{ACAD_REACTORS
330
2A
102
}
330
2A
100
AcDbVisualStyle
  2
Realistic
 70
     8
177
     2
291
     0
 71
     2
176
     1
 72
     2
176
     1
 73
     0
176
     1
 90
        0
176
     1
 40
-0.6
176
     1
 41
-30.0
176
     1
 62
     5
 63
     7
421
 16777215
176
     1
 74
     1
176
     1
 91
        0
176
     1
 64
     7
176
     1
 65
   257
176
     1
 75
     1
176
     1
175
     1
176
     1
 42
1.0
176
     1
 92
        8
176
     1
 66
     8
424
  7895160
176
     1
 43
1.0
176
     1
 76
     1
176
     1
 77
     6
176
     1
 78
     2
176
     1
 67
     7
176
     1
 79
     5
176
     1
170
     0
176
     1
171
     0
176
     1
290
     0
176
     1
 93
       13
176
     1
 44
0.0
176
     1
173
     0
176
     1
  0
VISUALSTYLE
  5
37
102
{ACAD_REACTORS
330
2A
102
}
330
2A
100
AcDbVisualStyle
  2
Thicken
 70
    13
177
     2
291
     1
 71
     2
176
     1
 72
     2
176
     1
 73
     0
176
     1
 90
        0
176
     1
 40
-0.6
176
     1
 41
-30.0
176
     1
 62
     5
 63
     7
421
 16777215
176
     1
 74
     1
176
     1
 91
        4
176
     1
 64
     7
176
     1
 65
   257
176
     1
 75
     1
176
     1
175
     1
176
     1
 42
1.0
176
     1
 92
       12
176
     1
 66
     7
176
     1
 43
1.0
176
     1
 76
     1
176
     1
 77
     6
176
     1
 78
     2
176
     1
 67
     7
176
     1
 79
     5
176
     1
170
     0
176
     1
171
     0
176
     1
290
     0
176
     1
 93
        1
176
     1
 44
0.0
176
     1
173
     0
176
     1
  0
ENDSEC
  0
EOF
