%TF.GenerationSoftware,KiCad,Pcbnew,(5.1.10)-1*%
%TF.CreationDate,2021-10-01T00:09:18+02:00*%
%TF.ProjectId,skica,736b6963-612e-46b6-9963-61645f706362,rev?*%
%TF.SameCoordinates,Original*%
%TF.FileFunction,Soldermask,Top*%
%TF.FilePolarity,Negative*%
%FSLAX46Y46*%
G04 Gerber Fmt 4.6, Leading zero omitted, Abs format (unit mm)*
G04 Created by KiCad (PCBNEW (5.1.10)-1) date 2021-10-01 00:09:18*
%MOMM*%
%LPD*%
G01*
G04 APERTURE LIST*
%ADD10C,0.660400*%
%ADD11C,2.387600*%
%ADD12C,1.200000*%
G04 APERTURE END LIST*
D10*
%TO.C,STEREOIN*%
X45979489Y-73181778D02*
G75*
G03*
X45979489Y-73181778I-330200J0D01*
G01*
X47817967Y-71343301D02*
G75*
G03*
X47817967Y-71343301I-330200J0D01*
G01*
X51353501Y-67807767D02*
G75*
G03*
X51353501Y-67807767I-330200J0D01*
G01*
X53191978Y-65969289D02*
G75*
G03*
X53191978Y-65969289I-330200J0D01*
G01*
X46050200Y-66040000D02*
G75*
G03*
X46050200Y-66040000I-330200J0D01*
G01*
X68910200Y-66040000D02*
G75*
G03*
X68910200Y-66040000I-330200J0D01*
G01*
X68980911Y-73181778D02*
G75*
G03*
X68980911Y-73181778I-330200J0D01*
G01*
X67142433Y-71343301D02*
G75*
G03*
X67142433Y-71343301I-330200J0D01*
G01*
X63606899Y-67807767D02*
G75*
G03*
X63606899Y-67807767I-330200J0D01*
G01*
X61768422Y-65969289D02*
G75*
G03*
X61768422Y-65969289I-330200J0D01*
G01*
X57480200Y-92710000D02*
G75*
G03*
X57480200Y-92710000I-330200J0D01*
G01*
X52380200Y-87710000D02*
G75*
G03*
X52380200Y-87710000I-330200J0D01*
G01*
X54980200Y-87710000D02*
G75*
G03*
X54980200Y-87710000I-330200J0D01*
G01*
X59980200Y-87710000D02*
G75*
G03*
X59980200Y-87710000I-330200J0D01*
G01*
X62580200Y-87710000D02*
G75*
G03*
X62580200Y-87710000I-330200J0D01*
G01*
%TD*%
D11*
%TO.C,STEREOIN*%
X45720000Y-66040000D03*
X51023301Y-67807767D03*
X52861778Y-65969289D03*
X47487767Y-71343301D03*
X45649289Y-73181778D03*
D12*
X49255534Y-62504466D03*
X47487767Y-60736699D03*
X40416699Y-67807767D03*
X42184466Y-69575534D03*
X49255534Y-69575534D03*
%TD*%
%TO.C,STEREOIN*%
X65044466Y-69575534D03*
X65044466Y-62504466D03*
X66812233Y-60736699D03*
X73883301Y-67807767D03*
X72115534Y-69575534D03*
D11*
X61438222Y-65969289D03*
X63276699Y-67807767D03*
X68650711Y-73181778D03*
X66812233Y-71343301D03*
X68580000Y-66040000D03*
%TD*%
D12*
%TO.C,STEREOIN*%
X57150000Y-87710000D03*
X62150000Y-92710000D03*
X62150000Y-95210000D03*
X52150000Y-95210000D03*
X52150000Y-92710000D03*
D11*
X62250000Y-87710000D03*
X59650000Y-87710000D03*
X52050000Y-87710000D03*
X54650000Y-87710000D03*
X57150000Y-92710000D03*
%TD*%
M02*
