%TF.GenerationSoftware,KiCad,Pcbnew,(5.1.10)-1*%
%TF.CreationDate,2021-10-01T00:09:18+02:00*%
%TF.ProjectId,skica,736b6963-612e-46b6-9963-61645f706362,rev?*%
%TF.SameCoordinates,Original*%
%TF.FileFunction,Legend,Top*%
%TF.FilePolarity,Positive*%
%FSLAX46Y46*%
G04 Gerber Fmt 4.6, Leading zero omitted, Abs format (unit mm)*
G04 Created by KiCad (PCBNEW (5.1.10)-1) date 2021-10-01 00:09:18*
%MOMM*%
%LPD*%
G01*
G04 APERTURE LIST*
%ADD10C,0.200000*%
%ADD11C,0.374649*%
%ADD12C,0.513970*%
%ADD13C,0.203200*%
%ADD14C,0.115824*%
G04 APERTURE END LIST*
D10*
X64796491Y-83265433D02*
X64602872Y-83193813D01*
X64602872Y-83193813D02*
X64484121Y-83031330D01*
X64484121Y-83031330D02*
X64464351Y-82892511D01*
X65167684Y-82953119D02*
X65079907Y-83148489D01*
X65079907Y-83148489D02*
X64898755Y-83256486D01*
X64898755Y-83256486D02*
X64796491Y-83265433D01*
X65167014Y-82961868D02*
X65167684Y-82953119D01*
X65537536Y-82648707D02*
X65329022Y-82702914D01*
X65329022Y-82702914D02*
X65192742Y-82863402D01*
X65192742Y-82863402D02*
X65167014Y-82961868D01*
X65870453Y-83020887D02*
X65821227Y-82820406D01*
X65821227Y-82820406D02*
X65673220Y-82684044D01*
X65673220Y-82684044D02*
X65537536Y-82648707D01*
X66114822Y-82537511D02*
X66114822Y-82537511D01*
X65557715Y-81984497D02*
X66114822Y-82537511D01*
X64772750Y-81987389D02*
X65557715Y-81984497D01*
X64219735Y-82544531D02*
X64772750Y-81987389D01*
X64779770Y-83882512D02*
X64222628Y-83329497D01*
X65564736Y-83879584D02*
X64779770Y-83882512D01*
X66117750Y-83322477D02*
X65564736Y-83879584D01*
X61903220Y-83330944D02*
X62460327Y-83883958D01*
X61900327Y-82545978D02*
X61903220Y-83330944D01*
X62453308Y-81988836D02*
X61900327Y-82545978D01*
X63276407Y-83849703D02*
X62453308Y-81988836D01*
X63798307Y-83323923D02*
X63276407Y-83849703D01*
X63795414Y-82538958D02*
X63798307Y-83323923D01*
X63238307Y-81985943D02*
X63795414Y-82538958D01*
X59664704Y-82937949D02*
X60612265Y-82937949D01*
X61001238Y-81988942D02*
X61558344Y-82541956D01*
X60216272Y-81991834D02*
X61001238Y-81988942D01*
X59663257Y-82548976D02*
X60216272Y-81991834D01*
X59666150Y-83333942D02*
X59663257Y-82548976D01*
X60223257Y-83886957D02*
X59666150Y-83333942D01*
X61008258Y-83884029D02*
X60223257Y-83886957D01*
X61561272Y-83326922D02*
X61008258Y-83884029D01*
X61561272Y-83326922D02*
X61561272Y-83326922D01*
X57890796Y-83246277D02*
X57697203Y-83174675D01*
X57697203Y-83174675D02*
X57578460Y-83012195D01*
X57578460Y-83012195D02*
X57558691Y-82873391D01*
X58261989Y-82933928D02*
X58174237Y-83129326D01*
X58174237Y-83129326D02*
X57993075Y-83237330D01*
X57993075Y-83237330D02*
X57890796Y-83246277D01*
X58261354Y-82942712D02*
X58261989Y-82933928D01*
X58631841Y-82629586D02*
X58423354Y-82683766D01*
X58423354Y-82683766D02*
X58287081Y-82844247D01*
X58287081Y-82844247D02*
X58261354Y-82942712D01*
X58964793Y-83001731D02*
X58915550Y-82801252D01*
X58915550Y-82801252D02*
X58767540Y-82664903D01*
X58767540Y-82664903D02*
X58631841Y-82629586D01*
X59209163Y-82518355D02*
X59209163Y-82518355D01*
X58652055Y-81965341D02*
X59209163Y-82518355D01*
X57867089Y-81968234D02*
X58652055Y-81965341D01*
X57314075Y-82525376D02*
X57867089Y-81968234D01*
X57874074Y-83863356D02*
X57316968Y-83310341D01*
X58659076Y-83860463D02*
X57874074Y-83863356D01*
X59212090Y-83303321D02*
X58659076Y-83860463D01*
X56846644Y-83361318D02*
X56293630Y-83918424D01*
X56843752Y-82576352D02*
X56846644Y-83361318D01*
X56286645Y-82023338D02*
X56843752Y-82576352D01*
X55501644Y-82026230D02*
X56286645Y-82023338D01*
X54948629Y-82583337D02*
X55501644Y-82026230D01*
X54951558Y-83368338D02*
X54948629Y-82583337D01*
X55508664Y-83921353D02*
X54951558Y-83368338D01*
X56293630Y-83918424D02*
X55508664Y-83921353D01*
X53610543Y-82023338D02*
X53610543Y-83921353D01*
X54000963Y-82023338D02*
X54558069Y-82576352D01*
X53215997Y-82026230D02*
X54000963Y-82023338D01*
X52662982Y-82583337D02*
X53215997Y-82026230D01*
X51712387Y-82023338D02*
X52269494Y-82576352D01*
X50927422Y-82026230D02*
X51712387Y-82023338D01*
X50374407Y-82583337D02*
X50927422Y-82026230D01*
X50377300Y-83368338D02*
X50374407Y-82583337D01*
X50934408Y-83921353D02*
X50377300Y-83368338D01*
X51719408Y-83918424D02*
X50934408Y-83921353D01*
X52272422Y-83361318D02*
X51719408Y-83918424D01*
X52272422Y-83361318D02*
X52272422Y-83361318D01*
X52272175Y-83297888D02*
X52272175Y-83297888D01*
X49940986Y-83361318D02*
X49387970Y-83918424D01*
X49938092Y-82576352D02*
X49940986Y-83361318D01*
X49380950Y-82023338D02*
X49938092Y-82576352D01*
X48595984Y-82026230D02*
X49380950Y-82023338D01*
X48042969Y-82583337D02*
X48595984Y-82026230D01*
X48045897Y-83368338D02*
X48042969Y-82583337D01*
X48603004Y-83921353D02*
X48045897Y-83368338D01*
X49387970Y-83918424D02*
X48603004Y-83921353D01*
D11*
X50287327Y-76655996D02*
X50544230Y-76798720D01*
X51058035Y-76798720D01*
X51314938Y-76655996D01*
X51443389Y-76370548D01*
X51443389Y-76227825D01*
X51314938Y-75942377D01*
X51058035Y-75799653D01*
X50672681Y-75799653D01*
X50415778Y-75656930D01*
X50287327Y-75371482D01*
X50287327Y-75228758D01*
X50415778Y-74943311D01*
X50672681Y-74800587D01*
X51058035Y-74800587D01*
X51314938Y-74943311D01*
X52599452Y-74800587D02*
X52599452Y-77797786D01*
X52599452Y-74943311D02*
X52856354Y-74800587D01*
X53370160Y-74800587D01*
X53627063Y-74943311D01*
X53755514Y-75086035D01*
X53883966Y-75371482D01*
X53883966Y-76227825D01*
X53755514Y-76513272D01*
X53627063Y-76655996D01*
X53370160Y-76798720D01*
X52856354Y-76798720D01*
X52599452Y-76655996D01*
X55425382Y-76798720D02*
X55168479Y-76655996D01*
X55040028Y-76370548D01*
X55040028Y-73801521D01*
X56452993Y-76798720D02*
X56452993Y-74800587D01*
X56452993Y-73801521D02*
X56324542Y-73944245D01*
X56452993Y-74086968D01*
X56581445Y-73944245D01*
X56452993Y-73801521D01*
X56452993Y-74086968D01*
X57352153Y-74800587D02*
X58379764Y-74800587D01*
X57737507Y-73801521D02*
X57737507Y-76370548D01*
X57865958Y-76655996D01*
X58122861Y-76798720D01*
X58379764Y-76798720D01*
X58893569Y-74800587D02*
X59921180Y-74800587D01*
X59278924Y-73801521D02*
X59278924Y-76370548D01*
X59407375Y-76655996D01*
X59664278Y-76798720D01*
X59921180Y-76798720D01*
X61847951Y-76655996D02*
X61591048Y-76798720D01*
X61077243Y-76798720D01*
X60820340Y-76655996D01*
X60691889Y-76370548D01*
X60691889Y-75228758D01*
X60820340Y-74943311D01*
X61077243Y-74800587D01*
X61591048Y-74800587D01*
X61847951Y-74943311D01*
X61976403Y-75228758D01*
X61976403Y-75514206D01*
X60691889Y-75799653D01*
X63132465Y-76798720D02*
X63132465Y-74800587D01*
X63132465Y-75371482D02*
X63260916Y-75086035D01*
X63389368Y-74943311D01*
X63646270Y-74800587D01*
X63903173Y-74800587D01*
D12*
X67571139Y-77073024D02*
X67571139Y-80401596D01*
X67394921Y-80793193D01*
X67218702Y-80988991D01*
X66866265Y-81184790D01*
X66337610Y-81184790D01*
X65985173Y-80988991D01*
X67571139Y-79618403D02*
X67218702Y-79814201D01*
X66513828Y-79814201D01*
X66161391Y-79618403D01*
X65985173Y-79422604D01*
X65808954Y-79031008D01*
X65808954Y-77856217D01*
X65985173Y-77464621D01*
X66161391Y-77268822D01*
X66513828Y-77073024D01*
X67218702Y-77073024D01*
X67571139Y-77268822D01*
X70919291Y-79814201D02*
X70919291Y-77660419D01*
X70743073Y-77268822D01*
X70390636Y-77073024D01*
X69685762Y-77073024D01*
X69333325Y-77268822D01*
X70919291Y-79618403D02*
X70566854Y-79814201D01*
X69685762Y-79814201D01*
X69333325Y-79618403D01*
X69157106Y-79226806D01*
X69157106Y-78835209D01*
X69333325Y-78443612D01*
X69685762Y-78247814D01*
X70566854Y-78247814D01*
X70919291Y-78052016D01*
X72152821Y-77073024D02*
X73562569Y-77073024D01*
X72681477Y-75702435D02*
X72681477Y-79226806D01*
X72857695Y-79618403D01*
X73210132Y-79814201D01*
X73562569Y-79814201D01*
X76205847Y-79618403D02*
X75853410Y-79814201D01*
X75148536Y-79814201D01*
X74796099Y-79618403D01*
X74619880Y-79226806D01*
X74619880Y-77660419D01*
X74796099Y-77268822D01*
X75148536Y-77073024D01*
X75853410Y-77073024D01*
X76205847Y-77268822D01*
X76382066Y-77660419D01*
X76382066Y-78052016D01*
X74619880Y-78443612D01*
X42171139Y-79618403D02*
X41818702Y-79814201D01*
X41113828Y-79814201D01*
X40761391Y-79618403D01*
X40585173Y-79422604D01*
X40408954Y-79031008D01*
X40408954Y-77856217D01*
X40585173Y-77464621D01*
X40761391Y-77268822D01*
X41113828Y-77073024D01*
X41818702Y-77073024D01*
X42171139Y-77268822D01*
X43404669Y-77073024D02*
X44285762Y-79814201D01*
X45166854Y-77073024D01*
D13*
%TO.C,STEREOIN*%
X46780660Y-75585942D02*
X46073553Y-74878835D01*
X39002486Y-67807767D02*
X43952233Y-72757514D01*
X47487767Y-59322486D02*
X39002486Y-67807767D01*
X55265942Y-67100660D02*
X54558835Y-66393553D01*
X47487767Y-59322486D02*
X52437514Y-64272233D01*
X55265942Y-67100660D02*
X46780660Y-75585942D01*
X67519340Y-75585942D02*
X59034058Y-67100660D01*
X75297514Y-67807767D02*
X70347767Y-72757514D01*
X67519340Y-75585942D02*
X68226447Y-74878835D01*
X75297514Y-67807767D02*
X66812233Y-59322486D01*
X66812233Y-59322486D02*
X61862486Y-64272233D01*
X59034058Y-67100660D02*
X59741165Y-66393553D01*
X51150000Y-85210000D02*
X63150000Y-85210000D01*
X51150000Y-96210000D02*
X51150000Y-89210000D01*
X51150000Y-85210000D02*
X51150000Y-86210000D01*
X51150000Y-96210000D02*
X63150000Y-96210000D01*
X63150000Y-96210000D02*
X63150000Y-89210000D01*
X63150000Y-85210000D02*
X63150000Y-86210000D01*
D14*
X44148267Y-65660267D02*
X44187267Y-65738267D01*
X44284767Y-65835767D01*
X44343267Y-65855267D01*
X44382267Y-65855267D01*
X44440766Y-65835767D01*
X44479766Y-65796767D01*
X44499266Y-65738267D01*
X44499266Y-65699267D01*
X44479766Y-65640767D01*
X44421267Y-65543267D01*
X44401767Y-65484767D01*
X44401767Y-65445767D01*
X44421267Y-65387267D01*
X44460266Y-65348267D01*
X44518766Y-65328767D01*
X44557766Y-65328767D01*
X44616266Y-65348267D01*
X44713766Y-65445767D01*
X44752766Y-65523767D01*
X44889266Y-65621267D02*
X45123266Y-65855267D01*
X44596766Y-66147766D02*
X45006266Y-65738267D01*
X45064766Y-66186766D02*
X45201266Y-66323266D01*
X45045266Y-66596266D02*
X44850266Y-66401266D01*
X45259766Y-65991767D01*
X45454766Y-66186766D01*
X45454766Y-67005766D02*
X45513266Y-66674266D01*
X45220766Y-66771766D02*
X45630266Y-66362266D01*
X45786265Y-66518266D01*
X45805765Y-66576766D01*
X45805765Y-66615766D01*
X45786265Y-66674266D01*
X45727765Y-66732766D01*
X45669266Y-66752266D01*
X45630266Y-66752266D01*
X45571766Y-66732766D01*
X45415766Y-66576766D01*
X45844765Y-66966766D02*
X45981265Y-67103266D01*
X45825265Y-67376265D02*
X45630266Y-67181266D01*
X46039765Y-66771766D01*
X46234765Y-66966766D01*
X46488265Y-67220266D02*
X46566265Y-67298266D01*
X46585765Y-67356765D01*
X46585765Y-67434765D01*
X46527265Y-67532265D01*
X46390765Y-67668765D01*
X46293265Y-67727265D01*
X46215265Y-67727265D01*
X46156765Y-67707765D01*
X46078765Y-67629765D01*
X46059265Y-67571265D01*
X46059265Y-67493265D01*
X46117765Y-67395765D01*
X46254265Y-67259266D01*
X46351765Y-67200766D01*
X46429765Y-67200766D01*
X46488265Y-67220266D01*
X46429765Y-67980765D02*
X46839265Y-67571265D01*
X46624765Y-68175765D02*
X47034264Y-67766265D01*
X46858765Y-68409765D01*
X47268264Y-68000265D01*
X67995134Y-69420547D02*
X68073134Y-69381547D01*
X68170634Y-69284047D01*
X68190134Y-69225547D01*
X68190134Y-69186547D01*
X68170634Y-69128048D01*
X68131634Y-69089048D01*
X68073134Y-69069548D01*
X68034134Y-69069548D01*
X67975634Y-69089048D01*
X67878134Y-69147547D01*
X67819634Y-69167047D01*
X67780634Y-69167047D01*
X67722134Y-69147547D01*
X67683134Y-69108548D01*
X67663634Y-69050048D01*
X67663634Y-69011048D01*
X67683134Y-68952548D01*
X67780634Y-68855048D01*
X67858634Y-68816048D01*
X67956134Y-68679548D02*
X68190134Y-68445548D01*
X68482633Y-68972048D02*
X68073134Y-68562548D01*
X68521633Y-68504048D02*
X68658133Y-68367548D01*
X68931133Y-68523548D02*
X68736133Y-68718548D01*
X68326634Y-68309048D01*
X68521633Y-68114048D01*
X69340633Y-68114048D02*
X69009133Y-68055548D01*
X69106633Y-68348048D02*
X68697133Y-67938548D01*
X68853133Y-67782549D01*
X68911633Y-67763049D01*
X68950633Y-67763049D01*
X69009133Y-67782549D01*
X69067633Y-67841049D01*
X69087133Y-67899548D01*
X69087133Y-67938548D01*
X69067633Y-67997048D01*
X68911633Y-68153048D01*
X69301633Y-67724049D02*
X69438133Y-67587549D01*
X69711132Y-67743549D02*
X69516133Y-67938548D01*
X69106633Y-67529049D01*
X69301633Y-67334049D01*
X69555133Y-67080549D02*
X69633133Y-67002549D01*
X69691632Y-66983049D01*
X69769632Y-66983049D01*
X69867132Y-67041549D01*
X70003632Y-67178049D01*
X70062132Y-67275549D01*
X70062132Y-67353549D01*
X70042632Y-67412049D01*
X69964632Y-67490049D01*
X69906132Y-67509549D01*
X69828132Y-67509549D01*
X69730632Y-67451049D01*
X69594133Y-67314549D01*
X69535633Y-67217049D01*
X69535633Y-67139049D01*
X69555133Y-67080549D01*
X70315632Y-67139049D02*
X69906132Y-66729549D01*
X70510632Y-66944049D02*
X70101132Y-66534550D01*
X70744632Y-66710049D01*
X70335132Y-66300550D01*
X55062845Y-93794405D02*
X55090422Y-93711674D01*
X55090422Y-93573788D01*
X55062845Y-93518634D01*
X55035268Y-93491057D01*
X54980114Y-93463480D01*
X54924960Y-93463480D01*
X54869805Y-93491057D01*
X54842228Y-93518634D01*
X54814651Y-93573788D01*
X54787074Y-93684097D01*
X54759497Y-93739251D01*
X54731920Y-93766828D01*
X54676765Y-93794405D01*
X54621611Y-93794405D01*
X54566457Y-93766828D01*
X54538880Y-93739251D01*
X54511302Y-93684097D01*
X54511302Y-93546211D01*
X54538880Y-93463480D01*
X54511302Y-93298017D02*
X54511302Y-92967091D01*
X55090422Y-93132554D02*
X54511302Y-93132554D01*
X54787074Y-92774051D02*
X54787074Y-92581011D01*
X55090422Y-92498280D02*
X55090422Y-92774051D01*
X54511302Y-92774051D01*
X54511302Y-92498280D01*
X55090422Y-91919160D02*
X54814651Y-92112200D01*
X55090422Y-92250085D02*
X54511302Y-92250085D01*
X54511302Y-92029468D01*
X54538880Y-91974314D01*
X54566457Y-91946737D01*
X54621611Y-91919160D01*
X54704342Y-91919160D01*
X54759497Y-91946737D01*
X54787074Y-91974314D01*
X54814651Y-92029468D01*
X54814651Y-92250085D01*
X54787074Y-91670965D02*
X54787074Y-91477925D01*
X55090422Y-91395194D02*
X55090422Y-91670965D01*
X54511302Y-91670965D01*
X54511302Y-91395194D01*
X54511302Y-91036691D02*
X54511302Y-90926382D01*
X54538880Y-90871228D01*
X54594034Y-90816074D01*
X54704342Y-90788497D01*
X54897382Y-90788497D01*
X55007691Y-90816074D01*
X55062845Y-90871228D01*
X55090422Y-90926382D01*
X55090422Y-91036691D01*
X55062845Y-91091845D01*
X55007691Y-91147000D01*
X54897382Y-91174577D01*
X54704342Y-91174577D01*
X54594034Y-91147000D01*
X54538880Y-91091845D01*
X54511302Y-91036691D01*
X55090422Y-90540302D02*
X54511302Y-90540302D01*
X55090422Y-90264531D02*
X54511302Y-90264531D01*
X55090422Y-89933605D01*
X54511302Y-89933605D01*
%TD*%
M02*
