M48
; DRILL file {KiCad (5.1.10)-1} date 10/01/21 00:09:14
; FORMAT={-:-/ absolute / inch / decimal}
; #@! TF.CreationDate,2021-10-01T00:09:14+02:00
; #@! TF.GenerationSoftware,Kicad,Pcbnew,(5.1.10)-1
; #@! TF.FileFunction,Plated,1,2,PTH
FMAT,2
INCH
T1C0.0512
%
G90
G05
T1
X1.7972Y-2.8812
X1.8Y-2.6
X1.8696Y-2.8088
X2.0088Y-2.6696
X2.0492Y-3.4531
X2.0812Y-2.5972
X2.1516Y-3.4531
X2.25Y-3.65
X2.3484Y-3.4531
X2.4188Y-2.5972
X2.4508Y-3.4531
X2.4912Y-2.6696
X2.6304Y-2.8088
X2.7Y-2.6
X2.7028Y-2.8812
T0
M30
