M48
; DRILL file {KiCad (5.1.10)-1} date 10/01/21 00:09:14
; FORMAT={-:-/ absolute / inch / decimal}
; #@! TF.CreationDate,2021-10-01T00:09:14+02:00
; #@! TF.GenerationSoftware,Kicad,Pcbnew,(5.1.10)-1
; #@! TF.FileFunction,NonPlated,1,2,NPTH
FMAT,2
INCH
T1C0.0472
%
G90
G05
T1
X1.5912Y-2.6696
X1.6608Y-2.7392
X1.8696Y-2.3912
X1.9392Y-2.4608
X1.9392Y-2.7392
X2.0531Y-3.65
X2.0531Y-3.7484
X2.25Y-3.4531
X2.4469Y-3.65
X2.4469Y-3.7484
X2.5608Y-2.4608
X2.5608Y-2.7392
X2.6304Y-2.3912
X2.8392Y-2.7392
X2.9088Y-2.6696
T0
M30
