  0
SECTION
  2
HEADER
  9
$ACADVER
  1
AC1009
  9
$FILLMODE
 70
1
  9
$EXTMIN
 10
-47.9661
 20
-10.5410
 30
0.0000
  9
$EXTMAX
 10
171.8650
 20
118.9750
 30
0.0000
  0
ENDSEC
  0
SECTION
  2
TABLES
  0
TABLE
  2
LTYPE
 70
1
  0
LTYPE
  2
CONTINUOUS
 70
64
  3
Solid line
 72
65
 73
0
 40
0
  0
ENDTAB
  0
TABLE
  2
LAYER
 70
255
  0
LAYER
  2
20
 70
64
 62
178
  6
CONTINUOUS
  0
LAYER
  2
253
 70
64
 62
6
  6
CONTINUOUS
  0
ENDTAB
  0
ENDSEC
  0
SECTION
  2
BLOCKS
  0
BLOCK
  8
0
  2
RECT
 70
64
 10
0.0000
 20
0.0000
 30
0.0000
  3
RECT
  0
SOLID
  8
0
 10
-0.5000
 20
-0.5000
 30
0.0000
 11
0.5000
 21
-0.5000
 31
0.0000
 12
-0.5000
 22
0.5000
 32
0.0000
 13
0.5000
 23
0.5000
 33
0.0000
  0
ENDBLK
  8
0
  0
BLOCK
  8
0
  2
PIE
 70
64
 10
0.0000
 20
0.0000
 30
0.0000
  3
PIE
  0
POLYLINE
  8
0
 66
1
 10
0.0000
 20
0.0000
 30
0.0000
 40
0.5000
 41
0.5000
 70
0
  0
VERTEX
  8
0
 10
0.0000
 20
-0.2500
 30
0.0000
 42
1.0000
  0
VERTEX
  8
0
 10
0.0000
 20
0.2500
 30
0.0000
 42
1.0000
  0
VERTEX
  8
0
 10
0.0000
 20
-0.2500
 30
0.0000
  0
SEQEND
  8
0
  0
ENDBLK
  8
0
  0
BLOCK
  8
0
  2
OCTAGONP
 70
64
 10
0.0000
 20
0.0000
 30
0.0000
  3
OCTAGONP
  0
POLYLINE
  8
0
 66
1
 10
0.0000
 20
0.0000
 30
0.0000
 40
0.5000
 41
0.5000
 70
0
  0
VERTEX
  8
0
 10
-0.2500
 20
-0.1036
 30
0.0000
  0
VERTEX
  8
0
 10
-0.2500
 20
0.1036
 30
0.0000
  0
VERTEX
  8
0
 10
-0.1036
 20
0.2500
 30
0.0000
  0
VERTEX
  8
0
 10
0.1036
 20
0.2500
 30
0.0000
  0
VERTEX
  8
0
 10
0.2500
 20
0.1036
 30
0.0000
  0
VERTEX
  8
0
 10
0.2500
 20
-0.1036
 30
0.0000
  0
VERTEX
  8
0
 10
0.1036
 20
-0.2500
 30
0.0000
  0
VERTEX
  8
0
 10
-0.1036
 20
-0.2500
 30
0.0000
  0
VERTEX
  8
0
 10
-0.2500
 20
-0.1036
 30
0.0000
  0
VERTEX
  8
0
 10
-0.2500
 20
0.1036
 30
0.0000
  0
SEQEND
  8
0
  0
ENDBLK
  8
0
  0
BLOCK
  8
0
  2
SQUAREP
 70
64
 10
0.0000
 20
0.0000
 30
0.0000
  3
SQUAREP
  0
SOLID
  8
0
 10
-0.5000
 20
-0.5000
 30
0.0000
 11
0.5000
 21
-0.5000
 31
0.0000
 12
-0.5000
 22
0.5000
 32
0.0000
 13
0.5000
 23
0.5000
 33
0.0000
  0
ENDBLK
  8
0
  0
BLOCK
  8
0
  2
ROUNDP
 70
64
 10
0.0000
 20
0.0000
 30
0.0000
  3
ROUNDP
  0
POLYLINE
  8
0
 66
1
 10
0.0000
 20
0.0000
 30
0.0000
 40
0.5000
 41
0.5000
 70
0
  0
VERTEX
  8
0
 10
0.0000
 20
-0.2500
 30
0.0000
 42
1.0000
  0
VERTEX
  8
0
 10
0.0000
 20
0.2500
 30
0.0000
 42
1.0000
  0
VERTEX
  8
0
 10
0.0000
 20
-0.2500
 30
0.0000
  0
SEQEND
  8
0
  0
ENDBLK
  8
0
  0
BLOCK
  8
0
  2
ANNULUSP
 70
64
 10
0.0000
 20
0.0000
 30
0.0000
  3
ANNULUSP
  0
POLYLINE
  8
0
 66
1
 10
0.0000
 20
0.0000
 30
0.0000
 40
0.5000
 41
0.5000
 70
0
  0
VERTEX
  8
0
 10
0.0000
 20
-0.2500
 30
0.0000
 42
1.0000
  0
VERTEX
  8
0
 10
0.0000
 20
0.2500
 30
0.0000
 42
1.0000
  0
VERTEX
  8
0
 10
0.0000
 20
-0.2500
 30
0.0000
  0
SEQEND
  8
0
  0
ENDBLK
  8
0
  0
BLOCK
  8
0
  2
THERMALP
 70
64
 10
0.0000
 20
0.0000
 30
0.0000
  3
THERMALP
  0
POLYLINE
  8
0
 66
1
 10
0.0000
 20
0.0000
 30
0.0000
 40
0.1000
 41
0.1000
 70
0
  0
VERTEX
  8
0
 10
-0.2379
 20
0.4500
 30
0.0000
  0
VERTEX
  8
0
 10
0.2379
 20
0.4500
 30
0.0000
  0
SEQEND
  8
0
  0
POLYLINE
  8
0
 66
1
 10
0.0000
 20
0.0000
 30
0.0000
 40
0.0500
 41
0.0500
 70
0
  0
VERTEX
  8
0
 10
0.2379
 20
0.4250
 30
0.0000
 42
1.0000
  0
VERTEX
  8
0
 10
0.2379
 20
0.4750
 30
0.0000
  0
SEQEND
  8
0
  0
POLYLINE
  8
0
 66
1
 10
0.0000
 20
0.0000
 30
0.0000
 40
0.0500
 41
0.0500
 70
0
  0
VERTEX
  8
0
 10
-0.2379
 20
0.4750
 30
0.0000
 42
1.0000
  0
VERTEX
  8
0
 10
-0.2379
 20
0.4250
 30
0.0000
  0
SEQEND
  8
0
  0
POLYLINE
  8
0
 66
1
 10
0.0000
 20
0.0000
 30
0.0000
 40
0.1000
 41
0.1000
 70
0
  0
VERTEX
  8
0
 10
0.4500
 20
0.2379
 30
0.0000
  0
VERTEX
  8
0
 10
0.4500
 20
-0.2379
 30
0.0000
  0
SEQEND
  8
0
  0
POLYLINE
  8
0
 66
1
 10
0.0000
 20
0.0000
 30
0.0000
 40
0.0500
 41
0.0500
 70
0
  0
VERTEX
  8
0
 10
0.4250
 20
-0.2379
 30
0.0000
 42
1.0000
  0
VERTEX
  8
0
 10
0.4750
 20
-0.2379
 30
0.0000
  0
SEQEND
  8
0
  0
POLYLINE
  8
0
 66
1
 10
0.0000
 20
0.0000
 30
0.0000
 40
0.0500
 41
0.0500
 70
0
  0
VERTEX
  8
0
 10
0.4750
 20
0.2379
 30
0.0000
 42
1.0000
  0
VERTEX
  8
0
 10
0.4250
 20
0.2379
 30
0.0000
  0
SEQEND
  8
0
  0
POLYLINE
  8
0
 66
1
 10
0.0000
 20
0.0000
 30
0.0000
 40
0.1000
 41
0.1000
 70
0
  0
VERTEX
  8
0
 10
0.2379
 20
-0.4500
 30
0.0000
  0
VERTEX
  8
0
 10
-0.2379
 20
-0.4500
 30
0.0000
  0
SEQEND
  8
0
  0
POLYLINE
  8
0
 66
1
 10
0.0000
 20
0.0000
 30
0.0000
 40
0.0500
 41
0.0500
 70
0
  0
VERTEX
  8
0
 10
-0.2379
 20
-0.4250
 30
0.0000
 42
1.0000
  0
VERTEX
  8
0
 10
-0.2379
 20
-0.4750
 30
0.0000
  0
SEQEND
  8
0
  0
POLYLINE
  8
0
 66
1
 10
0.0000
 20
0.0000
 30
0.0000
 40
0.0500
 41
0.0500
 70
0
  0
VERTEX
  8
0
 10
0.2379
 20
-0.4750
 30
0.0000
 42
1.0000
  0
VERTEX
  8
0
 10
0.2379
 20
-0.4250
 30
0.0000
  0
SEQEND
  8
0
  0
POLYLINE
  8
0
 66
1
 10
0.0000
 20
0.0000
 30
0.0000
 40
0.1000
 41
0.1000
 70
0
  0
VERTEX
  8
0
 10
-0.4500
 20
-0.2379
 30
0.0000
  0
VERTEX
  8
0
 10
-0.4500
 20
0.2379
 30
0.0000
  0
SEQEND
  8
0
  0
POLYLINE
  8
0
 66
1
 10
0.0000
 20
0.0000
 30
0.0000
 40
0.0500
 41
0.0500
 70
0
  0
VERTEX
  8
0
 10
-0.4250
 20
0.2379
 30
0.0000
 42
1.0000
  0
VERTEX
  8
0
 10
-0.4750
 20
0.2379
 30
0.0000
  0
SEQEND
  8
0
  0
POLYLINE
  8
0
 66
1
 10
0.0000
 20
0.0000
 30
0.0000
 40
0.0500
 41
0.0500
 70
0
  0
VERTEX
  8
0
 10
-0.4750
 20
-0.2379
 30
0.0000
 42
1.0000
  0
VERTEX
  8
0
 10
-0.4250
 20
-0.2379
 30
0.0000
  0
SEQEND
  8
0
  0
ENDBLK
  8
0
  0
BLOCK
  8
0
  2
OCTAGONV
 70
64
 10
0.0000
 20
0.0000
 30
0.0000
  3
OCTAGONV
  0
POLYLINE
  8
0
 66
1
 10
0.0000
 20
0.0000
 30
0.0000
 40
0.5000
 41
0.5000
 70
0
  0
VERTEX
  8
0
 10
-0.2500
 20
-0.1036
 30
0.0000
  0
VERTEX
  8
0
 10
-0.2500
 20
0.1036
 30
0.0000
  0
VERTEX
  8
0
 10
-0.1036
 20
0.2500
 30
0.0000
  0
VERTEX
  8
0
 10
0.1036
 20
0.2500
 30
0.0000
  0
VERTEX
  8
0
 10
0.2500
 20
0.1036
 30
0.0000
  0
VERTEX
  8
0
 10
0.2500
 20
-0.1036
 30
0.0000
  0
VERTEX
  8
0
 10
0.1036
 20
-0.2500
 30
0.0000
  0
VERTEX
  8
0
 10
-0.1036
 20
-0.2500
 30
0.0000
  0
VERTEX
  8
0
 10
-0.2500
 20
-0.1036
 30
0.0000
  0
VERTEX
  8
0
 10
-0.2500
 20
0.1036
 30
0.0000
  0
SEQEND
  8
0
  0
ENDBLK
  8
0
  0
BLOCK
  8
0
  2
SQUAREV
 70
64
 10
0.0000
 20
0.0000
 30
0.0000
  3
SQUAREV
  0
SOLID
  8
0
 10
-0.5000
 20
-0.5000
 30
0.0000
 11
0.5000
 21
-0.5000
 31
0.0000
 12
-0.5000
 22
0.5000
 32
0.0000
 13
0.5000
 23
0.5000
 33
0.0000
  0
ENDBLK
  8
0
  0
BLOCK
  8
0
  2
ROUNDV
 70
64
 10
0.0000
 20
0.0000
 30
0.0000
  3
ROUNDV
  0
POLYLINE
  8
0
 66
1
 10
0.0000
 20
0.0000
 30
0.0000
 40
0.5000
 41
0.5000
 70
0
  0
VERTEX
  8
0
 10
0.0000
 20
-0.2500
 30
0.0000
 42
1.0000
  0
VERTEX
  8
0
 10
0.0000
 20
0.2500
 30
0.0000
 42
1.0000
  0
VERTEX
  8
0
 10
0.0000
 20
-0.2500
 30
0.0000
  0
SEQEND
  8
0
  0
ENDBLK
  8
0
  0
BLOCK
  8
0
  2
ANNULUSV
 70
64
 10
0.0000
 20
0.0000
 30
0.0000
  3
ANNULUSV
  0
POLYLINE
  8
0
 66
1
 10
0.0000
 20
0.0000
 30
0.0000
 40
0.5000
 41
0.5000
 70
0
  0
VERTEX
  8
0
 10
0.0000
 20
-0.2500
 30
0.0000
 42
1.0000
  0
VERTEX
  8
0
 10
0.0000
 20
0.2500
 30
0.0000
 42
1.0000
  0
VERTEX
  8
0
 10
0.0000
 20
-0.2500
 30
0.0000
  0
SEQEND
  8
0
  0
ENDBLK
  8
0
  0
BLOCK
  8
0
  2
THERMALV
 70
64
 10
0.0000
 20
0.0000
 30
0.0000
  3
THERMALV
  0
POLYLINE
  8
0
 66
1
 10
0.0000
 20
0.0000
 30
0.0000
 40
0.1000
 41
0.1000
 70
0
  0
VERTEX
  8
0
 10
-0.2379
 20
0.4500
 30
0.0000
  0
VERTEX
  8
0
 10
0.2379
 20
0.4500
 30
0.0000
  0
SEQEND
  8
0
  0
POLYLINE
  8
0
 66
1
 10
0.0000
 20
0.0000
 30
0.0000
 40
0.0500
 41
0.0500
 70
0
  0
VERTEX
  8
0
 10
0.2379
 20
0.4250
 30
0.0000
 42
1.0000
  0
VERTEX
  8
0
 10
0.2379
 20
0.4750
 30
0.0000
  0
SEQEND
  8
0
  0
POLYLINE
  8
0
 66
1
 10
0.0000
 20
0.0000
 30
0.0000
 40
0.0500
 41
0.0500
 70
0
  0
VERTEX
  8
0
 10
-0.2379
 20
0.4750
 30
0.0000
 42
1.0000
  0
VERTEX
  8
0
 10
-0.2379
 20
0.4250
 30
0.0000
  0
SEQEND
  8
0
  0
POLYLINE
  8
0
 66
1
 10
0.0000
 20
0.0000
 30
0.0000
 40
0.1000
 41
0.1000
 70
0
  0
VERTEX
  8
0
 10
0.4500
 20
0.2379
 30
0.0000
  0
VERTEX
  8
0
 10
0.4500
 20
-0.2379
 30
0.0000
  0
SEQEND
  8
0
  0
POLYLINE
  8
0
 66
1
 10
0.0000
 20
0.0000
 30
0.0000
 40
0.0500
 41
0.0500
 70
0
  0
VERTEX
  8
0
 10
0.4250
 20
-0.2379
 30
0.0000
 42
1.0000
  0
VERTEX
  8
0
 10
0.4750
 20
-0.2379
 30
0.0000
  0
SEQEND
  8
0
  0
POLYLINE
  8
0
 66
1
 10
0.0000
 20
0.0000
 30
0.0000
 40
0.0500
 41
0.0500
 70
0
  0
VERTEX
  8
0
 10
0.4750
 20
0.2379
 30
0.0000
 42
1.0000
  0
VERTEX
  8
0
 10
0.4250
 20
0.2379
 30
0.0000
  0
SEQEND
  8
0
  0
POLYLINE
  8
0
 66
1
 10
0.0000
 20
0.0000
 30
0.0000
 40
0.1000
 41
0.1000
 70
0
  0
VERTEX
  8
0
 10
0.2379
 20
-0.4500
 30
0.0000
  0
VERTEX
  8
0
 10
-0.2379
 20
-0.4500
 30
0.0000
  0
SEQEND
  8
0
  0
POLYLINE
  8
0
 66
1
 10
0.0000
 20
0.0000
 30
0.0000
 40
0.0500
 41
0.0500
 70
0
  0
VERTEX
  8
0
 10
-0.2379
 20
-0.4250
 30
0.0000
 42
1.0000
  0
VERTEX
  8
0
 10
-0.2379
 20
-0.4750
 30
0.0000
  0
SEQEND
  8
0
  0
POLYLINE
  8
0
 66
1
 10
0.0000
 20
0.0000
 30
0.0000
 40
0.0500
 41
0.0500
 70
0
  0
VERTEX
  8
0
 10
0.2379
 20
-0.4750
 30
0.0000
 42
1.0000
  0
VERTEX
  8
0
 10
0.2379
 20
-0.4250
 30
0.0000
  0
SEQEND
  8
0
  0
POLYLINE
  8
0
 66
1
 10
0.0000
 20
0.0000
 30
0.0000
 40
0.1000
 41
0.1000
 70
0
  0
VERTEX
  8
0
 10
-0.4500
 20
-0.2379
 30
0.0000
  0
VERTEX
  8
0
 10
-0.4500
 20
0.2379
 30
0.0000
  0
SEQEND
  8
0
  0
POLYLINE
  8
0
 66
1
 10
0.0000
 20
0.0000
 30
0.0000
 40
0.0500
 41
0.0500
 70
0
  0
VERTEX
  8
0
 10
-0.4250
 20
0.2379
 30
0.0000
 42
1.0000
  0
VERTEX
  8
0
 10
-0.4750
 20
0.2379
 30
0.0000
  0
SEQEND
  8
0
  0
POLYLINE
  8
0
 66
1
 10
0.0000
 20
0.0000
 30
0.0000
 40
0.0500
 41
0.0500
 70
0
  0
VERTEX
  8
0
 10
-0.4750
 20
-0.2379
 30
0.0000
 42
1.0000
  0
VERTEX
  8
0
 10
-0.4250
 20
-0.2379
 30
0.0000
  0
SEQEND
  8
0
  0
ENDBLK
  8
0
  0
BLOCK
  8
0
  2
LONGP100
 70
64
 10
0.0000
 20
0.0000
 30
0.0000
  3
LONGP100
  0
POLYLINE
  8
0
 66
1
 10
0.0000
 20
0.0000
 30
0.0000
 40
1.0000
 41
1.0000
 70
0
  0
VERTEX
  8
0
 10
-0.5000
 20
0.0000
 30
0.0000
  0
VERTEX
  8
0
 10
0.5000
 20
0.0000
 30
0.0000
  0
SEQEND
  8
0
  0
POLYLINE
  8
0
 66
1
 10
0.0000
 20
0.0000
 30
0.0000
 40
0.5000
 41
0.5000
 70
0
  0
VERTEX
  8
0
 10
0.5000
 20
-0.2500
 30
0.0000
 42
1.0000
  0
VERTEX
  8
0
 10
0.5000
 20
0.2500
 30
0.0000
  0
SEQEND
  8
0
  0
POLYLINE
  8
0
 66
1
 10
0.0000
 20
0.0000
 30
0.0000
 40
0.5000
 41
0.5000
 70
0
  0
VERTEX
  8
0
 10
-0.5000
 20
0.2500
 30
0.0000
 42
1.0000
  0
VERTEX
  8
0
 10
-0.5000
 20
-0.2500
 30
0.0000
  0
SEQEND
  8
0
  0
ENDBLK
  8
0
  0
ENDSEC
  0
SECTION
  2
ENTITIES
  0
LINE
  8
20
 10
-0.0318
 20
110.5218
 30
0.0000
 11
-0.0318
 21
0.0318
 31
0.0000
  0
LINE
  8
20
 10
-0.0318
 20
0.0318
 30
0.0000
 11
129.5083
 21
0.0318
 31
0.0000
  0
LINE
  8
20
 10
129.5083
 20
0.0318
 30
0.0000
 11
129.5083
 21
110.5218
 31
0.0000
  0
LINE
  8
20
 10
129.5083
 20
110.5218
 30
0.0000
 11
-0.0318
 21
110.5218
 31
0.0000
  0
POLYLINE
  8
253
 66
1
 10
0.0000
 20
0.0000
 30
0.0000
 40
0.1524
 41
0.1524
 70
0
  0
VERTEX
  8
253
 10
7.5883
 20
10.4418
 30
0.0000
 42
1.0000
  0
VERTEX
  8
253
 10
7.5883
 20
22.6418
 30
0.0000
 42
1.0000
  0
VERTEX
  8
253
 10
7.5883
 20
10.4418
 30
0.0000
  0
SEQEND
  8
0
  0
CIRCLE
  8
20
 10
8.8582
 20
12.7317
 30
0.0000
 40
0.5000
  0
CIRCLE
  8
20
 10
3.7783
 20
20.3518
 30
0.0000
 40
0.5000
  0
POLYLINE
  8
253
 66
1
 10
0.0000
 20
0.0000
 30
0.0000
 40
0.1270
 41
0.1270
 70
0
  0
VERTEX
  8
253
 10
123.1583
 20
43.8407
 30
0.0000
 42
1.0000
  0
VERTEX
  8
253
 10
123.1583
 20
50.2028
 30
0.0000
 42
1.0000
  0
VERTEX
  8
253
 10
123.1583
 20
43.8407
 30
0.0000
  0
SEQEND
  8
0
  0
POLYLINE
  8
253
 66
1
 10
0.0000
 20
0.0000
 30
0.0000
 40
0.1270
 41
0.1270
 70
0
  0
VERTEX
  8
253
 10
123.1583
 20
45.4718
 30
0.0000
 42
1.0000
  0
VERTEX
  8
253
 10
123.1583
 20
48.5718
 30
0.0000
 42
1.0000
  0
VERTEX
  8
253
 10
123.1583
 20
45.4718
 30
0.0000
  0
SEQEND
  8
0
  0
POLYLINE
  8
253
 66
1
 10
0.0000
 20
0.0000
 30
0.0000
 40
0.1524
 41
0.1524
 70
0
  0
VERTEX
  8
253
 10
123.1583
 20
44.4718
 30
0.0000
 42
1.0000
  0
VERTEX
  8
253
 10
123.1583
 20
49.5718
 30
0.0000
 42
1.0000
  0
VERTEX
  8
253
 10
123.1583
 20
44.4718
 30
0.0000
  0
SEQEND
  8
0
  0
POLYLINE
  8
253
 66
1
 10
0.0000
 20
0.0000
 30
0.0000
 40
0.1524
 41
0.1524
 70
0
  0
VERTEX
  8
253
 10
24.0983
 20
10.4418
 30
0.0000
 42
1.0000
  0
VERTEX
  8
253
 10
24.0983
 20
22.6418
 30
0.0000
 42
1.0000
  0
VERTEX
  8
253
 10
24.0983
 20
10.4418
 30
0.0000
  0
SEQEND
  8
0
  0
CIRCLE
  8
20
 10
25.3682
 20
12.7317
 30
0.0000
 40
0.5000
  0
CIRCLE
  8
20
 10
20.2883
 20
20.3518
 30
0.0000
 40
0.5000
  0
POLYLINE
  8
253
 66
1
 10
0.0000
 20
0.0000
 30
0.0000
 40
0.1524
 41
0.1524
 70
0
  0
VERTEX
  8
253
 10
40.6083
 20
10.4418
 30
0.0000
 42
1.0000
  0
VERTEX
  8
253
 10
40.6083
 20
22.6418
 30
0.0000
 42
1.0000
  0
VERTEX
  8
253
 10
40.6083
 20
10.4418
 30
0.0000
  0
SEQEND
  8
0
  0
CIRCLE
  8
20
 10
41.8783
 20
12.7317
 30
0.0000
 40
0.5000
  0
CIRCLE
  8
20
 10
36.7983
 20
20.3518
 30
0.0000
 40
0.5000
  0
POLYLINE
  8
253
 66
1
 10
0.0000
 20
0.0000
 30
0.0000
 40
0.1270
 41
0.1270
 70
0
  0
VERTEX
  8
253
 10
7.5883
 20
31.1408
 30
0.0000
 42
1.0000
  0
VERTEX
  8
253
 10
7.5883
 20
37.5027
 30
0.0000
 42
1.0000
  0
VERTEX
  8
253
 10
7.5883
 20
31.1408
 30
0.0000
  0
SEQEND
  8
0
  0
POLYLINE
  8
253
 66
1
 10
0.0000
 20
0.0000
 30
0.0000
 40
0.1270
 41
0.1270
 70
0
  0
VERTEX
  8
253
 10
7.5883
 20
32.7718
 30
0.0000
 42
1.0000
  0
VERTEX
  8
253
 10
7.5883
 20
35.8717
 30
0.0000
 42
1.0000
  0
VERTEX
  8
253
 10
7.5883
 20
32.7718
 30
0.0000
  0
SEQEND
  8
0
  0
POLYLINE
  8
253
 66
1
 10
0.0000
 20
0.0000
 30
0.0000
 40
0.1524
 41
0.1524
 70
0
  0
VERTEX
  8
253
 10
7.5883
 20
31.7718
 30
0.0000
 42
1.0000
  0
VERTEX
  8
253
 10
7.5883
 20
36.8717
 30
0.0000
 42
1.0000
  0
VERTEX
  8
253
 10
7.5883
 20
31.7718
 30
0.0000
  0
SEQEND
  8
0
  0
POLYLINE
  8
253
 66
1
 10
0.0000
 20
0.0000
 30
0.0000
 40
0.1524
 41
0.1524
 70
0
  0
VERTEX
  8
253
 10
57.1183
 20
10.4418
 30
0.0000
 42
1.0000
  0
VERTEX
  8
253
 10
57.1183
 20
22.6418
 30
0.0000
 42
1.0000
  0
VERTEX
  8
253
 10
57.1183
 20
10.4418
 30
0.0000
  0
SEQEND
  8
0
  0
CIRCLE
  8
20
 10
58.3882
 20
12.7317
 30
0.0000
 40
0.5000
  0
CIRCLE
  8
20
 10
53.3083
 20
20.3518
 30
0.0000
 40
0.5000
  0
POLYLINE
  8
253
 66
1
 10
0.0000
 20
0.0000
 30
0.0000
 40
0.1270
 41
0.1270
 70
0
  0
VERTEX
  8
253
 10
90.1382
 20
31.1408
 30
0.0000
 42
1.0000
  0
VERTEX
  8
253
 10
90.1382
 20
37.5027
 30
0.0000
 42
1.0000
  0
VERTEX
  8
253
 10
90.1382
 20
31.1408
 30
0.0000
  0
SEQEND
  8
0
  0
POLYLINE
  8
253
 66
1
 10
0.0000
 20
0.0000
 30
0.0000
 40
0.1270
 41
0.1270
 70
0
  0
VERTEX
  8
253
 10
90.1382
 20
32.7718
 30
0.0000
 42
1.0000
  0
VERTEX
  8
253
 10
90.1382
 20
35.8717
 30
0.0000
 42
1.0000
  0
VERTEX
  8
253
 10
90.1382
 20
32.7718
 30
0.0000
  0
SEQEND
  8
0
  0
POLYLINE
  8
253
 66
1
 10
0.0000
 20
0.0000
 30
0.0000
 40
0.1524
 41
0.1524
 70
0
  0
VERTEX
  8
253
 10
90.1382
 20
31.7718
 30
0.0000
 42
1.0000
  0
VERTEX
  8
253
 10
90.1382
 20
36.8717
 30
0.0000
 42
1.0000
  0
VERTEX
  8
253
 10
90.1382
 20
31.7718
 30
0.0000
  0
SEQEND
  8
0
  0
POLYLINE
  8
253
 66
1
 10
0.0000
 20
0.0000
 30
0.0000
 40
0.1524
 41
0.1524
 70
0
  0
VERTEX
  8
253
 10
73.6283
 20
10.4418
 30
0.0000
 42
1.0000
  0
VERTEX
  8
253
 10
73.6283
 20
22.6418
 30
0.0000
 42
1.0000
  0
VERTEX
  8
253
 10
73.6283
 20
10.4418
 30
0.0000
  0
SEQEND
  8
0
  0
CIRCLE
  8
20
 10
74.8983
 20
12.7317
 30
0.0000
 40
0.5000
  0
CIRCLE
  8
20
 10
69.8183
 20
20.3518
 30
0.0000
 40
0.5000
  0
POLYLINE
  8
253
 66
1
 10
0.0000
 20
0.0000
 30
0.0000
 40
0.1524
 41
0.1524
 70
0
  0
VERTEX
  8
253
 10
90.1382
 20
10.4418
 30
0.0000
 42
1.0000
  0
VERTEX
  8
253
 10
90.1382
 20
22.6418
 30
0.0000
 42
1.0000
  0
VERTEX
  8
253
 10
90.1382
 20
10.4418
 30
0.0000
  0
SEQEND
  8
0
  0
CIRCLE
  8
20
 10
91.4083
 20
12.7317
 30
0.0000
 40
0.5000
  0
CIRCLE
  8
20
 10
86.3282
 20
20.3518
 30
0.0000
 40
0.5000
  0
POLYLINE
  8
253
 66
1
 10
0.0000
 20
0.0000
 30
0.0000
 40
0.1270
 41
0.1270
 70
0
  0
VERTEX
  8
253
 10
57.1183
 20
31.1408
 30
0.0000
 42
1.0000
  0
VERTEX
  8
253
 10
57.1183
 20
37.5027
 30
0.0000
 42
1.0000
  0
VERTEX
  8
253
 10
57.1183
 20
31.1408
 30
0.0000
  0
SEQEND
  8
0
  0
POLYLINE
  8
253
 66
1
 10
0.0000
 20
0.0000
 30
0.0000
 40
0.1270
 41
0.1270
 70
0
  0
VERTEX
  8
253
 10
57.1183
 20
32.7718
 30
0.0000
 42
1.0000
  0
VERTEX
  8
253
 10
57.1183
 20
35.8717
 30
0.0000
 42
1.0000
  0
VERTEX
  8
253
 10
57.1183
 20
32.7718
 30
0.0000
  0
SEQEND
  8
0
  0
POLYLINE
  8
253
 66
1
 10
0.0000
 20
0.0000
 30
0.0000
 40
0.1524
 41
0.1524
 70
0
  0
VERTEX
  8
253
 10
57.1183
 20
31.7718
 30
0.0000
 42
1.0000
  0
VERTEX
  8
253
 10
57.1183
 20
36.8717
 30
0.0000
 42
1.0000
  0
VERTEX
  8
253
 10
57.1183
 20
31.7718
 30
0.0000
  0
SEQEND
  8
0
  0
POLYLINE
  8
253
 66
1
 10
0.0000
 20
0.0000
 30
0.0000
 40
0.1270
 41
0.1270
 70
0
  0
VERTEX
  8
253
 10
106.6483
 20
56.5408
 30
0.0000
 42
1.0000
  0
VERTEX
  8
253
 10
106.6483
 20
62.9028
 30
0.0000
 42
1.0000
  0
VERTEX
  8
253
 10
106.6483
 20
56.5408
 30
0.0000
  0
SEQEND
  8
0
  0
POLYLINE
  8
253
 66
1
 10
0.0000
 20
0.0000
 30
0.0000
 40
0.1270
 41
0.1270
 70
0
  0
VERTEX
  8
253
 10
106.6483
 20
58.1718
 30
0.0000
 42
1.0000
  0
VERTEX
  8
253
 10
106.6483
 20
61.2718
 30
0.0000
 42
1.0000
  0
VERTEX
  8
253
 10
106.6483
 20
58.1718
 30
0.0000
  0
SEQEND
  8
0
  0
POLYLINE
  8
253
 66
1
 10
0.0000
 20
0.0000
 30
0.0000
 40
0.1524
 41
0.1524
 70
0
  0
VERTEX
  8
253
 10
106.6483
 20
57.1718
 30
0.0000
 42
1.0000
  0
VERTEX
  8
253
 10
106.6483
 20
62.2718
 30
0.0000
 42
1.0000
  0
VERTEX
  8
253
 10
106.6483
 20
57.1718
 30
0.0000
  0
SEQEND
  8
0
  0
POLYLINE
  8
253
 66
1
 10
0.0000
 20
0.0000
 30
0.0000
 40
0.1270
 41
0.1270
 70
0
  0
VERTEX
  8
253
 10
123.1583
 20
31.1408
 30
0.0000
 42
1.0000
  0
VERTEX
  8
253
 10
123.1583
 20
37.5027
 30
0.0000
 42
1.0000
  0
VERTEX
  8
253
 10
123.1583
 20
31.1408
 30
0.0000
  0
SEQEND
  8
0
  0
POLYLINE
  8
253
 66
1
 10
0.0000
 20
0.0000
 30
0.0000
 40
0.1270
 41
0.1270
 70
0
  0
VERTEX
  8
253
 10
123.1583
 20
32.7718
 30
0.0000
 42
1.0000
  0
VERTEX
  8
253
 10
123.1583
 20
35.8717
 30
0.0000
 42
1.0000
  0
VERTEX
  8
253
 10
123.1583
 20
32.7718
 30
0.0000
  0
SEQEND
  8
0
  0
POLYLINE
  8
253
 66
1
 10
0.0000
 20
0.0000
 30
0.0000
 40
0.1524
 41
0.1524
 70
0
  0
VERTEX
  8
253
 10
123.1583
 20
31.7718
 30
0.0000
 42
1.0000
  0
VERTEX
  8
253
 10
123.1583
 20
36.8717
 30
0.0000
 42
1.0000
  0
VERTEX
  8
253
 10
123.1583
 20
31.7718
 30
0.0000
  0
SEQEND
  8
0
  0
POLYLINE
  8
253
 66
1
 10
0.0000
 20
0.0000
 30
0.0000
 40
0.1270
 41
0.1270
 70
0
  0
VERTEX
  8
253
 10
123.1583
 20
56.5408
 30
0.0000
 42
1.0000
  0
VERTEX
  8
253
 10
123.1583
 20
62.9028
 30
0.0000
 42
1.0000
  0
VERTEX
  8
253
 10
123.1583
 20
56.5408
 30
0.0000
  0
SEQEND
  8
0
  0
POLYLINE
  8
253
 66
1
 10
0.0000
 20
0.0000
 30
0.0000
 40
0.1270
 41
0.1270
 70
0
  0
VERTEX
  8
253
 10
123.1583
 20
58.1718
 30
0.0000
 42
1.0000
  0
VERTEX
  8
253
 10
123.1583
 20
61.2718
 30
0.0000
 42
1.0000
  0
VERTEX
  8
253
 10
123.1583
 20
58.1718
 30
0.0000
  0
SEQEND
  8
0
  0
POLYLINE
  8
253
 66
1
 10
0.0000
 20
0.0000
 30
0.0000
 40
0.1524
 41
0.1524
 70
0
  0
VERTEX
  8
253
 10
123.1583
 20
57.1718
 30
0.0000
 42
1.0000
  0
VERTEX
  8
253
 10
123.1583
 20
62.2718
 30
0.0000
 42
1.0000
  0
VERTEX
  8
253
 10
123.1583
 20
57.1718
 30
0.0000
  0
SEQEND
  8
0
  0
POLYLINE
  8
253
 66
1
 10
0.0000
 20
0.0000
 30
0.0000
 40
0.1270
 41
0.1270
 70
0
  0
VERTEX
  8
253
 10
106.6483
 20
43.8407
 30
0.0000
 42
1.0000
  0
VERTEX
  8
253
 10
106.6483
 20
50.2028
 30
0.0000
 42
1.0000
  0
VERTEX
  8
253
 10
106.6483
 20
43.8407
 30
0.0000
  0
SEQEND
  8
0
  0
POLYLINE
  8
253
 66
1
 10
0.0000
 20
0.0000
 30
0.0000
 40
0.1270
 41
0.1270
 70
0
  0
VERTEX
  8
253
 10
106.6483
 20
45.4718
 30
0.0000
 42
1.0000
  0
VERTEX
  8
253
 10
106.6483
 20
48.5718
 30
0.0000
 42
1.0000
  0
VERTEX
  8
253
 10
106.6483
 20
45.4718
 30
0.0000
  0
SEQEND
  8
0
  0
POLYLINE
  8
253
 66
1
 10
0.0000
 20
0.0000
 30
0.0000
 40
0.1524
 41
0.1524
 70
0
  0
VERTEX
  8
253
 10
106.6483
 20
44.4718
 30
0.0000
 42
1.0000
  0
VERTEX
  8
253
 10
106.6483
 20
49.5718
 30
0.0000
 42
1.0000
  0
VERTEX
  8
253
 10
106.6483
 20
44.4718
 30
0.0000
  0
SEQEND
  8
0
  0
POLYLINE
  8
253
 66
1
 10
0.0000
 20
0.0000
 30
0.0000
 40
0.1270
 41
0.1270
 70
0
  0
VERTEX
  8
253
 10
106.6483
 20
31.1408
 30
0.0000
 42
1.0000
  0
VERTEX
  8
253
 10
106.6483
 20
37.5027
 30
0.0000
 42
1.0000
  0
VERTEX
  8
253
 10
106.6483
 20
31.1408
 30
0.0000
  0
SEQEND
  8
0
  0
POLYLINE
  8
253
 66
1
 10
0.0000
 20
0.0000
 30
0.0000
 40
0.1270
 41
0.1270
 70
0
  0
VERTEX
  8
253
 10
106.6483
 20
32.7718
 30
0.0000
 42
1.0000
  0
VERTEX
  8
253
 10
106.6483
 20
35.8717
 30
0.0000
 42
1.0000
  0
VERTEX
  8
253
 10
106.6483
 20
32.7718
 30
0.0000
  0
SEQEND
  8
0
  0
POLYLINE
  8
253
 66
1
 10
0.0000
 20
0.0000
 30
0.0000
 40
0.1524
 41
0.1524
 70
0
  0
VERTEX
  8
253
 10
106.6483
 20
31.7718
 30
0.0000
 42
1.0000
  0
VERTEX
  8
253
 10
106.6483
 20
36.8717
 30
0.0000
 42
1.0000
  0
VERTEX
  8
253
 10
106.6483
 20
31.7718
 30
0.0000
  0
SEQEND
  8
0
  0
POLYLINE
  8
253
 66
1
 10
0.0000
 20
0.0000
 30
0.0000
 40
0.1270
 41
0.1270
 70
0
  0
VERTEX
  8
253
 10
24.0983
 20
55.7018
 30
0.0000
 42
1.0000
  0
VERTEX
  8
253
 10
24.0983
 20
62.5018
 30
0.0000
 42
1.0000
  0
VERTEX
  8
253
 10
24.0983
 20
55.7018
 30
0.0000
  0
SEQEND
  8
0
  0
POLYLINE
  8
253
 66
1
 10
0.0000
 20
0.0000
 30
0.0000
 40
0.1270
 41
0.1270
 70
0
  0
VERTEX
  8
253
 10
40.6083
 20
55.7018
 30
0.0000
 42
1.0000
  0
VERTEX
  8
253
 10
40.6083
 20
62.5018
 30
0.0000
 42
1.0000
  0
VERTEX
  8
253
 10
40.6083
 20
55.7018
 30
0.0000
  0
SEQEND
  8
0
  0
POLYLINE
  8
253
 66
1
 10
0.0000
 20
0.0000
 30
0.0000
 40
0.1270
 41
0.1270
 70
0
  0
VERTEX
  8
253
 10
7.5883
 20
55.7018
 30
0.0000
 42
1.0000
  0
VERTEX
  8
253
 10
7.5883
 20
62.5018
 30
0.0000
 42
1.0000
  0
VERTEX
  8
253
 10
7.5883
 20
55.7018
 30
0.0000
  0
SEQEND
  8
0
  0
CIRCLE
  8
20
 10
114.9032
 20
62.9603
 30
0.0000
 40
1.6510
  0
POLYLINE
  8
253
 66
1
 10
0.0000
 20
0.0000
 30
0.0000
 40
0.1524
 41
0.1524
 70
0
  0
VERTEX
  8
253
 10
20.7963
 20
68.2818
 30
0.0000
  0
VERTEX
  8
253
 10
20.7963
 20
71.4818
 30
0.0000
  0
SEQEND
  8
0
  0
POLYLINE
  8
253
 66
1
 10
0.0000
 20
0.0000
 30
0.0000
 40
0.0762
 41
0.0762
 70
0
  0
VERTEX
  8
253
 10
20.8344
 20
71.4818
 30
0.0000
 42
1.0000
  0
VERTEX
  8
253
 10
20.7582
 20
71.4818
 30
0.0000
  0
SEQEND
  8
0
  0
POLYLINE
  8
253
 66
1
 10
0.0000
 20
0.0000
 30
0.0000
 40
0.0762
 41
0.0762
 70
0
  0
VERTEX
  8
253
 10
20.7582
 20
68.2818
 30
0.0000
 42
1.0000
  0
VERTEX
  8
253
 10
20.8344
 20
68.2818
 30
0.0000
  0
SEQEND
  8
0
  0
POLYLINE
  8
253
 66
1
 10
0.0000
 20
0.0000
 30
0.0000
 40
0.1524
 41
0.1524
 70
0
  0
VERTEX
  8
253
 10
20.7963
 20
71.4818
 30
0.0000
  0
VERTEX
  8
253
 10
27.4002
 20
71.4818
 30
0.0000
  0
SEQEND
  8
0
  0
POLYLINE
  8
253
 66
1
 10
0.0000
 20
0.0000
 30
0.0000
 40
0.0762
 41
0.0762
 70
0
  0
VERTEX
  8
253
 10
27.4002
 20
71.4437
 30
0.0000
 42
1.0000
  0
VERTEX
  8
253
 10
27.4002
 20
71.5199
 30
0.0000
  0
SEQEND
  8
0
  0
POLYLINE
  8
253
 66
1
 10
0.0000
 20
0.0000
 30
0.0000
 40
0.0762
 41
0.0762
 70
0
  0
VERTEX
  8
253
 10
20.7963
 20
71.5199
 30
0.0000
 42
1.0000
  0
VERTEX
  8
253
 10
20.7963
 20
71.4437
 30
0.0000
  0
SEQEND
  8
0
  0
POLYLINE
  8
253
 66
1
 10
0.0000
 20
0.0000
 30
0.0000
 40
0.1524
 41
0.1524
 70
0
  0
VERTEX
  8
253
 10
27.4002
 20
71.4818
 30
0.0000
  0
VERTEX
  8
253
 10
27.4002
 20
68.2818
 30
0.0000
  0
SEQEND
  8
0
  0
POLYLINE
  8
253
 66
1
 10
0.0000
 20
0.0000
 30
0.0000
 40
0.0762
 41
0.0762
 70
0
  0
VERTEX
  8
253
 10
27.3621
 20
68.2818
 30
0.0000
 42
1.0000
  0
VERTEX
  8
253
 10
27.4383
 20
68.2818
 30
0.0000
  0
SEQEND
  8
0
  0
POLYLINE
  8
253
 66
1
 10
0.0000
 20
0.0000
 30
0.0000
 40
0.0762
 41
0.0762
 70
0
  0
VERTEX
  8
253
 10
27.4383
 20
71.4818
 30
0.0000
 42
1.0000
  0
VERTEX
  8
253
 10
27.3621
 20
71.4818
 30
0.0000
  0
SEQEND
  8
0
  0
POLYLINE
  8
253
 66
1
 10
0.0000
 20
0.0000
 30
0.0000
 40
0.1524
 41
0.1524
 70
0
  0
VERTEX
  8
253
 10
27.4002
 20
68.2818
 30
0.0000
  0
VERTEX
  8
253
 10
20.7963
 20
68.2818
 30
0.0000
  0
SEQEND
  8
0
  0
POLYLINE
  8
253
 66
1
 10
0.0000
 20
0.0000
 30
0.0000
 40
0.0762
 41
0.0762
 70
0
  0
VERTEX
  8
253
 10
20.7963
 20
68.3199
 30
0.0000
 42
1.0000
  0
VERTEX
  8
253
 10
20.7963
 20
68.2437
 30
0.0000
  0
SEQEND
  8
0
  0
POLYLINE
  8
253
 66
1
 10
0.0000
 20
0.0000
 30
0.0000
 40
0.0762
 41
0.0762
 70
0
  0
VERTEX
  8
253
 10
27.4002
 20
68.2437
 30
0.0000
 42
1.0000
  0
VERTEX
  8
253
 10
27.4002
 20
68.3199
 30
0.0000
  0
SEQEND
  8
0
  0
POLYLINE
  8
253
 66
1
 10
0.0000
 20
0.0000
 30
0.0000
 40
0.1524
 41
0.1524
 70
0
  0
VERTEX
  8
253
 10
37.3062
 20
68.2818
 30
0.0000
  0
VERTEX
  8
253
 10
37.3062
 20
71.4818
 30
0.0000
  0
SEQEND
  8
0
  0
POLYLINE
  8
253
 66
1
 10
0.0000
 20
0.0000
 30
0.0000
 40
0.0762
 41
0.0762
 70
0
  0
VERTEX
  8
253
 10
37.3443
 20
71.4818
 30
0.0000
 42
1.0000
  0
VERTEX
  8
253
 10
37.2681
 20
71.4818
 30
0.0000
  0
SEQEND
  8
0
  0
POLYLINE
  8
253
 66
1
 10
0.0000
 20
0.0000
 30
0.0000
 40
0.0762
 41
0.0762
 70
0
  0
VERTEX
  8
253
 10
37.2681
 20
68.2818
 30
0.0000
 42
1.0000
  0
VERTEX
  8
253
 10
37.3443
 20
68.2818
 30
0.0000
  0
SEQEND
  8
0
  0
POLYLINE
  8
253
 66
1
 10
0.0000
 20
0.0000
 30
0.0000
 40
0.1524
 41
0.1524
 70
0
  0
VERTEX
  8
253
 10
37.3062
 20
71.4818
 30
0.0000
  0
VERTEX
  8
253
 10
43.9103
 20
71.4818
 30
0.0000
  0
SEQEND
  8
0
  0
POLYLINE
  8
253
 66
1
 10
0.0000
 20
0.0000
 30
0.0000
 40
0.0762
 41
0.0762
 70
0
  0
VERTEX
  8
253
 10
43.9103
 20
71.4437
 30
0.0000
 42
1.0000
  0
VERTEX
  8
253
 10
43.9103
 20
71.5199
 30
0.0000
  0
SEQEND
  8
0
  0
POLYLINE
  8
253
 66
1
 10
0.0000
 20
0.0000
 30
0.0000
 40
0.0762
 41
0.0762
 70
0
  0
VERTEX
  8
253
 10
37.3062
 20
71.5199
 30
0.0000
 42
1.0000
  0
VERTEX
  8
253
 10
37.3062
 20
71.4437
 30
0.0000
  0
SEQEND
  8
0
  0
POLYLINE
  8
253
 66
1
 10
0.0000
 20
0.0000
 30
0.0000
 40
0.1524
 41
0.1524
 70
0
  0
VERTEX
  8
253
 10
43.9103
 20
71.4818
 30
0.0000
  0
VERTEX
  8
253
 10
43.9103
 20
68.2818
 30
0.0000
  0
SEQEND
  8
0
  0
POLYLINE
  8
253
 66
1
 10
0.0000
 20
0.0000
 30
0.0000
 40
0.0762
 41
0.0762
 70
0
  0
VERTEX
  8
253
 10
43.8722
 20
68.2818
 30
0.0000
 42
1.0000
  0
VERTEX
  8
253
 10
43.9484
 20
68.2818
 30
0.0000
  0
SEQEND
  8
0
  0
POLYLINE
  8
253
 66
1
 10
0.0000
 20
0.0000
 30
0.0000
 40
0.0762
 41
0.0762
 70
0
  0
VERTEX
  8
253
 10
43.9484
 20
71.4818
 30
0.0000
 42
1.0000
  0
VERTEX
  8
253
 10
43.8722
 20
71.4818
 30
0.0000
  0
SEQEND
  8
0
  0
POLYLINE
  8
253
 66
1
 10
0.0000
 20
0.0000
 30
0.0000
 40
0.1524
 41
0.1524
 70
0
  0
VERTEX
  8
253
 10
43.9103
 20
68.2818
 30
0.0000
  0
VERTEX
  8
253
 10
37.3062
 20
68.2818
 30
0.0000
  0
SEQEND
  8
0
  0
POLYLINE
  8
253
 66
1
 10
0.0000
 20
0.0000
 30
0.0000
 40
0.0762
 41
0.0762
 70
0
  0
VERTEX
  8
253
 10
37.3062
 20
68.3199
 30
0.0000
 42
1.0000
  0
VERTEX
  8
253
 10
37.3062
 20
68.2437
 30
0.0000
  0
SEQEND
  8
0
  0
POLYLINE
  8
253
 66
1
 10
0.0000
 20
0.0000
 30
0.0000
 40
0.0762
 41
0.0762
 70
0
  0
VERTEX
  8
253
 10
43.9103
 20
68.2437
 30
0.0000
 42
1.0000
  0
VERTEX
  8
253
 10
43.9103
 20
68.3199
 30
0.0000
  0
SEQEND
  8
0
  0
POLYLINE
  8
253
 66
1
 10
0.0000
 20
0.0000
 30
0.0000
 40
0.1270
 41
0.1270
 70
0
  0
VERTEX
  8
253
 10
7.5883
 20
81.9595
 30
0.0000
 42
1.0000
  0
VERTEX
  8
253
 10
7.5883
 20
88.2840
 30
0.0000
 42
1.0000
  0
VERTEX
  8
253
 10
7.5883
 20
81.9595
 30
0.0000
  0
SEQEND
  8
0
  0
POLYLINE
  8
253
 66
1
 10
0.0000
 20
0.0000
 30
0.0000
 40
0.1270
 41
0.1270
 70
0
  0
VERTEX
  8
253
 10
24.0983
 20
81.9595
 30
0.0000
 42
1.0000
  0
VERTEX
  8
253
 10
24.0983
 20
88.2840
 30
0.0000
 42
1.0000
  0
VERTEX
  8
253
 10
24.0983
 20
81.9595
 30
0.0000
  0
SEQEND
  8
0
  0
POLYLINE
  8
253
 66
1
 10
0.0000
 20
0.0000
 30
0.0000
 40
0.1270
 41
0.1270
 70
0
  0
VERTEX
  8
253
 10
40.6083
 20
81.9595
 30
0.0000
 42
1.0000
  0
VERTEX
  8
253
 10
40.6083
 20
88.2840
 30
0.0000
 42
1.0000
  0
VERTEX
  8
253
 10
40.6083
 20
81.9595
 30
0.0000
  0
SEQEND
  8
0
  0
POLYLINE
  8
253
 66
1
 10
0.0000
 20
0.0000
 30
0.0000
 40
0.1270
 41
0.1270
 70
0
  0
VERTEX
  8
253
 10
57.1183
 20
81.9595
 30
0.0000
 42
1.0000
  0
VERTEX
  8
253
 10
57.1183
 20
88.2840
 30
0.0000
 42
1.0000
  0
VERTEX
  8
253
 10
57.1183
 20
81.9595
 30
0.0000
  0
SEQEND
  8
0
  0
POLYLINE
  8
253
 66
1
 10
0.0000
 20
0.0000
 30
0.0000
 40
0.1270
 41
0.1270
 70
0
  0
VERTEX
  8
253
 10
73.6283
 20
81.9595
 30
0.0000
 42
1.0000
  0
VERTEX
  8
253
 10
73.6283
 20
88.2840
 30
0.0000
 42
1.0000
  0
VERTEX
  8
253
 10
73.6283
 20
81.9595
 30
0.0000
  0
SEQEND
  8
0
  0
POLYLINE
  8
253
 66
1
 10
0.0000
 20
0.0000
 30
0.0000
 40
0.1016
 41
0.1016
 70
0
  0
VERTEX
  8
253
 10
55.8483
 20
51.8708
 30
0.0000
 42
1.0000
  0
VERTEX
  8
253
 10
55.8483
 20
54.8728
 30
0.0000
 42
1.0000
  0
VERTEX
  8
253
 10
55.8483
 20
51.8708
 30
0.0000
  0
SEQEND
  8
0
  0
POLYLINE
  8
253
 66
1
 10
0.0000
 20
0.0000
 30
0.0000
 40
0.1016
 41
0.1016
 70
0
  0
VERTEX
  8
253
 10
60.9283
 20
55.6808
 30
0.0000
 42
1.0000
  0
VERTEX
  8
253
 10
60.9283
 20
58.6828
 30
0.0000
 42
1.0000
  0
VERTEX
  8
253
 10
60.9283
 20
55.6808
 30
0.0000
  0
SEQEND
  8
0
  0
POLYLINE
  8
253
 66
1
 10
0.0000
 20
0.0000
 30
0.0000
 40
0.1016
 41
0.1016
 70
0
  0
VERTEX
  8
253
 10
67.2782
 20
58.2208
 30
0.0000
 42
1.0000
  0
VERTEX
  8
253
 10
67.2782
 20
61.2228
 30
0.0000
 42
1.0000
  0
VERTEX
  8
253
 10
67.2782
 20
58.2208
 30
0.0000
  0
SEQEND
  8
0
  0
POLYLINE
  8
253
 66
1
 10
0.0000
 20
0.0000
 30
0.0000
 40
0.1016
 41
0.1016
 70
0
  0
VERTEX
  8
253
 10
73.6283
 20
59.4908
 30
0.0000
 42
1.0000
  0
VERTEX
  8
253
 10
73.6283
 20
62.4928
 30
0.0000
 42
1.0000
  0
VERTEX
  8
253
 10
73.6283
 20
59.4908
 30
0.0000
  0
SEQEND
  8
0
  0
POLYLINE
  8
253
 66
1
 10
0.0000
 20
0.0000
 30
0.0000
 40
0.1016
 41
0.1016
 70
0
  0
VERTEX
  8
253
 10
79.9783
 20
58.2208
 30
0.0000
 42
1.0000
  0
VERTEX
  8
253
 10
79.9783
 20
61.2228
 30
0.0000
 42
1.0000
  0
VERTEX
  8
253
 10
79.9783
 20
58.2208
 30
0.0000
  0
SEQEND
  8
0
  0
POLYLINE
  8
253
 66
1
 10
0.0000
 20
0.0000
 30
0.0000
 40
0.1016
 41
0.1016
 70
0
  0
VERTEX
  8
253
 10
86.3282
 20
55.6808
 30
0.0000
 42
1.0000
  0
VERTEX
  8
253
 10
86.3282
 20
58.6828
 30
0.0000
 42
1.0000
  0
VERTEX
  8
253
 10
86.3282
 20
55.6808
 30
0.0000
  0
SEQEND
  8
0
  0
POLYLINE
  8
253
 66
1
 10
0.0000
 20
0.0000
 30
0.0000
 40
0.1016
 41
0.1016
 70
0
  0
VERTEX
  8
253
 10
91.4083
 20
51.8708
 30
0.0000
 42
1.0000
  0
VERTEX
  8
253
 10
91.4083
 20
54.8728
 30
0.0000
 42
1.0000
  0
VERTEX
  8
253
 10
91.4083
 20
51.8708
 30
0.0000
  0
SEQEND
  8
0
  0
POLYLINE
  8
253
 66
1
 10
0.0000
 20
0.0000
 30
0.0000
 40
0.1016
 41
0.1016
 70
0
  0
VERTEX
  8
253
 10
7.5883
 20
23.4545
 30
0.0000
 42
1.0000
  0
VERTEX
  8
253
 10
7.5883
 20
26.4565
 30
0.0000
 42
1.0000
  0
VERTEX
  8
253
 10
7.5883
 20
23.4545
 30
0.0000
  0
SEQEND
  8
0
  0
POLYLINE
  8
253
 66
1
 10
0.0000
 20
0.0000
 30
0.0000
 40
0.1016
 41
0.1016
 70
0
  0
VERTEX
  8
253
 10
24.0983
 20
23.4545
 30
0.0000
 42
1.0000
  0
VERTEX
  8
253
 10
24.0983
 20
26.4565
 30
0.0000
 42
1.0000
  0
VERTEX
  8
253
 10
24.0983
 20
23.4545
 30
0.0000
  0
SEQEND
  8
0
  0
POLYLINE
  8
253
 66
1
 10
0.0000
 20
0.0000
 30
0.0000
 40
0.1016
 41
0.1016
 70
0
  0
VERTEX
  8
253
 10
40.6083
 20
23.4545
 30
0.0000
 42
1.0000
  0
VERTEX
  8
253
 10
40.6083
 20
26.4565
 30
0.0000
 42
1.0000
  0
VERTEX
  8
253
 10
40.6083
 20
23.4545
 30
0.0000
  0
SEQEND
  8
0
  0
POLYLINE
  8
253
 66
1
 10
0.0000
 20
0.0000
 30
0.0000
 40
0.1016
 41
0.1016
 70
0
  0
VERTEX
  8
253
 10
57.1183
 20
23.4545
 30
0.0000
 42
1.0000
  0
VERTEX
  8
253
 10
57.1183
 20
26.4565
 30
0.0000
 42
1.0000
  0
VERTEX
  8
253
 10
57.1183
 20
23.4545
 30
0.0000
  0
SEQEND
  8
0
  0
POLYLINE
  8
253
 66
1
 10
0.0000
 20
0.0000
 30
0.0000
 40
0.1016
 41
0.1016
 70
0
  0
VERTEX
  8
253
 10
73.6283
 20
23.4545
 30
0.0000
 42
1.0000
  0
VERTEX
  8
253
 10
73.6283
 20
26.4565
 30
0.0000
 42
1.0000
  0
VERTEX
  8
253
 10
73.6283
 20
23.4545
 30
0.0000
  0
SEQEND
  8
0
  0
POLYLINE
  8
253
 66
1
 10
0.0000
 20
0.0000
 30
0.0000
 40
0.1016
 41
0.1016
 70
0
  0
VERTEX
  8
253
 10
90.1382
 20
23.4545
 30
0.0000
 42
1.0000
  0
VERTEX
  8
253
 10
90.1382
 20
26.4565
 30
0.0000
 42
1.0000
  0
VERTEX
  8
253
 10
90.1382
 20
23.4545
 30
0.0000
  0
SEQEND
  8
0
  0
POLYLINE
  8
253
 66
1
 10
0.0000
 20
0.0000
 30
0.0000
 40
0.1016
 41
0.1016
 70
0
  0
VERTEX
  8
253
 10
106.6483
 20
23.4545
 30
0.0000
 42
1.0000
  0
VERTEX
  8
253
 10
106.6483
 20
26.4565
 30
0.0000
 42
1.0000
  0
VERTEX
  8
253
 10
106.6483
 20
23.4545
 30
0.0000
  0
SEQEND
  8
0
  0
POLYLINE
  8
253
 66
1
 10
0.0000
 20
0.0000
 30
0.0000
 40
0.1016
 41
0.1016
 70
0
  0
VERTEX
  8
253
 10
90.1382
 20
39.1708
 30
0.0000
 42
1.0000
  0
VERTEX
  8
253
 10
90.1382
 20
42.1728
 30
0.0000
 42
1.0000
  0
VERTEX
  8
253
 10
90.1382
 20
39.1708
 30
0.0000
  0
SEQEND
  8
0
  0
POLYLINE
  8
253
 66
1
 10
0.0000
 20
0.0000
 30
0.0000
 40
0.1016
 41
0.1016
 70
0
  0
VERTEX
  8
253
 10
123.1583
 20
23.4545
 30
0.0000
 42
1.0000
  0
VERTEX
  8
253
 10
123.1583
 20
26.4565
 30
0.0000
 42
1.0000
  0
VERTEX
  8
253
 10
123.1583
 20
23.4545
 30
0.0000
  0
SEQEND
  8
0
  0
POLYLINE
  8
253
 66
1
 10
0.0000
 20
0.0000
 30
0.0000
 40
0.1016
 41
0.1016
 70
0
  0
VERTEX
  8
253
 10
57.1183
 20
39.1708
 30
0.0000
 42
1.0000
  0
VERTEX
  8
253
 10
57.1183
 20
42.1728
 30
0.0000
 42
1.0000
  0
VERTEX
  8
253
 10
57.1183
 20
39.1708
 30
0.0000
  0
SEQEND
  8
0
  0
POLYLINE
  8
253
 66
1
 10
0.0000
 20
0.0000
 30
0.0000
 40
0.1270
 41
0.1270
 70
0
  0
VERTEX
  8
253
 10
123.1583
 20
81.9595
 30
0.0000
 42
1.0000
  0
VERTEX
  8
253
 10
123.1583
 20
88.2840
 30
0.0000
 42
1.0000
  0
VERTEX
  8
253
 10
123.1583
 20
81.9595
 30
0.0000
  0
SEQEND
  8
0
  0
POLYLINE
  8
253
 66
1
 10
0.0000
 20
0.0000
 30
0.0000
 40
0.1270
 41
0.1270
 70
0
  0
VERTEX
  8
253
 10
123.1583
 20
95.9295
 30
0.0000
 42
1.0000
  0
VERTEX
  8
253
 10
123.1583
 20
102.2540
 30
0.0000
 42
1.0000
  0
VERTEX
  8
253
 10
123.1583
 20
95.9295
 30
0.0000
  0
SEQEND
  8
0
  0
POLYLINE
  8
253
 66
1
 10
0.0000
 20
0.0000
 30
0.0000
 40
0.1270
 41
0.1270
 70
0
  0
VERTEX
  8
253
 10
24.0983
 20
31.5718
 30
0.0000
 42
1.0000
  0
VERTEX
  8
253
 10
24.0983
 20
38.3717
 30
0.0000
 42
1.0000
  0
VERTEX
  8
253
 10
24.0983
 20
31.5718
 30
0.0000
  0
SEQEND
  8
0
  0
POLYLINE
  8
253
 66
1
 10
0.0000
 20
0.0000
 30
0.0000
 40
0.1270
 41
0.1270
 70
0
  0
VERTEX
  8
253
 10
40.6083
 20
31.5718
 30
0.0000
 42
1.0000
  0
VERTEX
  8
253
 10
40.6083
 20
38.3717
 30
0.0000
 42
1.0000
  0
VERTEX
  8
253
 10
40.6083
 20
31.5718
 30
0.0000
  0
SEQEND
  8
0
  0
POLYLINE
  8
253
 66
1
 10
0.0000
 20
0.0000
 30
0.0000
 40
0.1270
 41
0.1270
 70
0
  0
VERTEX
  8
253
 10
7.5883
 20
95.9295
 30
0.0000
 42
1.0000
  0
VERTEX
  8
253
 10
7.5883
 20
102.2540
 30
0.0000
 42
1.0000
  0
VERTEX
  8
253
 10
7.5883
 20
95.9295
 30
0.0000
  0
SEQEND
  8
0
  0
POLYLINE
  8
253
 66
1
 10
0.0000
 20
0.0000
 30
0.0000
 40
0.1270
 41
0.1270
 70
0
  0
VERTEX
  8
253
 10
73.6283
 20
95.9295
 30
0.0000
 42
1.0000
  0
VERTEX
  8
253
 10
73.6283
 20
102.2540
 30
0.0000
 42
1.0000
  0
VERTEX
  8
253
 10
73.6283
 20
95.9295
 30
0.0000
  0
SEQEND
  8
0
  0
POLYLINE
  8
253
 66
1
 10
0.0000
 20
0.0000
 30
0.0000
 40
0.1270
 41
0.1270
 70
0
  0
VERTEX
  8
253
 10
24.0983
 20
95.9295
 30
0.0000
 42
1.0000
  0
VERTEX
  8
253
 10
24.0983
 20
102.2540
 30
0.0000
 42
1.0000
  0
VERTEX
  8
253
 10
24.0983
 20
95.9295
 30
0.0000
  0
SEQEND
  8
0
  0
POLYLINE
  8
253
 66
1
 10
0.0000
 20
0.0000
 30
0.0000
 40
0.1270
 41
0.1270
 70
0
  0
VERTEX
  8
253
 10
40.6083
 20
95.9295
 30
0.0000
 42
1.0000
  0
VERTEX
  8
253
 10
40.6083
 20
102.2540
 30
0.0000
 42
1.0000
  0
VERTEX
  8
253
 10
40.6083
 20
95.9295
 30
0.0000
  0
SEQEND
  8
0
  0
POLYLINE
  8
253
 66
1
 10
0.0000
 20
0.0000
 30
0.0000
 40
0.1270
 41
0.1270
 70
0
  0
VERTEX
  8
253
 10
57.1183
 20
95.9295
 30
0.0000
 42
1.0000
  0
VERTEX
  8
253
 10
57.1183
 20
102.2540
 30
0.0000
 42
1.0000
  0
VERTEX
  8
253
 10
57.1183
 20
95.9295
 30
0.0000
  0
SEQEND
  8
0
  0
POLYLINE
  8
253
 66
1
 10
0.0000
 20
0.0000
 30
0.0000
 40
0.1524
 41
0.1524
 70
0
  0
VERTEX
  8
253
 10
20.7963
 20
74.6317
 30
0.0000
  0
VERTEX
  8
253
 10
20.7963
 20
77.8317
 30
0.0000
  0
SEQEND
  8
0
  0
POLYLINE
  8
253
 66
1
 10
0.0000
 20
0.0000
 30
0.0000
 40
0.0762
 41
0.0762
 70
0
  0
VERTEX
  8
253
 10
20.8344
 20
77.8317
 30
0.0000
 42
1.0000
  0
VERTEX
  8
253
 10
20.7582
 20
77.8317
 30
0.0000
  0
SEQEND
  8
0
  0
POLYLINE
  8
253
 66
1
 10
0.0000
 20
0.0000
 30
0.0000
 40
0.0762
 41
0.0762
 70
0
  0
VERTEX
  8
253
 10
20.7582
 20
74.6317
 30
0.0000
 42
1.0000
  0
VERTEX
  8
253
 10
20.8344
 20
74.6317
 30
0.0000
  0
SEQEND
  8
0
  0
POLYLINE
  8
253
 66
1
 10
0.0000
 20
0.0000
 30
0.0000
 40
0.1524
 41
0.1524
 70
0
  0
VERTEX
  8
253
 10
20.7963
 20
77.8317
 30
0.0000
  0
VERTEX
  8
253
 10
27.4002
 20
77.8317
 30
0.0000
  0
SEQEND
  8
0
  0
POLYLINE
  8
253
 66
1
 10
0.0000
 20
0.0000
 30
0.0000
 40
0.0762
 41
0.0762
 70
0
  0
VERTEX
  8
253
 10
27.4002
 20
77.7936
 30
0.0000
 42
1.0000
  0
VERTEX
  8
253
 10
27.4002
 20
77.8698
 30
0.0000
  0
SEQEND
  8
0
  0
POLYLINE
  8
253
 66
1
 10
0.0000
 20
0.0000
 30
0.0000
 40
0.0762
 41
0.0762
 70
0
  0
VERTEX
  8
253
 10
20.7963
 20
77.8698
 30
0.0000
 42
1.0000
  0
VERTEX
  8
253
 10
20.7963
 20
77.7936
 30
0.0000
  0
SEQEND
  8
0
  0
POLYLINE
  8
253
 66
1
 10
0.0000
 20
0.0000
 30
0.0000
 40
0.1524
 41
0.1524
 70
0
  0
VERTEX
  8
253
 10
27.4002
 20
77.8317
 30
0.0000
  0
VERTEX
  8
253
 10
27.4002
 20
74.6317
 30
0.0000
  0
SEQEND
  8
0
  0
POLYLINE
  8
253
 66
1
 10
0.0000
 20
0.0000
 30
0.0000
 40
0.0762
 41
0.0762
 70
0
  0
VERTEX
  8
253
 10
27.3621
 20
74.6317
 30
0.0000
 42
1.0000
  0
VERTEX
  8
253
 10
27.4383
 20
74.6317
 30
0.0000
  0
SEQEND
  8
0
  0
POLYLINE
  8
253
 66
1
 10
0.0000
 20
0.0000
 30
0.0000
 40
0.0762
 41
0.0762
 70
0
  0
VERTEX
  8
253
 10
27.4383
 20
77.8317
 30
0.0000
 42
1.0000
  0
VERTEX
  8
253
 10
27.3621
 20
77.8317
 30
0.0000
  0
SEQEND
  8
0
  0
POLYLINE
  8
253
 66
1
 10
0.0000
 20
0.0000
 30
0.0000
 40
0.1524
 41
0.1524
 70
0
  0
VERTEX
  8
253
 10
27.4002
 20
74.6317
 30
0.0000
  0
VERTEX
  8
253
 10
20.7963
 20
74.6317
 30
0.0000
  0
SEQEND
  8
0
  0
POLYLINE
  8
253
 66
1
 10
0.0000
 20
0.0000
 30
0.0000
 40
0.0762
 41
0.0762
 70
0
  0
VERTEX
  8
253
 10
20.7963
 20
74.6698
 30
0.0000
 42
1.0000
  0
VERTEX
  8
253
 10
20.7963
 20
74.5936
 30
0.0000
  0
SEQEND
  8
0
  0
POLYLINE
  8
253
 66
1
 10
0.0000
 20
0.0000
 30
0.0000
 40
0.0762
 41
0.0762
 70
0
  0
VERTEX
  8
253
 10
27.4002
 20
74.5936
 30
0.0000
 42
1.0000
  0
VERTEX
  8
253
 10
27.4002
 20
74.6698
 30
0.0000
  0
SEQEND
  8
0
  0
POLYLINE
  8
253
 66
1
 10
0.0000
 20
0.0000
 30
0.0000
 40
0.1524
 41
0.1524
 70
0
  0
VERTEX
  8
253
 10
37.3062
 20
74.6317
 30
0.0000
  0
VERTEX
  8
253
 10
37.3062
 20
77.8317
 30
0.0000
  0
SEQEND
  8
0
  0
POLYLINE
  8
253
 66
1
 10
0.0000
 20
0.0000
 30
0.0000
 40
0.0762
 41
0.0762
 70
0
  0
VERTEX
  8
253
 10
37.3443
 20
77.8317
 30
0.0000
 42
1.0000
  0
VERTEX
  8
253
 10
37.2681
 20
77.8317
 30
0.0000
  0
SEQEND
  8
0
  0
POLYLINE
  8
253
 66
1
 10
0.0000
 20
0.0000
 30
0.0000
 40
0.0762
 41
0.0762
 70
0
  0
VERTEX
  8
253
 10
37.2681
 20
74.6317
 30
0.0000
 42
1.0000
  0
VERTEX
  8
253
 10
37.3443
 20
74.6317
 30
0.0000
  0
SEQEND
  8
0
  0
POLYLINE
  8
253
 66
1
 10
0.0000
 20
0.0000
 30
0.0000
 40
0.1524
 41
0.1524
 70
0
  0
VERTEX
  8
253
 10
37.3062
 20
77.8317
 30
0.0000
  0
VERTEX
  8
253
 10
43.9103
 20
77.8317
 30
0.0000
  0
SEQEND
  8
0
  0
POLYLINE
  8
253
 66
1
 10
0.0000
 20
0.0000
 30
0.0000
 40
0.0762
 41
0.0762
 70
0
  0
VERTEX
  8
253
 10
43.9103
 20
77.7936
 30
0.0000
 42
1.0000
  0
VERTEX
  8
253
 10
43.9103
 20
77.8698
 30
0.0000
  0
SEQEND
  8
0
  0
POLYLINE
  8
253
 66
1
 10
0.0000
 20
0.0000
 30
0.0000
 40
0.0762
 41
0.0762
 70
0
  0
VERTEX
  8
253
 10
37.3062
 20
77.8698
 30
0.0000
 42
1.0000
  0
VERTEX
  8
253
 10
37.3062
 20
77.7936
 30
0.0000
  0
SEQEND
  8
0
  0
POLYLINE
  8
253
 66
1
 10
0.0000
 20
0.0000
 30
0.0000
 40
0.1524
 41
0.1524
 70
0
  0
VERTEX
  8
253
 10
43.9103
 20
77.8317
 30
0.0000
  0
VERTEX
  8
253
 10
43.9103
 20
74.6317
 30
0.0000
  0
SEQEND
  8
0
  0
POLYLINE
  8
253
 66
1
 10
0.0000
 20
0.0000
 30
0.0000
 40
0.0762
 41
0.0762
 70
0
  0
VERTEX
  8
253
 10
43.8722
 20
74.6317
 30
0.0000
 42
1.0000
  0
VERTEX
  8
253
 10
43.9484
 20
74.6317
 30
0.0000
  0
SEQEND
  8
0
  0
POLYLINE
  8
253
 66
1
 10
0.0000
 20
0.0000
 30
0.0000
 40
0.0762
 41
0.0762
 70
0
  0
VERTEX
  8
253
 10
43.9484
 20
77.8317
 30
0.0000
 42
1.0000
  0
VERTEX
  8
253
 10
43.8722
 20
77.8317
 30
0.0000
  0
SEQEND
  8
0
  0
POLYLINE
  8
253
 66
1
 10
0.0000
 20
0.0000
 30
0.0000
 40
0.1524
 41
0.1524
 70
0
  0
VERTEX
  8
253
 10
43.9103
 20
74.6317
 30
0.0000
  0
VERTEX
  8
253
 10
37.3062
 20
74.6317
 30
0.0000
  0
SEQEND
  8
0
  0
POLYLINE
  8
253
 66
1
 10
0.0000
 20
0.0000
 30
0.0000
 40
0.0762
 41
0.0762
 70
0
  0
VERTEX
  8
253
 10
37.3062
 20
74.6698
 30
0.0000
 42
1.0000
  0
VERTEX
  8
253
 10
37.3062
 20
74.5936
 30
0.0000
  0
SEQEND
  8
0
  0
POLYLINE
  8
253
 66
1
 10
0.0000
 20
0.0000
 30
0.0000
 40
0.0762
 41
0.0762
 70
0
  0
VERTEX
  8
253
 10
43.9103
 20
74.5936
 30
0.0000
 42
1.0000
  0
VERTEX
  8
253
 10
43.9103
 20
74.6698
 30
0.0000
  0
SEQEND
  8
0
  0
POLYLINE
  8
253
 66
1
 10
0.0000
 20
0.0000
 30
0.0000
 40
0.1524
 41
0.1524
 70
0
  0
VERTEX
  8
253
 10
53.8163
 20
74.6317
 30
0.0000
  0
VERTEX
  8
253
 10
53.8163
 20
77.8317
 30
0.0000
  0
SEQEND
  8
0
  0
POLYLINE
  8
253
 66
1
 10
0.0000
 20
0.0000
 30
0.0000
 40
0.0762
 41
0.0762
 70
0
  0
VERTEX
  8
253
 10
53.8544
 20
77.8317
 30
0.0000
 42
1.0000
  0
VERTEX
  8
253
 10
53.7782
 20
77.8317
 30
0.0000
  0
SEQEND
  8
0
  0
POLYLINE
  8
253
 66
1
 10
0.0000
 20
0.0000
 30
0.0000
 40
0.0762
 41
0.0762
 70
0
  0
VERTEX
  8
253
 10
53.7782
 20
74.6317
 30
0.0000
 42
1.0000
  0
VERTEX
  8
253
 10
53.8544
 20
74.6317
 30
0.0000
  0
SEQEND
  8
0
  0
POLYLINE
  8
253
 66
1
 10
0.0000
 20
0.0000
 30
0.0000
 40
0.1524
 41
0.1524
 70
0
  0
VERTEX
  8
253
 10
53.8163
 20
77.8317
 30
0.0000
  0
VERTEX
  8
253
 10
60.4203
 20
77.8317
 30
0.0000
  0
SEQEND
  8
0
  0
POLYLINE
  8
253
 66
1
 10
0.0000
 20
0.0000
 30
0.0000
 40
0.0762
 41
0.0762
 70
0
  0
VERTEX
  8
253
 10
60.4203
 20
77.7936
 30
0.0000
 42
1.0000
  0
VERTEX
  8
253
 10
60.4203
 20
77.8698
 30
0.0000
  0
SEQEND
  8
0
  0
POLYLINE
  8
253
 66
1
 10
0.0000
 20
0.0000
 30
0.0000
 40
0.0762
 41
0.0762
 70
0
  0
VERTEX
  8
253
 10
53.8163
 20
77.8698
 30
0.0000
 42
1.0000
  0
VERTEX
  8
253
 10
53.8163
 20
77.7936
 30
0.0000
  0
SEQEND
  8
0
  0
POLYLINE
  8
253
 66
1
 10
0.0000
 20
0.0000
 30
0.0000
 40
0.1524
 41
0.1524
 70
0
  0
VERTEX
  8
253
 10
60.4203
 20
77.8317
 30
0.0000
  0
VERTEX
  8
253
 10
60.4203
 20
74.6317
 30
0.0000
  0
SEQEND
  8
0
  0
POLYLINE
  8
253
 66
1
 10
0.0000
 20
0.0000
 30
0.0000
 40
0.0762
 41
0.0762
 70
0
  0
VERTEX
  8
253
 10
60.3822
 20
74.6317
 30
0.0000
 42
1.0000
  0
VERTEX
  8
253
 10
60.4584
 20
74.6317
 30
0.0000
  0
SEQEND
  8
0
  0
POLYLINE
  8
253
 66
1
 10
0.0000
 20
0.0000
 30
0.0000
 40
0.0762
 41
0.0762
 70
0
  0
VERTEX
  8
253
 10
60.4584
 20
77.8317
 30
0.0000
 42
1.0000
  0
VERTEX
  8
253
 10
60.3822
 20
77.8317
 30
0.0000
  0
SEQEND
  8
0
  0
POLYLINE
  8
253
 66
1
 10
0.0000
 20
0.0000
 30
0.0000
 40
0.1524
 41
0.1524
 70
0
  0
VERTEX
  8
253
 10
60.4203
 20
74.6317
 30
0.0000
  0
VERTEX
  8
253
 10
53.8163
 20
74.6317
 30
0.0000
  0
SEQEND
  8
0
  0
POLYLINE
  8
253
 66
1
 10
0.0000
 20
0.0000
 30
0.0000
 40
0.0762
 41
0.0762
 70
0
  0
VERTEX
  8
253
 10
53.8163
 20
74.6698
 30
0.0000
 42
1.0000
  0
VERTEX
  8
253
 10
53.8163
 20
74.5936
 30
0.0000
  0
SEQEND
  8
0
  0
POLYLINE
  8
253
 66
1
 10
0.0000
 20
0.0000
 30
0.0000
 40
0.0762
 41
0.0762
 70
0
  0
VERTEX
  8
253
 10
60.4203
 20
74.5936
 30
0.0000
 42
1.0000
  0
VERTEX
  8
253
 10
60.4203
 20
74.6698
 30
0.0000
  0
SEQEND
  8
0
  0
POLYLINE
  8
253
 66
1
 10
0.0000
 20
0.0000
 30
0.0000
 40
0.1524
 41
0.1524
 70
0
  0
VERTEX
  8
253
 10
70.3263
 20
74.6317
 30
0.0000
  0
VERTEX
  8
253
 10
70.3263
 20
77.8317
 30
0.0000
  0
SEQEND
  8
0
  0
POLYLINE
  8
253
 66
1
 10
0.0000
 20
0.0000
 30
0.0000
 40
0.0762
 41
0.0762
 70
0
  0
VERTEX
  8
253
 10
70.3644
 20
77.8317
 30
0.0000
 42
1.0000
  0
VERTEX
  8
253
 10
70.2882
 20
77.8317
 30
0.0000
  0
SEQEND
  8
0
  0
POLYLINE
  8
253
 66
1
 10
0.0000
 20
0.0000
 30
0.0000
 40
0.0762
 41
0.0762
 70
0
  0
VERTEX
  8
253
 10
70.2882
 20
74.6317
 30
0.0000
 42
1.0000
  0
VERTEX
  8
253
 10
70.3644
 20
74.6317
 30
0.0000
  0
SEQEND
  8
0
  0
POLYLINE
  8
253
 66
1
 10
0.0000
 20
0.0000
 30
0.0000
 40
0.1524
 41
0.1524
 70
0
  0
VERTEX
  8
253
 10
70.3263
 20
77.8317
 30
0.0000
  0
VERTEX
  8
253
 10
76.9303
 20
77.8317
 30
0.0000
  0
SEQEND
  8
0
  0
POLYLINE
  8
253
 66
1
 10
0.0000
 20
0.0000
 30
0.0000
 40
0.0762
 41
0.0762
 70
0
  0
VERTEX
  8
253
 10
76.9303
 20
77.7936
 30
0.0000
 42
1.0000
  0
VERTEX
  8
253
 10
76.9303
 20
77.8698
 30
0.0000
  0
SEQEND
  8
0
  0
POLYLINE
  8
253
 66
1
 10
0.0000
 20
0.0000
 30
0.0000
 40
0.0762
 41
0.0762
 70
0
  0
VERTEX
  8
253
 10
70.3263
 20
77.8698
 30
0.0000
 42
1.0000
  0
VERTEX
  8
253
 10
70.3263
 20
77.7936
 30
0.0000
  0
SEQEND
  8
0
  0
POLYLINE
  8
253
 66
1
 10
0.0000
 20
0.0000
 30
0.0000
 40
0.1524
 41
0.1524
 70
0
  0
VERTEX
  8
253
 10
76.9303
 20
77.8317
 30
0.0000
  0
VERTEX
  8
253
 10
76.9303
 20
74.6317
 30
0.0000
  0
SEQEND
  8
0
  0
POLYLINE
  8
253
 66
1
 10
0.0000
 20
0.0000
 30
0.0000
 40
0.0762
 41
0.0762
 70
0
  0
VERTEX
  8
253
 10
76.8922
 20
74.6317
 30
0.0000
 42
1.0000
  0
VERTEX
  8
253
 10
76.9684
 20
74.6317
 30
0.0000
  0
SEQEND
  8
0
  0
POLYLINE
  8
253
 66
1
 10
0.0000
 20
0.0000
 30
0.0000
 40
0.0762
 41
0.0762
 70
0
  0
VERTEX
  8
253
 10
76.9684
 20
77.8317
 30
0.0000
 42
1.0000
  0
VERTEX
  8
253
 10
76.8922
 20
77.8317
 30
0.0000
  0
SEQEND
  8
0
  0
POLYLINE
  8
253
 66
1
 10
0.0000
 20
0.0000
 30
0.0000
 40
0.1524
 41
0.1524
 70
0
  0
VERTEX
  8
253
 10
76.9303
 20
74.6317
 30
0.0000
  0
VERTEX
  8
253
 10
70.3263
 20
74.6317
 30
0.0000
  0
SEQEND
  8
0
  0
POLYLINE
  8
253
 66
1
 10
0.0000
 20
0.0000
 30
0.0000
 40
0.0762
 41
0.0762
 70
0
  0
VERTEX
  8
253
 10
70.3263
 20
74.6698
 30
0.0000
 42
1.0000
  0
VERTEX
  8
253
 10
70.3263
 20
74.5936
 30
0.0000
  0
SEQEND
  8
0
  0
POLYLINE
  8
253
 66
1
 10
0.0000
 20
0.0000
 30
0.0000
 40
0.0762
 41
0.0762
 70
0
  0
VERTEX
  8
253
 10
76.9303
 20
74.5936
 30
0.0000
 42
1.0000
  0
VERTEX
  8
253
 10
76.9303
 20
74.6698
 30
0.0000
  0
SEQEND
  8
0
  0
POLYLINE
  8
253
 66
1
 10
0.0000
 20
0.0000
 30
0.0000
 40
0.1270
 41
0.1270
 70
0
  0
VERTEX
  8
253
 10
73.6283
 20
31.5718
 30
0.0000
 42
1.0000
  0
VERTEX
  8
253
 10
73.6283
 20
38.3717
 30
0.0000
 42
1.0000
  0
VERTEX
  8
253
 10
73.6283
 20
31.5718
 30
0.0000
  0
SEQEND
  8
0
  0
LINE
  8
253
 10
166.4398
 20
-6.7464
 30
0.0000
 11
166.3950
 21
-6.9569
 31
0.0000
  0
LINE
  8
253
 10
166.3950
 20
-6.9569
 30
0.0000
 11
166.3140
 21
-7.1483
 31
0.0000
  0
LINE
  8
253
 10
166.3140
 20
-7.1483
 30
0.0000
 11
166.2331
 21
-7.3397
 31
0.0000
  0
LINE
  8
253
 10
166.2331
 20
-7.3397
 30
0.0000
 11
166.1159
 21
-7.5121
 31
0.0000
  0
LINE
  8
253
 10
166.1159
 20
-7.5121
 30
0.0000
 11
165.9711
 21
-7.6568
 31
0.0000
  0
LINE
  8
253
 10
165.9711
 20
-7.6568
 30
0.0000
 11
165.8263
 21
-7.8016
 31
0.0000
  0
LINE
  8
253
 10
165.8263
 20
-7.8016
 30
0.0000
 11
165.6538
 21
-7.9187
 31
0.0000
  0
LINE
  8
253
 10
165.6538
 20
-7.9187
 30
0.0000
 11
165.4624
 21
-7.9997
 31
0.0000
  0
LINE
  8
253
 10
165.4624
 20
-7.9997
 30
0.0000
 11
165.2709
 21
-8.0806
 31
0.0000
  0
LINE
  8
253
 10
165.2709
 20
-8.0806
 30
0.0000
 11
165.0605
 21
-8.1254
 31
0.0000
  0
LINE
  8
253
 10
165.0605
 20
-8.1254
 30
0.0000
 11
163.6189
 21
-8.1254
 31
0.0000
  0
LINE
  8
253
 10
163.6189
 20
-8.1254
 30
0.0000
 11
163.4084
 21
-8.0806
 31
0.0000
  0
LINE
  8
253
 10
163.4084
 20
-8.0806
 30
0.0000
 11
163.2170
 21
-7.9997
 31
0.0000
  0
LINE
  8
253
 10
163.2170
 20
-7.9997
 30
0.0000
 11
163.0255
 21
-7.9187
 31
0.0000
  0
LINE
  8
253
 10
163.0255
 20
-7.9187
 30
0.0000
 11
162.8531
 21
-7.8016
 31
0.0000
  0
LINE
  8
253
 10
162.8531
 20
-7.8016
 30
0.0000
 11
162.7083
 21
-7.6568
 31
0.0000
  0
LINE
  8
253
 10
162.7083
 20
-7.6568
 30
0.0000
 11
162.5635
 21
-7.5121
 31
0.0000
  0
LINE
  8
253
 10
162.5635
 20
-7.5121
 30
0.0000
 11
162.4463
 21
-7.3397
 31
0.0000
  0
LINE
  8
253
 10
162.4463
 20
-7.3397
 30
0.0000
 11
162.3653
 21
-7.1483
 31
0.0000
  0
LINE
  8
253
 10
162.3653
 20
-7.1483
 30
0.0000
 11
162.2843
 21
-6.9569
 31
0.0000
  0
LINE
  8
253
 10
162.2843
 20
-6.9569
 30
0.0000
 11
162.2395
 21
-6.7464
 31
0.0000
  0
LINE
  8
253
 10
162.2395
 20
-6.7464
 30
0.0000
 11
162.2395
 21
-6.3046
 31
0.0000
  0
LINE
  8
253
 10
162.2395
 20
-6.3046
 30
0.0000
 11
162.2843
 21
-6.0941
 31
0.0000
  0
LINE
  8
253
 10
162.2843
 20
-6.0941
 30
0.0000
 11
162.3653
 21
-5.9027
 31
0.0000
  0
LINE
  8
253
 10
162.3653
 20
-5.9027
 30
0.0000
 11
162.4463
 21
-5.7113
 31
0.0000
  0
LINE
  8
253
 10
162.4463
 20
-5.7113
 30
0.0000
 11
162.5635
 21
-5.5389
 31
0.0000
  0
LINE
  8
253
 10
162.5635
 20
-5.5389
 30
0.0000
 11
162.7083
 21
-5.3942
 31
0.0000
  0
LINE
  8
253
 10
162.7083
 20
-5.3942
 30
0.0000
 11
162.8531
 21
-5.2494
 31
0.0000
  0
LINE
  8
253
 10
162.8531
 20
-5.2494
 30
0.0000
 11
163.0255
 21
-5.1322
 31
0.0000
  0
LINE
  8
253
 10
163.0255
 20
-5.1322
 30
0.0000
 11
163.4084
 21
-4.9703
 31
0.0000
  0
LINE
  8
253
 10
163.4084
 20
-4.9703
 30
0.0000
 11
163.6189
 21
-4.9256
 31
0.0000
  0
LINE
  8
253
 10
163.6189
 20
-4.9256
 30
0.0000
 11
165.0605
 21
-4.9256
 31
0.0000
  0
LINE
  8
253
 10
165.0605
 20
-4.9256
 30
0.0000
 11
165.2709
 21
-4.9703
 31
0.0000
  0
LINE
  8
253
 10
165.2709
 20
-4.9703
 30
0.0000
 11
165.6538
 21
-5.1322
 31
0.0000
  0
LINE
  8
253
 10
165.6538
 20
-5.1322
 30
0.0000
 11
165.8263
 21
-5.2494
 31
0.0000
  0
LINE
  8
253
 10
165.8263
 20
-5.2494
 30
0.0000
 11
165.9711
 21
-5.3942
 31
0.0000
  0
LINE
  8
253
 10
165.9711
 20
-5.3942
 30
0.0000
 11
166.1159
 21
-5.5389
 31
0.0000
  0
LINE
  8
253
 10
166.1159
 20
-5.5389
 30
0.0000
 11
166.2331
 21
-5.7113
 31
0.0000
  0
LINE
  8
253
 10
166.2331
 20
-5.7113
 30
0.0000
 11
166.3140
 21
-5.9027
 31
0.0000
  0
LINE
  8
253
 10
166.3140
 20
-5.9027
 30
0.0000
 11
166.3950
 21
-6.0941
 31
0.0000
  0
LINE
  8
253
 10
166.3950
 20
-6.0941
 30
0.0000
 11
166.4398
 21
-6.3046
 31
0.0000
  0
LINE
  8
253
 10
166.4398
 20
-6.3046
 30
0.0000
 11
166.4398
 21
-6.7464
 31
0.0000
  0
LINE
  8
253
 10
8.9651
 20
-6.7459
 30
0.0000
 11
8.9203
 21
-6.9564
 31
0.0000
  0
LINE
  8
253
 10
8.9203
 20
-6.9564
 30
0.0000
 11
8.7584
 21
-7.3392
 31
0.0000
  0
LINE
  8
253
 10
8.7584
 20
-7.3392
 30
0.0000
 11
8.6412
 21
-7.5116
 31
0.0000
  0
LINE
  8
253
 10
8.6412
 20
-7.5116
 30
0.0000
 11
8.3516
 21
-7.8011
 31
0.0000
  0
LINE
  8
253
 10
8.3516
 20
-7.8011
 30
0.0000
 11
8.1792
 21
-7.9182
 31
0.0000
  0
LINE
  8
253
 10
8.1792
 20
-7.9182
 30
0.0000
 11
7.9877
 21
-7.9992
 31
0.0000
  0
LINE
  8
253
 10
7.9877
 20
-7.9992
 30
0.0000
 11
7.7963
 21
-8.0801
 31
0.0000
  0
LINE
  8
253
 10
7.7963
 20
-8.0801
 30
0.0000
 11
7.5858
 21
-8.1249
 31
0.0000
  0
LINE
  8
253
 10
7.5858
 20
-8.1249
 30
0.0000
 11
6.1442
 21
-8.1249
 31
0.0000
  0
LINE
  8
253
 10
6.1442
 20
-8.1249
 30
0.0000
 11
5.9337
 21
-8.0801
 31
0.0000
  0
LINE
  8
253
 10
5.9337
 20
-8.0801
 30
0.0000
 11
5.7423
 21
-7.9992
 31
0.0000
  0
LINE
  8
253
 10
5.7423
 20
-7.9992
 30
0.0000
 11
5.5508
 21
-7.9182
 31
0.0000
  0
LINE
  8
253
 10
5.5508
 20
-7.9182
 30
0.0000
 11
5.3784
 21
-7.8011
 31
0.0000
  0
LINE
  8
253
 10
5.3784
 20
-7.8011
 30
0.0000
 11
5.0888
 21
-7.5116
 31
0.0000
  0
LINE
  8
253
 10
5.0888
 20
-7.5116
 30
0.0000
 11
4.9716
 21
-7.3392
 31
0.0000
  0
LINE
  8
253
 10
4.9716
 20
-7.3392
 30
0.0000
 11
4.8097
 21
-6.9564
 31
0.0000
  0
LINE
  8
253
 10
4.8097
 20
-6.9564
 30
0.0000
 11
4.7649
 21
-6.7459
 31
0.0000
  0
LINE
  8
253
 10
4.7649
 20
-6.7459
 30
0.0000
 11
4.7649
 21
-6.3041
 31
0.0000
  0
LINE
  8
253
 10
4.7649
 20
-6.3041
 30
0.0000
 11
4.8097
 21
-6.0936
 31
0.0000
  0
LINE
  8
253
 10
4.8097
 20
-6.0936
 30
0.0000
 11
4.9716
 21
-5.7108
 31
0.0000
  0
LINE
  8
253
 10
4.9716
 20
-5.7108
 30
0.0000
 11
5.0888
 21
-5.5384
 31
0.0000
  0
LINE
  8
253
 10
5.0888
 20
-5.5384
 30
0.0000
 11
5.3784
 21
-5.2489
 31
0.0000
  0
LINE
  8
253
 10
5.3784
 20
-5.2489
 30
0.0000
 11
5.5508
 21
-5.1318
 31
0.0000
  0
LINE
  8
253
 10
5.5508
 20
-5.1318
 30
0.0000
 11
5.7423
 21
-5.0508
 31
0.0000
  0
LINE
  8
253
 10
5.7423
 20
-5.0508
 30
0.0000
 11
5.9337
 21
-4.9699
 31
0.0000
  0
LINE
  8
253
 10
5.9337
 20
-4.9699
 30
0.0000
 11
6.1442
 21
-4.9251
 31
0.0000
  0
LINE
  8
253
 10
6.1442
 20
-4.9251
 30
0.0000
 11
7.5858
 21
-4.9251
 31
0.0000
  0
LINE
  8
253
 10
7.5858
 20
-4.9251
 30
0.0000
 11
7.7963
 21
-4.9699
 31
0.0000
  0
LINE
  8
253
 10
7.7963
 20
-4.9699
 30
0.0000
 11
8.1792
 21
-5.1318
 31
0.0000
  0
LINE
  8
253
 10
8.1792
 20
-5.1318
 30
0.0000
 11
8.3516
 21
-5.2489
 31
0.0000
  0
LINE
  8
253
 10
8.3516
 20
-5.2489
 30
0.0000
 11
8.6412
 21
-5.5384
 31
0.0000
  0
LINE
  8
253
 10
8.6412
 20
-5.5384
 30
0.0000
 11
8.7584
 21
-5.7108
 31
0.0000
  0
LINE
  8
253
 10
8.7584
 20
-5.7108
 30
0.0000
 11
8.9203
 21
-6.0936
 31
0.0000
  0
LINE
  8
253
 10
8.9203
 20
-6.0936
 30
0.0000
 11
8.9651
 21
-6.3041
 31
0.0000
  0
LINE
  8
253
 10
8.9651
 20
-6.3041
 30
0.0000
 11
8.9651
 21
-6.7459
 31
0.0000
  0
LINE
  8
253
 10
171.8650
 20
118.9750
 30
0.0000
 11
171.8650
 21
-9.5250
 31
0.0000
  0
LINE
  8
253
 10
171.8650
 20
-9.5250
 30
0.0000
 11
-0.6350
 21
-9.5250
 31
0.0000
  0
LINE
  8
253
 10
-0.6350
 20
-9.5250
 30
0.0000
 11
-0.6350
 21
118.9750
 31
0.0000
  0
LINE
  8
253
 10
-0.6350
 20
118.9750
 30
0.0000
 11
171.8650
 21
118.9750
 31
0.0000
  0
LINE
  8
253
 10
8.9651
 20
115.7541
 30
0.0000
 11
8.9203
 21
115.5436
 31
0.0000
  0
LINE
  8
253
 10
8.9203
 20
115.5436
 30
0.0000
 11
8.7584
 21
115.1608
 31
0.0000
  0
LINE
  8
253
 10
8.7584
 20
115.1608
 30
0.0000
 11
8.6412
 21
114.9884
 31
0.0000
  0
LINE
  8
253
 10
8.6412
 20
114.9884
 30
0.0000
 11
8.3516
 21
114.6989
 31
0.0000
  0
LINE
  8
253
 10
8.3516
 20
114.6989
 30
0.0000
 11
8.1792
 21
114.5818
 31
0.0000
  0
LINE
  8
253
 10
8.1792
 20
114.5818
 30
0.0000
 11
7.9877
 21
114.5008
 31
0.0000
  0
LINE
  8
253
 10
7.9877
 20
114.5008
 30
0.0000
 11
7.7963
 21
114.4199
 31
0.0000
  0
LINE
  8
253
 10
7.7963
 20
114.4199
 30
0.0000
 11
7.5858
 21
114.3751
 31
0.0000
  0
LINE
  8
253
 10
7.5858
 20
114.3751
 30
0.0000
 11
6.1442
 21
114.3751
 31
0.0000
  0
LINE
  8
253
 10
6.1442
 20
114.3751
 30
0.0000
 11
5.9337
 21
114.4199
 31
0.0000
  0
LINE
  8
253
 10
5.9337
 20
114.4199
 30
0.0000
 11
5.7423
 21
114.5008
 31
0.0000
  0
LINE
  8
253
 10
5.7423
 20
114.5008
 30
0.0000
 11
5.5508
 21
114.5818
 31
0.0000
  0
LINE
  8
253
 10
5.5508
 20
114.5818
 30
0.0000
 11
5.3784
 21
114.6989
 31
0.0000
  0
LINE
  8
253
 10
5.3784
 20
114.6989
 30
0.0000
 11
5.0888
 21
114.9884
 31
0.0000
  0
LINE
  8
253
 10
5.0888
 20
114.9884
 30
0.0000
 11
4.9716
 21
115.1608
 31
0.0000
  0
LINE
  8
253
 10
4.9716
 20
115.1608
 30
0.0000
 11
4.8097
 21
115.5436
 31
0.0000
  0
LINE
  8
253
 10
4.8097
 20
115.5436
 30
0.0000
 11
4.7649
 21
115.7541
 31
0.0000
  0
LINE
  8
253
 10
4.7649
 20
115.7541
 30
0.0000
 11
4.7649
 21
116.1959
 31
0.0000
  0
LINE
  8
253
 10
4.7649
 20
116.1959
 30
0.0000
 11
4.8097
 21
116.4064
 31
0.0000
  0
LINE
  8
253
 10
4.8097
 20
116.4064
 30
0.0000
 11
4.9716
 21
116.7892
 31
0.0000
  0
LINE
  8
253
 10
4.9716
 20
116.7892
 30
0.0000
 11
5.0888
 21
116.9616
 31
0.0000
  0
LINE
  8
253
 10
5.0888
 20
116.9616
 30
0.0000
 11
5.3784
 21
117.2511
 31
0.0000
  0
LINE
  8
253
 10
5.3784
 20
117.2511
 30
0.0000
 11
5.5508
 21
117.3682
 31
0.0000
  0
LINE
  8
253
 10
5.5508
 20
117.3682
 30
0.0000
 11
5.7423
 21
117.4492
 31
0.0000
  0
LINE
  8
253
 10
5.7423
 20
117.4492
 30
0.0000
 11
5.9337
 21
117.5301
 31
0.0000
  0
LINE
  8
253
 10
5.9337
 20
117.5301
 30
0.0000
 11
6.1442
 21
117.5749
 31
0.0000
  0
LINE
  8
253
 10
6.1442
 20
117.5749
 30
0.0000
 11
7.5858
 21
117.5749
 31
0.0000
  0
LINE
  8
253
 10
7.5858
 20
117.5749
 30
0.0000
 11
7.7963
 21
117.5301
 31
0.0000
  0
LINE
  8
253
 10
7.7963
 20
117.5301
 30
0.0000
 11
8.1792
 21
117.3682
 31
0.0000
  0
LINE
  8
253
 10
8.1792
 20
117.3682
 30
0.0000
 11
8.3516
 21
117.2511
 31
0.0000
  0
LINE
  8
253
 10
8.3516
 20
117.2511
 30
0.0000
 11
8.6412
 21
116.9616
 31
0.0000
  0
LINE
  8
253
 10
8.6412
 20
116.9616
 30
0.0000
 11
8.7584
 21
116.7892
 31
0.0000
  0
LINE
  8
253
 10
8.7584
 20
116.7892
 30
0.0000
 11
8.9203
 21
116.4064
 31
0.0000
  0
LINE
  8
253
 10
8.9203
 20
116.4064
 30
0.0000
 11
8.9651
 21
116.1959
 31
0.0000
  0
LINE
  8
253
 10
8.9651
 20
116.1959
 30
0.0000
 11
8.9651
 21
115.7541
 31
0.0000
  0
LINE
  8
253
 10
166.4451
 20
115.7541
 30
0.0000
 11
166.4003
 21
115.5436
 31
0.0000
  0
LINE
  8
253
 10
166.4003
 20
115.5436
 30
0.0000
 11
166.2384
 21
115.1608
 31
0.0000
  0
LINE
  8
253
 10
166.2384
 20
115.1608
 30
0.0000
 11
166.1212
 21
114.9884
 31
0.0000
  0
LINE
  8
253
 10
166.1212
 20
114.9884
 30
0.0000
 11
165.8316
 21
114.6989
 31
0.0000
  0
LINE
  8
253
 10
165.8316
 20
114.6989
 30
0.0000
 11
165.6592
 21
114.5818
 31
0.0000
  0
LINE
  8
253
 10
165.6592
 20
114.5818
 30
0.0000
 11
165.4677
 21
114.5008
 31
0.0000
  0
LINE
  8
253
 10
165.4677
 20
114.5008
 30
0.0000
 11
165.2763
 21
114.4199
 31
0.0000
  0
LINE
  8
253
 10
165.2763
 20
114.4199
 30
0.0000
 11
165.0658
 21
114.3751
 31
0.0000
  0
LINE
  8
253
 10
165.0658
 20
114.3751
 30
0.0000
 11
163.6242
 21
114.3751
 31
0.0000
  0
LINE
  8
253
 10
163.6242
 20
114.3751
 30
0.0000
 11
163.4137
 21
114.4199
 31
0.0000
  0
LINE
  8
253
 10
163.4137
 20
114.4199
 30
0.0000
 11
163.2223
 21
114.5008
 31
0.0000
  0
LINE
  8
253
 10
163.2223
 20
114.5008
 30
0.0000
 11
163.0308
 21
114.5818
 31
0.0000
  0
LINE
  8
253
 10
163.0308
 20
114.5818
 30
0.0000
 11
162.8584
 21
114.6989
 31
0.0000
  0
LINE
  8
253
 10
162.8584
 20
114.6989
 30
0.0000
 11
162.5688
 21
114.9884
 31
0.0000
  0
LINE
  8
253
 10
162.5688
 20
114.9884
 30
0.0000
 11
162.4516
 21
115.1608
 31
0.0000
  0
LINE
  8
253
 10
162.4516
 20
115.1608
 30
0.0000
 11
162.2897
 21
115.5436
 31
0.0000
  0
LINE
  8
253
 10
162.2897
 20
115.5436
 30
0.0000
 11
162.2449
 21
115.7541
 31
0.0000
  0
LINE
  8
253
 10
162.2449
 20
115.7541
 30
0.0000
 11
162.2449
 21
116.1959
 31
0.0000
  0
LINE
  8
253
 10
162.2449
 20
116.1959
 30
0.0000
 11
162.2897
 21
116.4064
 31
0.0000
  0
LINE
  8
253
 10
162.2897
 20
116.4064
 30
0.0000
 11
162.4516
 21
116.7892
 31
0.0000
  0
LINE
  8
253
 10
162.4516
 20
116.7892
 30
0.0000
 11
162.5688
 21
116.9616
 31
0.0000
  0
LINE
  8
253
 10
162.5688
 20
116.9616
 30
0.0000
 11
162.8584
 21
117.2511
 31
0.0000
  0
LINE
  8
253
 10
162.8584
 20
117.2511
 30
0.0000
 11
163.0308
 21
117.3682
 31
0.0000
  0
LINE
  8
253
 10
163.0308
 20
117.3682
 30
0.0000
 11
163.2223
 21
117.4492
 31
0.0000
  0
LINE
  8
253
 10
163.2223
 20
117.4492
 30
0.0000
 11
163.4137
 21
117.5301
 31
0.0000
  0
LINE
  8
253
 10
163.4137
 20
117.5301
 30
0.0000
 11
163.6242
 21
117.5749
 31
0.0000
  0
LINE
  8
253
 10
163.6242
 20
117.5749
 30
0.0000
 11
165.0658
 21
117.5749
 31
0.0000
  0
LINE
  8
253
 10
165.0658
 20
117.5749
 30
0.0000
 11
165.2763
 21
117.5301
 31
0.0000
  0
LINE
  8
253
 10
165.2763
 20
117.5301
 30
0.0000
 11
165.6592
 21
117.3682
 31
0.0000
  0
LINE
  8
253
 10
165.6592
 20
117.3682
 30
0.0000
 11
165.8316
 21
117.2511
 31
0.0000
  0
LINE
  8
253
 10
165.8316
 20
117.2511
 30
0.0000
 11
166.1212
 21
116.9616
 31
0.0000
  0
LINE
  8
253
 10
166.1212
 20
116.9616
 30
0.0000
 11
166.2384
 21
116.7892
 31
0.0000
  0
LINE
  8
253
 10
166.2384
 20
116.7892
 30
0.0000
 11
166.4003
 21
116.4064
 31
0.0000
  0
LINE
  8
253
 10
166.4003
 20
116.4064
 30
0.0000
 11
166.4451
 21
116.1959
 31
0.0000
  0
LINE
  8
253
 10
166.4451
 20
116.1959
 30
0.0000
 11
166.4451
 21
115.7541
 31
0.0000
  0
POLYLINE
  8
253
 66
1
 10
0.0000
 20
0.0000
 30
0.0000
 40
0.1270
 41
0.1270
 70
0
  0
VERTEX
  8
253
 10
126.3333
 20
105.6468
 30
0.0000
 42
1.0000
  0
VERTEX
  8
253
 10
126.3333
 20
109.0468
 30
0.0000
 42
1.0000
  0
VERTEX
  8
253
 10
126.3333
 20
105.6468
 30
0.0000
  0
SEQEND
  8
0
  0
CIRCLE
  8
20
 10
126.3333
 20
107.3468
 30
0.0000
 40
1.5000
  0
POLYLINE
  8
253
 66
1
 10
0.0000
 20
0.0000
 30
0.0000
 40
0.1270
 41
0.1270
 70
0
  0
VERTEX
  8
253
 10
3.1433
 20
105.6468
 30
0.0000
 42
1.0000
  0
VERTEX
  8
253
 10
3.1433
 20
109.0468
 30
0.0000
 42
1.0000
  0
VERTEX
  8
253
 10
3.1433
 20
105.6468
 30
0.0000
  0
SEQEND
  8
0
  0
CIRCLE
  8
20
 10
3.1433
 20
107.3468
 30
0.0000
 40
1.5000
  0
POLYLINE
  8
253
 66
1
 10
0.0000
 20
0.0000
 30
0.0000
 40
0.1270
 41
0.1270
 70
0
  0
VERTEX
  8
253
 10
3.1433
 20
1.5068
 30
0.0000
 42
1.0000
  0
VERTEX
  8
253
 10
3.1433
 20
4.9068
 30
0.0000
 42
1.0000
  0
VERTEX
  8
253
 10
3.1433
 20
1.5068
 30
0.0000
  0
SEQEND
  8
0
  0
CIRCLE
  8
20
 10
3.1433
 20
3.2067
 30
0.0000
 40
1.5000
  0
POLYLINE
  8
253
 66
1
 10
0.0000
 20
0.0000
 30
0.0000
 40
0.1270
 41
0.1270
 70
0
  0
VERTEX
  8
253
 10
126.3333
 20
1.5068
 30
0.0000
 42
1.0000
  0
VERTEX
  8
253
 10
126.3333
 20
4.9068
 30
0.0000
 42
1.0000
  0
VERTEX
  8
253
 10
126.3333
 20
1.5068
 30
0.0000
  0
SEQEND
  8
0
  0
CIRCLE
  8
20
 10
126.3333
 20
3.2067
 30
0.0000
 40
1.5000
  0
ENDSEC
  0
EOF
