G04 EAGLE Gerber RS-274X export*
G75*
%MOMM*%
%FSLAX34Y34*%
%LPD*%
%INfreza*%
%IPPOS*%
%AMOC8*
5,1,8,0,0,1.08239X$1,22.5*%
G01*

G36*
X187101Y336794D02*
X187101Y336794D01*
X187107Y336800D01*
X187111Y336796D01*
X188168Y337166D01*
X188173Y337173D01*
X188178Y337171D01*
X189126Y337767D01*
X189129Y337774D01*
X189135Y337774D01*
X189926Y338565D01*
X189928Y338573D01*
X189933Y338574D01*
X190529Y339522D01*
X190528Y339530D01*
X190534Y339532D01*
X190904Y340589D01*
X190902Y340593D01*
X190905Y340595D01*
X190903Y340598D01*
X190906Y340599D01*
X191031Y341712D01*
X191029Y341716D01*
X191032Y341718D01*
X191032Y356718D01*
X191029Y356721D01*
X191031Y356723D01*
X190906Y357836D01*
X190900Y357842D01*
X190904Y357846D01*
X190534Y358903D01*
X190527Y358908D01*
X190529Y358913D01*
X189933Y359861D01*
X189926Y359864D01*
X189926Y359870D01*
X189135Y360661D01*
X189127Y360663D01*
X189126Y360668D01*
X188178Y361264D01*
X188170Y361263D01*
X188168Y361269D01*
X187111Y361639D01*
X187106Y361637D01*
X187105Y361638D01*
X187102Y361638D01*
X187101Y361641D01*
X185988Y361766D01*
X185981Y361762D01*
X185977Y361766D01*
X184864Y361641D01*
X184861Y361638D01*
X184860Y361638D01*
X184858Y361636D01*
X184854Y361639D01*
X183797Y361269D01*
X183792Y361262D01*
X183787Y361264D01*
X182839Y360668D01*
X182836Y360661D01*
X182830Y360661D01*
X182039Y359870D01*
X182037Y359862D01*
X182032Y359861D01*
X181436Y358913D01*
X181437Y358905D01*
X181431Y358903D01*
X181061Y357846D01*
X181064Y357839D01*
X181059Y357836D01*
X180934Y356723D01*
X180936Y356719D01*
X180933Y356718D01*
X180933Y341718D01*
X180936Y341714D01*
X180934Y341712D01*
X181059Y340599D01*
X181065Y340593D01*
X181061Y340589D01*
X181431Y339532D01*
X181438Y339527D01*
X181436Y339522D01*
X182032Y338574D01*
X182039Y338571D01*
X182039Y338565D01*
X182830Y337774D01*
X182838Y337772D01*
X182839Y337767D01*
X183787Y337171D01*
X183795Y337172D01*
X183797Y337166D01*
X184854Y336796D01*
X184861Y336799D01*
X184864Y336794D01*
X185977Y336669D01*
X185984Y336673D01*
X185988Y336669D01*
X187101Y336794D01*
G37*
G36*
X352201Y336794D02*
X352201Y336794D01*
X352207Y336800D01*
X352211Y336796D01*
X353268Y337166D01*
X353273Y337173D01*
X353278Y337171D01*
X354226Y337767D01*
X354229Y337774D01*
X354235Y337774D01*
X355026Y338565D01*
X355028Y338573D01*
X355033Y338574D01*
X355629Y339522D01*
X355628Y339530D01*
X355634Y339532D01*
X356004Y340589D01*
X356002Y340593D01*
X356005Y340595D01*
X356003Y340598D01*
X356006Y340599D01*
X356131Y341712D01*
X356129Y341716D01*
X356132Y341718D01*
X356132Y356718D01*
X356129Y356721D01*
X356131Y356723D01*
X356006Y357836D01*
X356000Y357842D01*
X356004Y357846D01*
X355634Y358903D01*
X355627Y358908D01*
X355629Y358913D01*
X355033Y359861D01*
X355026Y359864D01*
X355026Y359870D01*
X354235Y360661D01*
X354227Y360663D01*
X354226Y360668D01*
X353278Y361264D01*
X353270Y361263D01*
X353268Y361269D01*
X352211Y361639D01*
X352206Y361637D01*
X352205Y361638D01*
X352202Y361638D01*
X352201Y361641D01*
X351088Y361766D01*
X351081Y361762D01*
X351077Y361766D01*
X349964Y361641D01*
X349961Y361638D01*
X349960Y361638D01*
X349958Y361636D01*
X349954Y361639D01*
X348897Y361269D01*
X348892Y361262D01*
X348887Y361264D01*
X347939Y360668D01*
X347936Y360661D01*
X347930Y360661D01*
X347139Y359870D01*
X347137Y359862D01*
X347132Y359861D01*
X346536Y358913D01*
X346537Y358905D01*
X346531Y358903D01*
X346161Y357846D01*
X346164Y357839D01*
X346159Y357836D01*
X346034Y356723D01*
X346036Y356719D01*
X346033Y356718D01*
X346033Y341718D01*
X346036Y341714D01*
X346034Y341712D01*
X346159Y340599D01*
X346165Y340593D01*
X346161Y340589D01*
X346531Y339532D01*
X346538Y339527D01*
X346536Y339522D01*
X347132Y338574D01*
X347139Y338571D01*
X347139Y338565D01*
X347930Y337774D01*
X347938Y337772D01*
X347939Y337767D01*
X348887Y337171D01*
X348895Y337172D01*
X348897Y337166D01*
X349954Y336796D01*
X349961Y336799D01*
X349964Y336794D01*
X351077Y336669D01*
X351084Y336673D01*
X351088Y336669D01*
X352201Y336794D01*
G37*
G36*
X297101Y336794D02*
X297101Y336794D01*
X297107Y336800D01*
X297111Y336796D01*
X298168Y337166D01*
X298173Y337173D01*
X298178Y337171D01*
X299126Y337767D01*
X299129Y337774D01*
X299135Y337774D01*
X299926Y338565D01*
X299928Y338573D01*
X299933Y338574D01*
X300529Y339522D01*
X300528Y339530D01*
X300534Y339532D01*
X300904Y340589D01*
X300902Y340593D01*
X300905Y340595D01*
X300903Y340598D01*
X300906Y340599D01*
X301031Y341712D01*
X301029Y341716D01*
X301032Y341718D01*
X301032Y356718D01*
X301029Y356721D01*
X301031Y356723D01*
X300906Y357836D01*
X300900Y357842D01*
X300904Y357846D01*
X300534Y358903D01*
X300527Y358908D01*
X300529Y358913D01*
X299933Y359861D01*
X299926Y359864D01*
X299926Y359870D01*
X299135Y360661D01*
X299127Y360663D01*
X299126Y360668D01*
X298178Y361264D01*
X298170Y361263D01*
X298168Y361269D01*
X297111Y361639D01*
X297106Y361637D01*
X297105Y361638D01*
X297102Y361638D01*
X297101Y361641D01*
X295988Y361766D01*
X295981Y361762D01*
X295977Y361766D01*
X294864Y361641D01*
X294861Y361638D01*
X294860Y361638D01*
X294858Y361636D01*
X294854Y361639D01*
X293797Y361269D01*
X293792Y361262D01*
X293787Y361264D01*
X292839Y360668D01*
X292836Y360661D01*
X292830Y360661D01*
X292039Y359870D01*
X292037Y359862D01*
X292032Y359861D01*
X291436Y358913D01*
X291437Y358905D01*
X291431Y358903D01*
X291061Y357846D01*
X291064Y357839D01*
X291059Y357836D01*
X290934Y356723D01*
X290936Y356719D01*
X290933Y356718D01*
X290933Y341718D01*
X290936Y341714D01*
X290934Y341712D01*
X291059Y340599D01*
X291065Y340593D01*
X291061Y340589D01*
X291431Y339532D01*
X291438Y339527D01*
X291436Y339522D01*
X292032Y338574D01*
X292039Y338571D01*
X292039Y338565D01*
X292830Y337774D01*
X292838Y337772D01*
X292839Y337767D01*
X293787Y337171D01*
X293795Y337172D01*
X293797Y337166D01*
X294854Y336796D01*
X294861Y336799D01*
X294864Y336794D01*
X295977Y336669D01*
X295984Y336673D01*
X295988Y336669D01*
X297101Y336794D01*
G37*
G36*
X462201Y336794D02*
X462201Y336794D01*
X462207Y336800D01*
X462211Y336796D01*
X463268Y337166D01*
X463273Y337173D01*
X463278Y337171D01*
X464226Y337767D01*
X464229Y337774D01*
X464235Y337774D01*
X465026Y338565D01*
X465028Y338573D01*
X465033Y338574D01*
X465629Y339522D01*
X465628Y339530D01*
X465634Y339532D01*
X466004Y340589D01*
X466002Y340593D01*
X466005Y340595D01*
X466003Y340598D01*
X466006Y340599D01*
X466131Y341712D01*
X466129Y341716D01*
X466132Y341718D01*
X466132Y356718D01*
X466129Y356721D01*
X466131Y356723D01*
X466006Y357836D01*
X466000Y357842D01*
X466004Y357846D01*
X465634Y358903D01*
X465627Y358908D01*
X465629Y358913D01*
X465033Y359861D01*
X465026Y359864D01*
X465026Y359870D01*
X464235Y360661D01*
X464227Y360663D01*
X464226Y360668D01*
X463278Y361264D01*
X463270Y361263D01*
X463268Y361269D01*
X462211Y361639D01*
X462206Y361637D01*
X462205Y361638D01*
X462202Y361638D01*
X462201Y361641D01*
X461088Y361766D01*
X461081Y361762D01*
X461077Y361766D01*
X459964Y361641D01*
X459961Y361638D01*
X459960Y361638D01*
X459958Y361636D01*
X459954Y361639D01*
X458897Y361269D01*
X458892Y361262D01*
X458887Y361264D01*
X457939Y360668D01*
X457936Y360661D01*
X457930Y360661D01*
X457139Y359870D01*
X457137Y359862D01*
X457132Y359861D01*
X456536Y358913D01*
X456537Y358905D01*
X456531Y358903D01*
X456161Y357846D01*
X456164Y357839D01*
X456159Y357836D01*
X456034Y356723D01*
X456036Y356719D01*
X456033Y356718D01*
X456033Y341718D01*
X456036Y341714D01*
X456034Y341712D01*
X456159Y340599D01*
X456165Y340593D01*
X456161Y340589D01*
X456531Y339532D01*
X456538Y339527D01*
X456536Y339522D01*
X457132Y338574D01*
X457139Y338571D01*
X457139Y338565D01*
X457930Y337774D01*
X457938Y337772D01*
X457939Y337767D01*
X458887Y337171D01*
X458895Y337172D01*
X458897Y337166D01*
X459954Y336796D01*
X459961Y336799D01*
X459964Y336794D01*
X461077Y336669D01*
X461084Y336673D01*
X461088Y336669D01*
X462201Y336794D01*
G37*
G36*
X682401Y336794D02*
X682401Y336794D01*
X682407Y336800D01*
X682411Y336796D01*
X683468Y337166D01*
X683473Y337173D01*
X683478Y337171D01*
X684426Y337767D01*
X684429Y337774D01*
X684435Y337774D01*
X685226Y338565D01*
X685228Y338573D01*
X685233Y338574D01*
X685829Y339522D01*
X685828Y339530D01*
X685834Y339532D01*
X686204Y340589D01*
X686202Y340593D01*
X686205Y340595D01*
X686203Y340598D01*
X686206Y340599D01*
X686331Y341712D01*
X686329Y341716D01*
X686332Y341718D01*
X686332Y356718D01*
X686329Y356721D01*
X686331Y356723D01*
X686206Y357836D01*
X686200Y357842D01*
X686204Y357846D01*
X685834Y358903D01*
X685827Y358908D01*
X685829Y358913D01*
X685233Y359861D01*
X685226Y359864D01*
X685226Y359870D01*
X684435Y360661D01*
X684427Y360663D01*
X684426Y360668D01*
X683478Y361264D01*
X683470Y361263D01*
X683468Y361269D01*
X682411Y361639D01*
X682406Y361637D01*
X682405Y361638D01*
X682402Y361638D01*
X682401Y361641D01*
X681288Y361766D01*
X681281Y361762D01*
X681277Y361766D01*
X680164Y361641D01*
X680161Y361638D01*
X680160Y361638D01*
X680158Y361636D01*
X680154Y361639D01*
X679097Y361269D01*
X679092Y361262D01*
X679087Y361264D01*
X678139Y360668D01*
X678136Y360661D01*
X678130Y360661D01*
X677339Y359870D01*
X677337Y359862D01*
X677332Y359861D01*
X676736Y358913D01*
X676737Y358905D01*
X676731Y358903D01*
X676361Y357846D01*
X676364Y357839D01*
X676359Y357836D01*
X676234Y356723D01*
X676236Y356719D01*
X676233Y356718D01*
X676233Y341718D01*
X676236Y341714D01*
X676234Y341712D01*
X676359Y340599D01*
X676365Y340593D01*
X676361Y340589D01*
X676731Y339532D01*
X676738Y339527D01*
X676736Y339522D01*
X677332Y338574D01*
X677339Y338571D01*
X677339Y338565D01*
X678130Y337774D01*
X678138Y337772D01*
X678139Y337767D01*
X679087Y337171D01*
X679095Y337172D01*
X679097Y337166D01*
X680154Y336796D01*
X680161Y336799D01*
X680164Y336794D01*
X681277Y336669D01*
X681284Y336673D01*
X681288Y336669D01*
X682401Y336794D01*
G37*
G36*
X792401Y336794D02*
X792401Y336794D01*
X792407Y336800D01*
X792411Y336796D01*
X793468Y337166D01*
X793473Y337173D01*
X793478Y337171D01*
X794426Y337767D01*
X794429Y337774D01*
X794435Y337774D01*
X795226Y338565D01*
X795228Y338573D01*
X795233Y338574D01*
X795829Y339522D01*
X795828Y339530D01*
X795834Y339532D01*
X796204Y340589D01*
X796202Y340593D01*
X796205Y340595D01*
X796203Y340598D01*
X796206Y340599D01*
X796331Y341712D01*
X796329Y341716D01*
X796332Y341718D01*
X796332Y356718D01*
X796329Y356721D01*
X796331Y356723D01*
X796206Y357836D01*
X796200Y357842D01*
X796204Y357846D01*
X795834Y358903D01*
X795827Y358908D01*
X795829Y358913D01*
X795233Y359861D01*
X795226Y359864D01*
X795226Y359870D01*
X794435Y360661D01*
X794427Y360663D01*
X794426Y360668D01*
X793478Y361264D01*
X793470Y361263D01*
X793468Y361269D01*
X792411Y361639D01*
X792406Y361637D01*
X792405Y361638D01*
X792402Y361638D01*
X792401Y361641D01*
X791288Y361766D01*
X791281Y361762D01*
X791277Y361766D01*
X790164Y361641D01*
X790161Y361638D01*
X790160Y361638D01*
X790158Y361636D01*
X790154Y361639D01*
X789097Y361269D01*
X789092Y361262D01*
X789087Y361264D01*
X788139Y360668D01*
X788136Y360661D01*
X788130Y360661D01*
X787339Y359870D01*
X787337Y359862D01*
X787332Y359861D01*
X786736Y358913D01*
X786737Y358905D01*
X786731Y358903D01*
X786361Y357846D01*
X786364Y357839D01*
X786359Y357836D01*
X786234Y356723D01*
X786236Y356719D01*
X786233Y356718D01*
X786233Y341718D01*
X786236Y341714D01*
X786234Y341712D01*
X786359Y340599D01*
X786365Y340593D01*
X786361Y340589D01*
X786731Y339532D01*
X786738Y339527D01*
X786736Y339522D01*
X787332Y338574D01*
X787339Y338571D01*
X787339Y338565D01*
X788130Y337774D01*
X788138Y337772D01*
X788139Y337767D01*
X789087Y337171D01*
X789095Y337172D01*
X789097Y337166D01*
X790154Y336796D01*
X790161Y336799D01*
X790164Y336794D01*
X791277Y336669D01*
X791284Y336673D01*
X791288Y336669D01*
X792401Y336794D01*
G37*
G36*
X462201Y578094D02*
X462201Y578094D01*
X462207Y578100D01*
X462211Y578096D01*
X463268Y578466D01*
X463273Y578473D01*
X463278Y578471D01*
X464226Y579067D01*
X464229Y579074D01*
X464235Y579074D01*
X465026Y579865D01*
X465028Y579873D01*
X465033Y579874D01*
X465629Y580822D01*
X465628Y580830D01*
X465634Y580832D01*
X466004Y581889D01*
X466002Y581893D01*
X466005Y581895D01*
X466003Y581898D01*
X466006Y581899D01*
X466131Y583012D01*
X466129Y583016D01*
X466132Y583018D01*
X466132Y598018D01*
X466129Y598021D01*
X466131Y598023D01*
X466006Y599136D01*
X466000Y599142D01*
X466004Y599146D01*
X465634Y600203D01*
X465627Y600208D01*
X465629Y600213D01*
X465033Y601161D01*
X465026Y601164D01*
X465026Y601170D01*
X464235Y601961D01*
X464227Y601963D01*
X464226Y601968D01*
X463278Y602564D01*
X463270Y602563D01*
X463268Y602569D01*
X462211Y602939D01*
X462206Y602937D01*
X462205Y602938D01*
X462202Y602938D01*
X462201Y602941D01*
X461088Y603066D01*
X461081Y603062D01*
X461077Y603066D01*
X459964Y602941D01*
X459961Y602938D01*
X459960Y602938D01*
X459958Y602936D01*
X459954Y602939D01*
X458897Y602569D01*
X458892Y602562D01*
X458887Y602564D01*
X457939Y601968D01*
X457936Y601961D01*
X457930Y601961D01*
X457139Y601170D01*
X457137Y601162D01*
X457132Y601161D01*
X456536Y600213D01*
X456537Y600205D01*
X456531Y600203D01*
X456161Y599146D01*
X456164Y599139D01*
X456159Y599136D01*
X456034Y598023D01*
X456036Y598019D01*
X456033Y598018D01*
X456033Y583018D01*
X456036Y583014D01*
X456034Y583012D01*
X456159Y581899D01*
X456165Y581893D01*
X456161Y581889D01*
X456531Y580832D01*
X456538Y580827D01*
X456536Y580822D01*
X457132Y579874D01*
X457139Y579871D01*
X457139Y579865D01*
X457930Y579074D01*
X457938Y579072D01*
X457939Y579067D01*
X458887Y578471D01*
X458895Y578472D01*
X458897Y578466D01*
X459954Y578096D01*
X459961Y578099D01*
X459964Y578094D01*
X461077Y577969D01*
X461084Y577973D01*
X461088Y577969D01*
X462201Y578094D01*
G37*
G36*
X352201Y578094D02*
X352201Y578094D01*
X352207Y578100D01*
X352211Y578096D01*
X353268Y578466D01*
X353273Y578473D01*
X353278Y578471D01*
X354226Y579067D01*
X354229Y579074D01*
X354235Y579074D01*
X355026Y579865D01*
X355028Y579873D01*
X355033Y579874D01*
X355629Y580822D01*
X355628Y580830D01*
X355634Y580832D01*
X356004Y581889D01*
X356002Y581893D01*
X356005Y581895D01*
X356003Y581898D01*
X356006Y581899D01*
X356131Y583012D01*
X356129Y583016D01*
X356132Y583018D01*
X356132Y598018D01*
X356129Y598021D01*
X356131Y598023D01*
X356006Y599136D01*
X356000Y599142D01*
X356004Y599146D01*
X355634Y600203D01*
X355627Y600208D01*
X355629Y600213D01*
X355033Y601161D01*
X355026Y601164D01*
X355026Y601170D01*
X354235Y601961D01*
X354227Y601963D01*
X354226Y601968D01*
X353278Y602564D01*
X353270Y602563D01*
X353268Y602569D01*
X352211Y602939D01*
X352206Y602937D01*
X352205Y602938D01*
X352202Y602938D01*
X352201Y602941D01*
X351088Y603066D01*
X351081Y603062D01*
X351077Y603066D01*
X349964Y602941D01*
X349961Y602938D01*
X349960Y602938D01*
X349958Y602936D01*
X349954Y602939D01*
X348897Y602569D01*
X348892Y602562D01*
X348887Y602564D01*
X347939Y601968D01*
X347936Y601961D01*
X347930Y601961D01*
X347139Y601170D01*
X347137Y601162D01*
X347132Y601161D01*
X346536Y600213D01*
X346537Y600205D01*
X346531Y600203D01*
X346161Y599146D01*
X346164Y599139D01*
X346159Y599136D01*
X346034Y598023D01*
X346036Y598019D01*
X346033Y598018D01*
X346033Y583018D01*
X346036Y583014D01*
X346034Y583012D01*
X346159Y581899D01*
X346165Y581893D01*
X346161Y581889D01*
X346531Y580832D01*
X346538Y580827D01*
X346536Y580822D01*
X347132Y579874D01*
X347139Y579871D01*
X347139Y579865D01*
X347930Y579074D01*
X347938Y579072D01*
X347939Y579067D01*
X348887Y578471D01*
X348895Y578472D01*
X348897Y578466D01*
X349954Y578096D01*
X349961Y578099D01*
X349964Y578094D01*
X351077Y577969D01*
X351084Y577973D01*
X351088Y577969D01*
X352201Y578094D01*
G37*
G36*
X22001Y578094D02*
X22001Y578094D01*
X22007Y578100D01*
X22011Y578096D01*
X23068Y578466D01*
X23073Y578473D01*
X23078Y578471D01*
X24026Y579067D01*
X24029Y579074D01*
X24035Y579074D01*
X24826Y579865D01*
X24828Y579873D01*
X24833Y579874D01*
X25429Y580822D01*
X25428Y580830D01*
X25434Y580832D01*
X25804Y581889D01*
X25802Y581893D01*
X25805Y581895D01*
X25803Y581898D01*
X25806Y581899D01*
X25931Y583012D01*
X25929Y583016D01*
X25932Y583018D01*
X25932Y598018D01*
X25929Y598021D01*
X25931Y598023D01*
X25806Y599136D01*
X25800Y599142D01*
X25804Y599146D01*
X25434Y600203D01*
X25427Y600208D01*
X25429Y600213D01*
X24833Y601161D01*
X24826Y601164D01*
X24826Y601170D01*
X24035Y601961D01*
X24027Y601963D01*
X24026Y601968D01*
X23078Y602564D01*
X23070Y602563D01*
X23068Y602569D01*
X22011Y602939D01*
X22006Y602937D01*
X22005Y602938D01*
X22002Y602938D01*
X22001Y602941D01*
X20888Y603066D01*
X20881Y603062D01*
X20877Y603066D01*
X19764Y602941D01*
X19761Y602938D01*
X19760Y602938D01*
X19758Y602936D01*
X19754Y602939D01*
X18697Y602569D01*
X18692Y602562D01*
X18687Y602564D01*
X17739Y601968D01*
X17736Y601961D01*
X17730Y601961D01*
X16939Y601170D01*
X16937Y601162D01*
X16932Y601161D01*
X16336Y600213D01*
X16337Y600205D01*
X16331Y600203D01*
X15961Y599146D01*
X15964Y599139D01*
X15959Y599136D01*
X15834Y598023D01*
X15836Y598019D01*
X15833Y598018D01*
X15833Y583018D01*
X15836Y583014D01*
X15834Y583012D01*
X15959Y581899D01*
X15965Y581893D01*
X15961Y581889D01*
X16331Y580832D01*
X16338Y580827D01*
X16336Y580822D01*
X16932Y579874D01*
X16939Y579871D01*
X16939Y579865D01*
X17730Y579074D01*
X17738Y579072D01*
X17739Y579067D01*
X18687Y578471D01*
X18695Y578472D01*
X18697Y578466D01*
X19754Y578096D01*
X19761Y578099D01*
X19764Y578094D01*
X20877Y577969D01*
X20884Y577973D01*
X20888Y577969D01*
X22001Y578094D01*
G37*
G36*
X297101Y578094D02*
X297101Y578094D01*
X297107Y578100D01*
X297111Y578096D01*
X298168Y578466D01*
X298173Y578473D01*
X298178Y578471D01*
X299126Y579067D01*
X299129Y579074D01*
X299135Y579074D01*
X299926Y579865D01*
X299928Y579873D01*
X299933Y579874D01*
X300529Y580822D01*
X300528Y580830D01*
X300534Y580832D01*
X300904Y581889D01*
X300902Y581893D01*
X300905Y581895D01*
X300903Y581898D01*
X300906Y581899D01*
X301031Y583012D01*
X301029Y583016D01*
X301032Y583018D01*
X301032Y598018D01*
X301029Y598021D01*
X301031Y598023D01*
X300906Y599136D01*
X300900Y599142D01*
X300904Y599146D01*
X300534Y600203D01*
X300527Y600208D01*
X300529Y600213D01*
X299933Y601161D01*
X299926Y601164D01*
X299926Y601170D01*
X299135Y601961D01*
X299127Y601963D01*
X299126Y601968D01*
X298178Y602564D01*
X298170Y602563D01*
X298168Y602569D01*
X297111Y602939D01*
X297106Y602937D01*
X297105Y602938D01*
X297102Y602938D01*
X297101Y602941D01*
X295988Y603066D01*
X295981Y603062D01*
X295977Y603066D01*
X294864Y602941D01*
X294861Y602938D01*
X294860Y602938D01*
X294858Y602936D01*
X294854Y602939D01*
X293797Y602569D01*
X293792Y602562D01*
X293787Y602564D01*
X292839Y601968D01*
X292836Y601961D01*
X292830Y601961D01*
X292039Y601170D01*
X292037Y601162D01*
X292032Y601161D01*
X291436Y600213D01*
X291437Y600205D01*
X291431Y600203D01*
X291061Y599146D01*
X291064Y599139D01*
X291059Y599136D01*
X290934Y598023D01*
X290936Y598019D01*
X290933Y598018D01*
X290933Y583018D01*
X290936Y583014D01*
X290934Y583012D01*
X291059Y581899D01*
X291065Y581893D01*
X291061Y581889D01*
X291431Y580832D01*
X291438Y580827D01*
X291436Y580822D01*
X292032Y579874D01*
X292039Y579871D01*
X292039Y579865D01*
X292830Y579074D01*
X292838Y579072D01*
X292839Y579067D01*
X293787Y578471D01*
X293795Y578472D01*
X293797Y578466D01*
X294854Y578096D01*
X294861Y578099D01*
X294864Y578094D01*
X295977Y577969D01*
X295984Y577973D01*
X295988Y577969D01*
X297101Y578094D01*
G37*
G36*
X187101Y578094D02*
X187101Y578094D01*
X187107Y578100D01*
X187111Y578096D01*
X188168Y578466D01*
X188173Y578473D01*
X188178Y578471D01*
X189126Y579067D01*
X189129Y579074D01*
X189135Y579074D01*
X189926Y579865D01*
X189928Y579873D01*
X189933Y579874D01*
X190529Y580822D01*
X190528Y580830D01*
X190534Y580832D01*
X190904Y581889D01*
X190902Y581893D01*
X190905Y581895D01*
X190903Y581898D01*
X190906Y581899D01*
X191031Y583012D01*
X191029Y583016D01*
X191032Y583018D01*
X191032Y598018D01*
X191029Y598021D01*
X191031Y598023D01*
X190906Y599136D01*
X190900Y599142D01*
X190904Y599146D01*
X190534Y600203D01*
X190527Y600208D01*
X190529Y600213D01*
X189933Y601161D01*
X189926Y601164D01*
X189926Y601170D01*
X189135Y601961D01*
X189127Y601963D01*
X189126Y601968D01*
X188178Y602564D01*
X188170Y602563D01*
X188168Y602569D01*
X187111Y602939D01*
X187106Y602937D01*
X187105Y602938D01*
X187102Y602938D01*
X187101Y602941D01*
X185988Y603066D01*
X185981Y603062D01*
X185977Y603066D01*
X184864Y602941D01*
X184861Y602938D01*
X184860Y602938D01*
X184858Y602936D01*
X184854Y602939D01*
X183797Y602569D01*
X183792Y602562D01*
X183787Y602564D01*
X182839Y601968D01*
X182836Y601961D01*
X182830Y601961D01*
X182039Y601170D01*
X182037Y601162D01*
X182032Y601161D01*
X181436Y600213D01*
X181437Y600205D01*
X181431Y600203D01*
X181061Y599146D01*
X181064Y599139D01*
X181059Y599136D01*
X180934Y598023D01*
X180936Y598019D01*
X180933Y598018D01*
X180933Y583018D01*
X180936Y583014D01*
X180934Y583012D01*
X181059Y581899D01*
X181065Y581893D01*
X181061Y581889D01*
X181431Y580832D01*
X181438Y580827D01*
X181436Y580822D01*
X182032Y579874D01*
X182039Y579871D01*
X182039Y579865D01*
X182830Y579074D01*
X182838Y579072D01*
X182839Y579067D01*
X183787Y578471D01*
X183795Y578472D01*
X183797Y578466D01*
X184854Y578096D01*
X184861Y578099D01*
X184864Y578094D01*
X185977Y577969D01*
X185984Y577973D01*
X185988Y577969D01*
X187101Y578094D01*
G37*
G36*
X132001Y578094D02*
X132001Y578094D01*
X132007Y578100D01*
X132011Y578096D01*
X133068Y578466D01*
X133073Y578473D01*
X133078Y578471D01*
X134026Y579067D01*
X134029Y579074D01*
X134035Y579074D01*
X134826Y579865D01*
X134828Y579873D01*
X134833Y579874D01*
X135429Y580822D01*
X135428Y580830D01*
X135434Y580832D01*
X135804Y581889D01*
X135802Y581893D01*
X135805Y581895D01*
X135803Y581898D01*
X135806Y581899D01*
X135931Y583012D01*
X135929Y583016D01*
X135932Y583018D01*
X135932Y598018D01*
X135929Y598021D01*
X135931Y598023D01*
X135806Y599136D01*
X135800Y599142D01*
X135804Y599146D01*
X135434Y600203D01*
X135427Y600208D01*
X135429Y600213D01*
X134833Y601161D01*
X134826Y601164D01*
X134826Y601170D01*
X134035Y601961D01*
X134027Y601963D01*
X134026Y601968D01*
X133078Y602564D01*
X133070Y602563D01*
X133068Y602569D01*
X132011Y602939D01*
X132006Y602937D01*
X132005Y602938D01*
X132002Y602938D01*
X132001Y602941D01*
X130888Y603066D01*
X130881Y603062D01*
X130877Y603066D01*
X129764Y602941D01*
X129761Y602938D01*
X129760Y602938D01*
X129758Y602936D01*
X129754Y602939D01*
X128697Y602569D01*
X128692Y602562D01*
X128687Y602564D01*
X127739Y601968D01*
X127736Y601961D01*
X127730Y601961D01*
X126939Y601170D01*
X126937Y601162D01*
X126932Y601161D01*
X126336Y600213D01*
X126337Y600205D01*
X126331Y600203D01*
X125961Y599146D01*
X125964Y599139D01*
X125959Y599136D01*
X125834Y598023D01*
X125836Y598019D01*
X125833Y598018D01*
X125833Y583018D01*
X125836Y583014D01*
X125834Y583012D01*
X125959Y581899D01*
X125965Y581893D01*
X125961Y581889D01*
X126331Y580832D01*
X126338Y580827D01*
X126336Y580822D01*
X126932Y579874D01*
X126939Y579871D01*
X126939Y579865D01*
X127730Y579074D01*
X127738Y579072D01*
X127739Y579067D01*
X128687Y578471D01*
X128695Y578472D01*
X128697Y578466D01*
X129754Y578096D01*
X129761Y578099D01*
X129764Y578094D01*
X130877Y577969D01*
X130884Y577973D01*
X130888Y577969D01*
X132001Y578094D01*
G37*
G36*
X1148002Y1045404D02*
X1148002Y1045404D01*
X1148026Y1045403D01*
X1148683Y1045490D01*
X1148693Y1045494D01*
X1148747Y1045507D01*
X1149359Y1045761D01*
X1149368Y1045768D01*
X1149417Y1045794D01*
X1149943Y1046198D01*
X1149949Y1046206D01*
X1149989Y1046244D01*
X1150393Y1046770D01*
X1150397Y1046781D01*
X1150413Y1046807D01*
X1150418Y1046812D01*
X1150419Y1046815D01*
X1150426Y1046828D01*
X1150680Y1047440D01*
X1150681Y1047451D01*
X1150697Y1047504D01*
X1150784Y1048161D01*
X1150782Y1048172D01*
X1150784Y1048228D01*
X1150697Y1048885D01*
X1150693Y1048895D01*
X1150680Y1048949D01*
X1150426Y1049561D01*
X1150419Y1049570D01*
X1150393Y1049619D01*
X1149989Y1050145D01*
X1149981Y1050151D01*
X1149943Y1050191D01*
X1149417Y1050595D01*
X1149406Y1050599D01*
X1149359Y1050628D01*
X1148747Y1050882D01*
X1148736Y1050883D01*
X1148683Y1050899D01*
X1148026Y1050986D01*
X1148015Y1050984D01*
X1147993Y1050988D01*
X1124673Y1050988D01*
X1124663Y1050985D01*
X1124639Y1050986D01*
X1123982Y1050899D01*
X1123972Y1050895D01*
X1123918Y1050882D01*
X1123306Y1050628D01*
X1123297Y1050621D01*
X1123248Y1050595D01*
X1122722Y1050191D01*
X1122716Y1050183D01*
X1122676Y1050145D01*
X1122272Y1049619D01*
X1122268Y1049608D01*
X1122239Y1049561D01*
X1121985Y1048949D01*
X1121984Y1048938D01*
X1121968Y1048885D01*
X1121881Y1048228D01*
X1121883Y1048217D01*
X1121881Y1048161D01*
X1121968Y1047504D01*
X1121972Y1047494D01*
X1121985Y1047440D01*
X1122239Y1046828D01*
X1122246Y1046819D01*
X1122272Y1046770D01*
X1122676Y1046244D01*
X1122684Y1046238D01*
X1122722Y1046198D01*
X1123248Y1045794D01*
X1123259Y1045790D01*
X1123306Y1045761D01*
X1123918Y1045507D01*
X1123929Y1045506D01*
X1123982Y1045490D01*
X1124639Y1045403D01*
X1124650Y1045405D01*
X1124673Y1045401D01*
X1147993Y1045401D01*
X1148002Y1045404D01*
G37*
G36*
X1181473Y1006628D02*
X1181473Y1006628D01*
X1181483Y1006632D01*
X1181537Y1006645D01*
X1182149Y1006899D01*
X1182158Y1006906D01*
X1182207Y1006932D01*
X1182733Y1007336D01*
X1182739Y1007344D01*
X1182779Y1007382D01*
X1183183Y1007908D01*
X1183187Y1007919D01*
X1183203Y1007945D01*
X1183208Y1007950D01*
X1183209Y1007953D01*
X1183216Y1007966D01*
X1183470Y1008578D01*
X1183471Y1008589D01*
X1183487Y1008642D01*
X1183574Y1009299D01*
X1183572Y1009310D01*
X1183576Y1009333D01*
X1183576Y1029653D01*
X1183573Y1029662D01*
X1183574Y1029686D01*
X1183487Y1030343D01*
X1183483Y1030353D01*
X1183470Y1030407D01*
X1183216Y1031019D01*
X1183209Y1031028D01*
X1183183Y1031077D01*
X1182779Y1031603D01*
X1182771Y1031609D01*
X1182733Y1031649D01*
X1182207Y1032053D01*
X1182196Y1032057D01*
X1182149Y1032086D01*
X1181537Y1032340D01*
X1181526Y1032341D01*
X1181473Y1032357D01*
X1180816Y1032444D01*
X1180805Y1032442D01*
X1180749Y1032444D01*
X1180092Y1032357D01*
X1180082Y1032353D01*
X1180028Y1032340D01*
X1179416Y1032086D01*
X1179407Y1032079D01*
X1179358Y1032053D01*
X1178832Y1031649D01*
X1178826Y1031641D01*
X1178786Y1031603D01*
X1178382Y1031077D01*
X1178378Y1031066D01*
X1178349Y1031019D01*
X1178095Y1030407D01*
X1178094Y1030396D01*
X1178078Y1030343D01*
X1177991Y1029686D01*
X1177993Y1029675D01*
X1177989Y1029653D01*
X1177989Y1009333D01*
X1177992Y1009323D01*
X1177991Y1009299D01*
X1178078Y1008642D01*
X1178082Y1008632D01*
X1178095Y1008578D01*
X1178349Y1007966D01*
X1178356Y1007957D01*
X1178382Y1007908D01*
X1178786Y1007382D01*
X1178794Y1007376D01*
X1178832Y1007336D01*
X1179358Y1006932D01*
X1179369Y1006928D01*
X1179416Y1006899D01*
X1180028Y1006645D01*
X1180039Y1006644D01*
X1180092Y1006628D01*
X1180749Y1006541D01*
X1180760Y1006543D01*
X1180816Y1006541D01*
X1181473Y1006628D01*
G37*
G36*
X1146502Y988000D02*
X1146502Y988000D01*
X1146526Y987999D01*
X1147183Y988086D01*
X1147193Y988090D01*
X1147247Y988103D01*
X1147859Y988357D01*
X1147868Y988364D01*
X1147917Y988390D01*
X1148443Y988794D01*
X1148449Y988802D01*
X1148489Y988840D01*
X1148893Y989366D01*
X1148897Y989377D01*
X1148913Y989403D01*
X1148918Y989408D01*
X1148919Y989411D01*
X1148926Y989424D01*
X1149180Y990036D01*
X1149181Y990047D01*
X1149197Y990100D01*
X1149284Y990757D01*
X1149282Y990768D01*
X1149284Y990824D01*
X1149197Y991481D01*
X1149193Y991491D01*
X1149180Y991545D01*
X1148926Y992157D01*
X1148919Y992166D01*
X1148893Y992215D01*
X1148489Y992741D01*
X1148481Y992747D01*
X1148443Y992787D01*
X1147917Y993191D01*
X1147906Y993195D01*
X1147859Y993224D01*
X1147247Y993478D01*
X1147236Y993479D01*
X1147183Y993495D01*
X1146526Y993582D01*
X1146515Y993580D01*
X1146493Y993584D01*
X1126173Y993584D01*
X1126163Y993581D01*
X1126139Y993582D01*
X1125482Y993495D01*
X1125472Y993491D01*
X1125418Y993478D01*
X1124806Y993224D01*
X1124797Y993217D01*
X1124748Y993191D01*
X1124222Y992787D01*
X1124216Y992779D01*
X1124176Y992741D01*
X1123772Y992215D01*
X1123768Y992204D01*
X1123739Y992157D01*
X1123485Y991545D01*
X1123484Y991534D01*
X1123468Y991481D01*
X1123381Y990824D01*
X1123383Y990813D01*
X1123381Y990757D01*
X1123468Y990100D01*
X1123472Y990090D01*
X1123485Y990036D01*
X1123739Y989424D01*
X1123746Y989415D01*
X1123772Y989366D01*
X1124176Y988840D01*
X1124184Y988834D01*
X1124222Y988794D01*
X1124748Y988390D01*
X1124759Y988386D01*
X1124806Y988357D01*
X1125418Y988103D01*
X1125429Y988102D01*
X1125482Y988086D01*
X1126139Y987999D01*
X1126150Y988001D01*
X1126173Y987997D01*
X1146493Y987997D01*
X1146502Y988000D01*
G37*
G36*
X303191Y687547D02*
X303191Y687547D01*
X303192Y687548D01*
X303193Y687547D01*
X303890Y687882D01*
X303890Y687883D01*
X303892Y687883D01*
X304497Y688364D01*
X304497Y688366D01*
X304499Y688366D01*
X304981Y688969D01*
X304981Y688971D01*
X304983Y688971D01*
X305319Y689667D01*
X305318Y689669D01*
X305320Y689669D01*
X305493Y690422D01*
X305492Y690424D01*
X305493Y690425D01*
X305494Y691197D01*
X305494Y691198D01*
X305494Y706438D01*
X305493Y707210D01*
X305492Y707211D01*
X305493Y707213D01*
X305320Y707966D01*
X305318Y707967D01*
X305319Y707968D01*
X304983Y708664D01*
X304981Y708664D01*
X304981Y708666D01*
X304499Y709269D01*
X304497Y709270D01*
X304497Y709271D01*
X303892Y709752D01*
X303890Y709752D01*
X303890Y709753D01*
X303193Y710088D01*
X303191Y710087D01*
X303191Y710088D01*
X302437Y710259D01*
X302434Y710258D01*
X302432Y710259D01*
X301678Y710088D01*
X301677Y710087D01*
X301676Y710088D01*
X300979Y709753D01*
X300979Y709752D01*
X300977Y709752D01*
X300372Y709271D01*
X300372Y709269D01*
X300370Y709269D01*
X299888Y708666D01*
X299888Y708664D01*
X299886Y708664D01*
X299550Y707968D01*
X299551Y707966D01*
X299549Y707966D01*
X299376Y707213D01*
X299377Y707211D01*
X299376Y707210D01*
X299375Y706438D01*
X299375Y691197D01*
X299376Y690425D01*
X299377Y690424D01*
X299376Y690422D01*
X299549Y689669D01*
X299551Y689668D01*
X299550Y689667D01*
X299886Y688971D01*
X299888Y688971D01*
X299888Y688969D01*
X300370Y688366D01*
X300372Y688365D01*
X300372Y688364D01*
X300977Y687883D01*
X300979Y687883D01*
X300979Y687882D01*
X301676Y687547D01*
X301678Y687548D01*
X301678Y687547D01*
X302432Y687376D01*
X302435Y687378D01*
X302437Y687376D01*
X303191Y687547D01*
G37*
G36*
X180001Y750793D02*
X180001Y750793D01*
X180002Y750794D01*
X180003Y750793D01*
X180700Y751128D01*
X180700Y751129D01*
X180702Y751129D01*
X181307Y751610D01*
X181307Y751612D01*
X181309Y751612D01*
X181791Y752215D01*
X181791Y752217D01*
X181793Y752217D01*
X182129Y752913D01*
X182128Y752915D01*
X182130Y752915D01*
X182303Y753668D01*
X182302Y753670D01*
X182303Y753671D01*
X182304Y754443D01*
X182304Y754444D01*
X182304Y769684D01*
X182303Y770456D01*
X182302Y770457D01*
X182303Y770459D01*
X182130Y771212D01*
X182128Y771213D01*
X182129Y771214D01*
X181793Y771910D01*
X181791Y771910D01*
X181791Y771912D01*
X181309Y772515D01*
X181307Y772516D01*
X181307Y772517D01*
X180702Y772998D01*
X180700Y772998D01*
X180700Y772999D01*
X180003Y773334D01*
X180001Y773333D01*
X180001Y773334D01*
X179247Y773505D01*
X179244Y773504D01*
X179242Y773505D01*
X178488Y773334D01*
X178487Y773333D01*
X178486Y773334D01*
X177789Y772999D01*
X177789Y772998D01*
X177787Y772998D01*
X177182Y772517D01*
X177182Y772515D01*
X177180Y772515D01*
X176698Y771912D01*
X176698Y771910D01*
X176696Y771910D01*
X176360Y771214D01*
X176361Y771212D01*
X176359Y771212D01*
X176186Y770459D01*
X176187Y770457D01*
X176186Y770456D01*
X176185Y769684D01*
X176185Y754443D01*
X176186Y753671D01*
X176187Y753670D01*
X176186Y753668D01*
X176359Y752915D01*
X176361Y752914D01*
X176360Y752913D01*
X176696Y752217D01*
X176698Y752217D01*
X176698Y752215D01*
X177180Y751612D01*
X177182Y751611D01*
X177182Y751610D01*
X177787Y751129D01*
X177789Y751129D01*
X177789Y751128D01*
X178486Y750793D01*
X178488Y750794D01*
X178488Y750793D01*
X179242Y750622D01*
X179245Y750624D01*
X179247Y750622D01*
X180001Y750793D01*
G37*
G36*
X345101Y750793D02*
X345101Y750793D01*
X345102Y750794D01*
X345103Y750793D01*
X345800Y751128D01*
X345800Y751129D01*
X345802Y751129D01*
X346407Y751610D01*
X346407Y751612D01*
X346409Y751612D01*
X346891Y752215D01*
X346891Y752217D01*
X346893Y752217D01*
X347229Y752913D01*
X347228Y752915D01*
X347230Y752915D01*
X347403Y753668D01*
X347402Y753670D01*
X347403Y753671D01*
X347404Y754443D01*
X347404Y754444D01*
X347404Y769684D01*
X347403Y770456D01*
X347402Y770457D01*
X347403Y770459D01*
X347230Y771212D01*
X347228Y771213D01*
X347229Y771214D01*
X346893Y771910D01*
X346891Y771910D01*
X346891Y771912D01*
X346409Y772515D01*
X346407Y772516D01*
X346407Y772517D01*
X345802Y772998D01*
X345800Y772998D01*
X345800Y772999D01*
X345103Y773334D01*
X345101Y773333D01*
X345101Y773334D01*
X344347Y773505D01*
X344344Y773504D01*
X344342Y773505D01*
X343588Y773334D01*
X343587Y773333D01*
X343586Y773334D01*
X342889Y772999D01*
X342889Y772998D01*
X342887Y772998D01*
X342282Y772517D01*
X342282Y772515D01*
X342280Y772515D01*
X341798Y771912D01*
X341798Y771910D01*
X341796Y771910D01*
X341460Y771214D01*
X341461Y771212D01*
X341459Y771212D01*
X341286Y770459D01*
X341287Y770457D01*
X341286Y770456D01*
X341285Y769684D01*
X341285Y754443D01*
X341286Y753671D01*
X341287Y753670D01*
X341286Y753668D01*
X341459Y752915D01*
X341461Y752914D01*
X341460Y752913D01*
X341796Y752217D01*
X341798Y752217D01*
X341798Y752215D01*
X342280Y751612D01*
X342282Y751611D01*
X342282Y751610D01*
X342887Y751129D01*
X342889Y751129D01*
X342889Y751128D01*
X343586Y750793D01*
X343588Y750794D01*
X343588Y750793D01*
X344342Y750622D01*
X344345Y750624D01*
X344347Y750622D01*
X345101Y750793D01*
G37*
G36*
X510201Y750793D02*
X510201Y750793D01*
X510202Y750794D01*
X510203Y750793D01*
X510900Y751128D01*
X510900Y751129D01*
X510902Y751129D01*
X511507Y751610D01*
X511507Y751612D01*
X511509Y751612D01*
X511991Y752215D01*
X511991Y752217D01*
X511993Y752217D01*
X512329Y752913D01*
X512328Y752915D01*
X512330Y752915D01*
X512503Y753668D01*
X512502Y753670D01*
X512503Y753671D01*
X512504Y754443D01*
X512504Y754444D01*
X512504Y769684D01*
X512503Y770456D01*
X512502Y770457D01*
X512503Y770459D01*
X512330Y771212D01*
X512328Y771213D01*
X512329Y771214D01*
X511993Y771910D01*
X511991Y771910D01*
X511991Y771912D01*
X511509Y772515D01*
X511507Y772516D01*
X511507Y772517D01*
X510902Y772998D01*
X510900Y772998D01*
X510900Y772999D01*
X510203Y773334D01*
X510201Y773333D01*
X510201Y773334D01*
X509447Y773505D01*
X509444Y773504D01*
X509442Y773505D01*
X508688Y773334D01*
X508687Y773333D01*
X508686Y773334D01*
X507989Y772999D01*
X507989Y772998D01*
X507987Y772998D01*
X507382Y772517D01*
X507382Y772515D01*
X507380Y772515D01*
X506898Y771912D01*
X506898Y771910D01*
X506896Y771910D01*
X506560Y771214D01*
X506561Y771212D01*
X506559Y771212D01*
X506386Y770459D01*
X506387Y770457D01*
X506386Y770456D01*
X506385Y769684D01*
X506385Y754443D01*
X506386Y753671D01*
X506387Y753670D01*
X506386Y753668D01*
X506559Y752915D01*
X506561Y752914D01*
X506560Y752913D01*
X506896Y752217D01*
X506898Y752217D01*
X506898Y752215D01*
X507380Y751612D01*
X507382Y751611D01*
X507382Y751610D01*
X507987Y751129D01*
X507989Y751129D01*
X507989Y751128D01*
X508686Y750793D01*
X508688Y750794D01*
X508688Y750793D01*
X509442Y750622D01*
X509445Y750624D01*
X509447Y750622D01*
X510201Y750793D01*
G37*
G36*
X675301Y750793D02*
X675301Y750793D01*
X675302Y750794D01*
X675303Y750793D01*
X676000Y751128D01*
X676000Y751129D01*
X676002Y751129D01*
X676607Y751610D01*
X676607Y751612D01*
X676609Y751612D01*
X677091Y752215D01*
X677091Y752217D01*
X677093Y752217D01*
X677429Y752913D01*
X677428Y752915D01*
X677430Y752915D01*
X677603Y753668D01*
X677602Y753670D01*
X677603Y753671D01*
X677604Y754443D01*
X677604Y754444D01*
X677604Y769684D01*
X677603Y770456D01*
X677602Y770457D01*
X677603Y770459D01*
X677430Y771212D01*
X677428Y771213D01*
X677429Y771214D01*
X677093Y771910D01*
X677091Y771910D01*
X677091Y771912D01*
X676609Y772515D01*
X676607Y772516D01*
X676607Y772517D01*
X676002Y772998D01*
X676000Y772998D01*
X676000Y772999D01*
X675303Y773334D01*
X675301Y773333D01*
X675301Y773334D01*
X674547Y773505D01*
X674544Y773504D01*
X674542Y773505D01*
X673788Y773334D01*
X673787Y773333D01*
X673786Y773334D01*
X673089Y772999D01*
X673089Y772998D01*
X673087Y772998D01*
X672482Y772517D01*
X672482Y772515D01*
X672480Y772515D01*
X671998Y771912D01*
X671998Y771910D01*
X671996Y771910D01*
X671660Y771214D01*
X671661Y771212D01*
X671659Y771212D01*
X671486Y770459D01*
X671487Y770457D01*
X671486Y770456D01*
X671485Y769684D01*
X671485Y754443D01*
X671486Y753671D01*
X671487Y753670D01*
X671486Y753668D01*
X671659Y752915D01*
X671661Y752914D01*
X671660Y752913D01*
X671996Y752217D01*
X671998Y752217D01*
X671998Y752215D01*
X672480Y751612D01*
X672482Y751611D01*
X672482Y751610D01*
X673087Y751129D01*
X673089Y751129D01*
X673089Y751128D01*
X673786Y750793D01*
X673788Y750794D01*
X673788Y750793D01*
X674542Y750622D01*
X674545Y750624D01*
X674547Y750622D01*
X675301Y750793D01*
G37*
G36*
X303191Y751047D02*
X303191Y751047D01*
X303192Y751048D01*
X303193Y751047D01*
X303890Y751382D01*
X303890Y751383D01*
X303892Y751383D01*
X304497Y751864D01*
X304497Y751866D01*
X304499Y751866D01*
X304981Y752469D01*
X304981Y752471D01*
X304983Y752471D01*
X305319Y753167D01*
X305318Y753169D01*
X305320Y753169D01*
X305493Y753922D01*
X305492Y753924D01*
X305493Y753925D01*
X305494Y754697D01*
X305494Y754698D01*
X305494Y769938D01*
X305493Y770710D01*
X305492Y770711D01*
X305493Y770713D01*
X305320Y771466D01*
X305318Y771467D01*
X305319Y771468D01*
X304983Y772164D01*
X304981Y772164D01*
X304981Y772166D01*
X304499Y772769D01*
X304497Y772770D01*
X304497Y772771D01*
X303892Y773252D01*
X303890Y773252D01*
X303890Y773253D01*
X303193Y773588D01*
X303191Y773587D01*
X303191Y773588D01*
X302437Y773759D01*
X302434Y773758D01*
X302432Y773759D01*
X301678Y773588D01*
X301677Y773587D01*
X301676Y773588D01*
X300979Y773253D01*
X300979Y773252D01*
X300977Y773252D01*
X300372Y772771D01*
X300372Y772769D01*
X300370Y772769D01*
X299888Y772166D01*
X299888Y772164D01*
X299886Y772164D01*
X299550Y771468D01*
X299551Y771466D01*
X299549Y771466D01*
X299376Y770713D01*
X299377Y770711D01*
X299376Y770710D01*
X299375Y769938D01*
X299375Y754697D01*
X299376Y753925D01*
X299377Y753924D01*
X299376Y753922D01*
X299549Y753169D01*
X299551Y753168D01*
X299550Y753167D01*
X299886Y752471D01*
X299888Y752471D01*
X299888Y752469D01*
X300370Y751866D01*
X300372Y751865D01*
X300372Y751864D01*
X300977Y751383D01*
X300979Y751383D01*
X300979Y751382D01*
X301676Y751047D01*
X301678Y751048D01*
X301678Y751047D01*
X302432Y750876D01*
X302435Y750878D01*
X302437Y750876D01*
X303191Y751047D01*
G37*
G36*
X633391Y751047D02*
X633391Y751047D01*
X633392Y751048D01*
X633393Y751047D01*
X634090Y751382D01*
X634090Y751383D01*
X634092Y751383D01*
X634697Y751864D01*
X634697Y751866D01*
X634699Y751866D01*
X635181Y752469D01*
X635181Y752471D01*
X635183Y752471D01*
X635519Y753167D01*
X635518Y753169D01*
X635520Y753169D01*
X635693Y753922D01*
X635692Y753924D01*
X635693Y753925D01*
X635694Y754697D01*
X635694Y754698D01*
X635694Y769938D01*
X635693Y770710D01*
X635692Y770711D01*
X635693Y770713D01*
X635520Y771466D01*
X635518Y771467D01*
X635519Y771468D01*
X635183Y772164D01*
X635181Y772164D01*
X635181Y772166D01*
X634699Y772769D01*
X634697Y772770D01*
X634697Y772771D01*
X634092Y773252D01*
X634090Y773252D01*
X634090Y773253D01*
X633393Y773588D01*
X633391Y773587D01*
X633391Y773588D01*
X632637Y773759D01*
X632634Y773758D01*
X632632Y773759D01*
X631878Y773588D01*
X631877Y773587D01*
X631876Y773588D01*
X631179Y773253D01*
X631179Y773252D01*
X631177Y773252D01*
X630572Y772771D01*
X630572Y772769D01*
X630570Y772769D01*
X630088Y772166D01*
X630088Y772164D01*
X630086Y772164D01*
X629750Y771468D01*
X629751Y771466D01*
X629749Y771466D01*
X629576Y770713D01*
X629577Y770711D01*
X629576Y770710D01*
X629575Y769938D01*
X629575Y754697D01*
X629576Y753925D01*
X629577Y753924D01*
X629576Y753922D01*
X629749Y753169D01*
X629751Y753168D01*
X629750Y753167D01*
X630086Y752471D01*
X630088Y752471D01*
X630088Y752469D01*
X630570Y751866D01*
X630572Y751865D01*
X630572Y751864D01*
X631177Y751383D01*
X631179Y751383D01*
X631179Y751382D01*
X631876Y751047D01*
X631878Y751048D01*
X631878Y751047D01*
X632632Y750876D01*
X632635Y750878D01*
X632637Y750876D01*
X633391Y751047D01*
G37*
G36*
X468291Y751047D02*
X468291Y751047D01*
X468292Y751048D01*
X468293Y751047D01*
X468990Y751382D01*
X468990Y751383D01*
X468992Y751383D01*
X469597Y751864D01*
X469597Y751866D01*
X469599Y751866D01*
X470081Y752469D01*
X470081Y752471D01*
X470083Y752471D01*
X470419Y753167D01*
X470418Y753169D01*
X470420Y753169D01*
X470593Y753922D01*
X470592Y753924D01*
X470593Y753925D01*
X470594Y754697D01*
X470594Y754698D01*
X470594Y769938D01*
X470593Y770710D01*
X470592Y770711D01*
X470593Y770713D01*
X470420Y771466D01*
X470418Y771467D01*
X470419Y771468D01*
X470083Y772164D01*
X470081Y772164D01*
X470081Y772166D01*
X469599Y772769D01*
X469597Y772770D01*
X469597Y772771D01*
X468992Y773252D01*
X468990Y773252D01*
X468990Y773253D01*
X468293Y773588D01*
X468291Y773587D01*
X468291Y773588D01*
X467537Y773759D01*
X467534Y773758D01*
X467532Y773759D01*
X466778Y773588D01*
X466777Y773587D01*
X466776Y773588D01*
X466079Y773253D01*
X466079Y773252D01*
X466077Y773252D01*
X465472Y772771D01*
X465472Y772769D01*
X465470Y772769D01*
X464988Y772166D01*
X464988Y772164D01*
X464986Y772164D01*
X464650Y771468D01*
X464651Y771466D01*
X464649Y771466D01*
X464476Y770713D01*
X464477Y770711D01*
X464476Y770710D01*
X464475Y769938D01*
X464475Y754697D01*
X464476Y753925D01*
X464477Y753924D01*
X464476Y753922D01*
X464649Y753169D01*
X464651Y753168D01*
X464650Y753167D01*
X464986Y752471D01*
X464988Y752471D01*
X464988Y752469D01*
X465470Y751866D01*
X465472Y751865D01*
X465472Y751864D01*
X466077Y751383D01*
X466079Y751383D01*
X466079Y751382D01*
X466776Y751047D01*
X466778Y751048D01*
X466778Y751047D01*
X467532Y750876D01*
X467535Y750878D01*
X467537Y750876D01*
X468291Y751047D01*
G37*
G36*
X798491Y751047D02*
X798491Y751047D01*
X798492Y751048D01*
X798493Y751047D01*
X799190Y751382D01*
X799190Y751383D01*
X799192Y751383D01*
X799797Y751864D01*
X799797Y751866D01*
X799799Y751866D01*
X800281Y752469D01*
X800281Y752471D01*
X800283Y752471D01*
X800619Y753167D01*
X800618Y753169D01*
X800620Y753169D01*
X800793Y753922D01*
X800792Y753924D01*
X800793Y753925D01*
X800794Y754697D01*
X800794Y754698D01*
X800794Y769938D01*
X800793Y770710D01*
X800792Y770711D01*
X800793Y770713D01*
X800620Y771466D01*
X800618Y771467D01*
X800619Y771468D01*
X800283Y772164D01*
X800281Y772164D01*
X800281Y772166D01*
X799799Y772769D01*
X799797Y772770D01*
X799797Y772771D01*
X799192Y773252D01*
X799190Y773252D01*
X799190Y773253D01*
X798493Y773588D01*
X798491Y773587D01*
X798491Y773588D01*
X797737Y773759D01*
X797734Y773758D01*
X797732Y773759D01*
X796978Y773588D01*
X796977Y773587D01*
X796976Y773588D01*
X796279Y773253D01*
X796279Y773252D01*
X796277Y773252D01*
X795672Y772771D01*
X795672Y772769D01*
X795670Y772769D01*
X795188Y772166D01*
X795188Y772164D01*
X795186Y772164D01*
X794850Y771468D01*
X794851Y771466D01*
X794849Y771466D01*
X794676Y770713D01*
X794677Y770711D01*
X794676Y770710D01*
X794675Y769938D01*
X794675Y754697D01*
X794676Y753925D01*
X794677Y753924D01*
X794676Y753922D01*
X794849Y753169D01*
X794851Y753168D01*
X794850Y753167D01*
X795186Y752471D01*
X795188Y752471D01*
X795188Y752469D01*
X795670Y751866D01*
X795672Y751865D01*
X795672Y751864D01*
X796277Y751383D01*
X796279Y751383D01*
X796279Y751382D01*
X796976Y751047D01*
X796978Y751048D01*
X796978Y751047D01*
X797732Y750876D01*
X797735Y750878D01*
X797737Y750876D01*
X798491Y751047D01*
G37*
G36*
X345101Y687293D02*
X345101Y687293D01*
X345102Y687294D01*
X345103Y687293D01*
X345800Y687628D01*
X345800Y687629D01*
X345802Y687629D01*
X346407Y688110D01*
X346407Y688112D01*
X346409Y688112D01*
X346891Y688715D01*
X346891Y688717D01*
X346893Y688717D01*
X347229Y689413D01*
X347228Y689415D01*
X347230Y689415D01*
X347403Y690168D01*
X347402Y690170D01*
X347403Y690171D01*
X347404Y690943D01*
X347404Y690944D01*
X347404Y706184D01*
X347403Y706956D01*
X347402Y706957D01*
X347403Y706959D01*
X347230Y707712D01*
X347228Y707713D01*
X347229Y707714D01*
X346893Y708410D01*
X346891Y708410D01*
X346891Y708412D01*
X346409Y709015D01*
X346407Y709016D01*
X346407Y709017D01*
X345802Y709498D01*
X345800Y709498D01*
X345800Y709499D01*
X345103Y709834D01*
X345101Y709833D01*
X345101Y709834D01*
X344347Y710005D01*
X344344Y710004D01*
X344342Y710005D01*
X343588Y709834D01*
X343587Y709833D01*
X343586Y709834D01*
X342889Y709499D01*
X342889Y709498D01*
X342887Y709498D01*
X342282Y709017D01*
X342282Y709015D01*
X342280Y709015D01*
X341798Y708412D01*
X341798Y708410D01*
X341796Y708410D01*
X341460Y707714D01*
X341461Y707712D01*
X341459Y707712D01*
X341286Y706959D01*
X341287Y706957D01*
X341286Y706956D01*
X341285Y706184D01*
X341285Y690943D01*
X341286Y690171D01*
X341287Y690170D01*
X341286Y690168D01*
X341459Y689415D01*
X341461Y689414D01*
X341460Y689413D01*
X341796Y688717D01*
X341798Y688717D01*
X341798Y688715D01*
X342280Y688112D01*
X342282Y688111D01*
X342282Y688110D01*
X342887Y687629D01*
X342889Y687629D01*
X342889Y687628D01*
X343586Y687293D01*
X343588Y687294D01*
X343588Y687293D01*
X344342Y687122D01*
X344345Y687124D01*
X344347Y687122D01*
X345101Y687293D01*
G37*
G36*
X468291Y687547D02*
X468291Y687547D01*
X468292Y687548D01*
X468293Y687547D01*
X468990Y687882D01*
X468990Y687883D01*
X468992Y687883D01*
X469597Y688364D01*
X469597Y688366D01*
X469599Y688366D01*
X470081Y688969D01*
X470081Y688971D01*
X470083Y688971D01*
X470419Y689667D01*
X470418Y689669D01*
X470420Y689669D01*
X470593Y690422D01*
X470592Y690424D01*
X470593Y690425D01*
X470594Y691197D01*
X470594Y691198D01*
X470594Y706438D01*
X470593Y707210D01*
X470592Y707211D01*
X470593Y707213D01*
X470420Y707966D01*
X470418Y707967D01*
X470419Y707968D01*
X470083Y708664D01*
X470081Y708664D01*
X470081Y708666D01*
X469599Y709269D01*
X469597Y709270D01*
X469597Y709271D01*
X468992Y709752D01*
X468990Y709752D01*
X468990Y709753D01*
X468293Y710088D01*
X468291Y710087D01*
X468291Y710088D01*
X467537Y710259D01*
X467534Y710258D01*
X467532Y710259D01*
X466778Y710088D01*
X466777Y710087D01*
X466776Y710088D01*
X466079Y709753D01*
X466079Y709752D01*
X466077Y709752D01*
X465472Y709271D01*
X465472Y709269D01*
X465470Y709269D01*
X464988Y708666D01*
X464988Y708664D01*
X464986Y708664D01*
X464650Y707968D01*
X464651Y707966D01*
X464649Y707966D01*
X464476Y707213D01*
X464477Y707211D01*
X464476Y707210D01*
X464475Y706438D01*
X464475Y691197D01*
X464476Y690425D01*
X464477Y690424D01*
X464476Y690422D01*
X464649Y689669D01*
X464651Y689668D01*
X464650Y689667D01*
X464986Y688971D01*
X464988Y688971D01*
X464988Y688969D01*
X465470Y688366D01*
X465472Y688365D01*
X465472Y688364D01*
X466077Y687883D01*
X466079Y687883D01*
X466079Y687882D01*
X466776Y687547D01*
X466778Y687548D01*
X466778Y687547D01*
X467532Y687376D01*
X467535Y687378D01*
X467537Y687376D01*
X468291Y687547D01*
G37*
G36*
X180001Y687293D02*
X180001Y687293D01*
X180002Y687294D01*
X180003Y687293D01*
X180700Y687628D01*
X180700Y687629D01*
X180702Y687629D01*
X181307Y688110D01*
X181307Y688112D01*
X181309Y688112D01*
X181791Y688715D01*
X181791Y688717D01*
X181793Y688717D01*
X182129Y689413D01*
X182128Y689415D01*
X182130Y689415D01*
X182303Y690168D01*
X182302Y690170D01*
X182303Y690171D01*
X182304Y690943D01*
X182304Y690944D01*
X182304Y706184D01*
X182303Y706956D01*
X182302Y706957D01*
X182303Y706959D01*
X182130Y707712D01*
X182128Y707713D01*
X182129Y707714D01*
X181793Y708410D01*
X181791Y708410D01*
X181791Y708412D01*
X181309Y709015D01*
X181307Y709016D01*
X181307Y709017D01*
X180702Y709498D01*
X180700Y709498D01*
X180700Y709499D01*
X180003Y709834D01*
X180001Y709833D01*
X180001Y709834D01*
X179247Y710005D01*
X179244Y710004D01*
X179242Y710005D01*
X178488Y709834D01*
X178487Y709833D01*
X178486Y709834D01*
X177789Y709499D01*
X177789Y709498D01*
X177787Y709498D01*
X177182Y709017D01*
X177182Y709015D01*
X177180Y709015D01*
X176698Y708412D01*
X176698Y708410D01*
X176696Y708410D01*
X176360Y707714D01*
X176361Y707712D01*
X176359Y707712D01*
X176186Y706959D01*
X176187Y706957D01*
X176186Y706956D01*
X176185Y706184D01*
X176185Y690943D01*
X176186Y690171D01*
X176187Y690170D01*
X176186Y690168D01*
X176359Y689415D01*
X176361Y689414D01*
X176360Y689413D01*
X176696Y688717D01*
X176698Y688717D01*
X176698Y688715D01*
X177180Y688112D01*
X177182Y688111D01*
X177182Y688110D01*
X177787Y687629D01*
X177789Y687629D01*
X177789Y687628D01*
X178486Y687293D01*
X178488Y687294D01*
X178488Y687293D01*
X179242Y687122D01*
X179245Y687124D01*
X179247Y687122D01*
X180001Y687293D01*
G37*
M02*
