(footprint "DIODE_ZDIO-5" (version 20211014) (generator pcbnew)
  (layer "F.Cu")
  (tedit 0)
  (descr "<b>Z DIODE</b>")
  (fp_text reference "REF**" (at 0.0508 -2.4638) (layer "F.SilkS")
    (effects (font (size 0.68 0.68) (thickness 0.12)))
    (tstamp 34bb2d5a-a1fd-4187-b623-25a5b805199b)
  )
  (fp_text value ">VALUE" (at 0 2.413) (layer "F.Fab")
    (effects (font (size 0.68 0.68) (thickness 0.12)))
    (tstamp 066893ee-f587-4ad1-a5e3-e3171a7f7252)
  )
  (fp_line (start 0 -1.27) (end -1.27 -1.27) (layer "F.SilkS") (width 0.254) (tstamp 2c8a20bd-e92e-46ff-b900-260ee00ab04b))
  (fp_line (start -1.27 0) (end 1.27 -1.27) (layer "F.SilkS") (width 0.254) (tstamp 3223d5c1-12ae-4383-9a3d-a77618f00732))
  (fp_line (start 1.27 -1.27) (end 1.27 0) (layer "F.SilkS") (width 0.254) (tstamp 4969850b-ae26-4ccb-823e-8fd7d1c082fe))
  (fp_line (start 1.27 1.27) (end -1.27 0) (layer "F.SilkS") (width 0.254) (tstamp 73892a2a-cb53-43a4-8e7c-751de25d1e29))
  (fp_line (start 1.27 0) (end 1.27 1.27) (layer "F.SilkS") (width 0.254) (tstamp 7c1fd6fc-5c53-4ccb-a456-46fe6fc0bc71))
  (fp_line (start -1.27 -1.27) (end -1.27 0) (layer "F.SilkS") (width 0.254) (tstamp 7e038545-c5a5-4131-a49e-7b5043e7ec34))
  (fp_line (start 1.27 0) (end 1.651 0) (layer "F.SilkS") (width 0.254) (tstamp 9cb0289b-897f-4a33-9575-6ead0989832a))
  (fp_line (start -1.27 1.27) (end -2.54 1.27) (layer "F.SilkS") (width 0.254) (tstamp a49f7437-7605-4a08-b3ab-0ea16e8bc6c8))
  (fp_line (start -1.27 0) (end -1.27 1.27) (layer "F.SilkS") (width 0.254) (tstamp bd3e3af4-a5b8-4e4b-95b1-3c69a267c242))
  (fp_line (start -1.651 0) (end -1.27 0) (layer "F.SilkS") (width 0.254) (tstamp dbe6edc1-ee1c-41ad-b94e-6a468b80b874))
  (pad "A" thru_hole roundrect (at 2.54 0) (size 1.3208 1.3208) (drill 0.8128) (layers *.Cu *.Mask) (roundrect_rratio 0.25)
    (chamfer_ratio 0.25) (chamfer top_left top_right bottom_left bottom_right)
    (solder_mask_margin 0.1016) (tstamp 1675ce03-54b6-4252-90b1-150b2d4729ec))
  (pad "C" thru_hole roundrect (at -2.54 0) (size 1.3208 1.3208) (drill 0.8128) (layers *.Cu *.Mask) (roundrect_rratio 0.25)
    (chamfer_ratio 0.25) (chamfer top_left top_right bottom_left bottom_right)
    (solder_mask_margin 0.1016) (tstamp daa8252e-3760-4210-b0ae-513325376d6c))
)
