(footprint "POT_ALPHA" (version 20211014) (generator pcbnew)
  (layer "F.Cu")
  (tedit 0)
  (fp_text reference "REF**" (at 0.072 -11.7065) (layer "F.SilkS")
    (effects (font (size 0.68 0.68) (thickness 0.12)))
    (tstamp ba54b977-6e85-4849-863a-8aba90c0983f)
  )
  (fp_text value ">VALUE" (at 0.072 -2.523) (layer "F.SilkS")
    (effects (font (size 0.68 0.68) (thickness 0.12)))
    (tstamp 7b0b2e9d-7b62-4d86-ba92-8de66c2be81f)
  )
  (fp_line (start -2.2225 -9.2) (end 2.2225 -9.2) (layer "F.SilkS") (width 0.1524) (tstamp 4035093c-8c14-4085-bfea-fcb41c163f69))
  (fp_line (start 5.08 0) (end 5.08 -5.08) (layer "F.SilkS") (width 0.127) (tstamp 56b75d3c-fa69-4f57-9aa5-64cfbf200c32))
  (fp_line (start 5.08 -8.89) (end 5.08 -12.5) (layer "F.SilkS") (width 0.127) (tstamp 7614d1b3-3ead-4914-90b1-e5e05187dd06))
  (fp_line (start -5.08 -5.08) (end -5.08 0) (layer "F.SilkS") (width 0.127) (tstamp 7ab2c56a-308f-45dd-b534-f28d44e59352))
  (fp_line (start 5 -12.5) (end -5 -12.5) (layer "F.SilkS") (width 0.127) (tstamp 8d258870-19f3-4d71-9a3d-1390358a4e5a))
  (fp_line (start -5.08 0) (end -3.73 0) (layer "F.SilkS") (width 0.127) (tstamp afd59d07-bfd6-4bc9-8176-e0ddec1872a1))
  (fp_line (start -5.08 -12.5) (end -5.08 -8.89) (layer "F.SilkS") (width 0.127) (tstamp ddb83956-0781-4967-adf3-cb27a82b32ef))
  (fp_line (start 3.73 0) (end 5.08 0) (layer "F.SilkS") (width 0.127) (tstamp e525b640-a490-46b0-aa2a-5838f1d12b7d))
  (fp_line (start 5.08 -12.5) (end 5 -12.5) (layer "F.SilkS") (width 0.127) (tstamp f2d404b6-1993-4de0-b78d-3ca9612287c7))
  (fp_line (start -5 -12.5) (end -5.08 -12.5) (layer "F.SilkS") (width 0.127) (tstamp f80a85fd-e6d4-41d6-ba9f-12f575651e85))
  (fp_circle (center 0 -7) (end 3.5 -7) (layer "F.SilkS") (width 0.1524) (fill none) (tstamp 58518ef0-9375-45b7-b518-1100f14f6963))
  (fp_circle (center 0 -7) (end 3.190834 -7) (layer "F.SilkS") (width 0.1524) (fill none) (tstamp 94865570-11cc-4b49-8ee4-db024780b3ae))
  (fp_poly (pts
      (xy -3.81 0.9144)
      (xy 3.81 0.9144)
      (xy 3.81 0.0254)
      (xy -3.81 0.0254)
    ) (layer "F.CrtYd") (width 0) (fill solid) (tstamp 39549a53-fe72-4509-a12d-de170bbf0433))
  (fp_poly (pts
      (xy -5.3594 -9.017)
      (xy -5.1308 -9.017)
      (xy -5.1308 -10.2362)
      (xy -5.3594 -10.2362)
    ) (layer "F.CrtYd") (width 0) (fill solid) (tstamp 5841a60a-7434-4694-9b2f-60c2321b8bd0))
  (fp_poly (pts
      (xy -5.1308 0.0254)
      (xy 5.1054 0.0254)
      (xy 5.1054 -12.5476)
      (xy -5.1308 -12.5476)
    ) (layer "F.CrtYd") (width 0) (fill solid) (tstamp 71c1b4b1-fe29-4ef4-89f5-de4386e105a9))
  (fp_poly (pts
      (xy 5.1054 -3.7592)
      (xy 5.334 -3.7592)
      (xy 5.334 -4.9784)
      (xy 5.1054 -4.9784)
    ) (layer "F.CrtYd") (width 0) (fill solid) (tstamp 8fecaef3-3ec3-48db-b92b-42aba82b3c34))
  (fp_poly (pts
      (xy 5.1054 -9.017)
      (xy 5.334 -9.017)
      (xy 5.334 -10.2362)
      (xy 5.1054 -10.2362)
    ) (layer "F.CrtYd") (width 0) (fill solid) (tstamp 94f92a53-a887-4e67-921d-9685969e3c14))
  (fp_poly (pts
      (xy -5.3594 -3.7592)
      (xy -5.1308 -3.7592)
      (xy -5.1308 -4.9784)
      (xy -5.3594 -4.9784)
    ) (layer "F.CrtYd") (width 0) (fill solid) (tstamp a07f1e79-1d7d-4a07-b840-3da61e06e5e0))
  (pad "1" thru_hole circle (at -2.5 0 180) (size 1.4224 1.4224) (drill 0.9) (layers *.Cu *.Mask)
    (solder_mask_margin 0.1016) (tstamp f254f8e4-0eca-46a4-a3de-477f70bd6ec4))
  (pad "2" thru_hole circle (at 0 0 180) (size 1.4224 1.4224) (drill 0.9) (layers *.Cu *.Mask)
    (solder_mask_margin 0.1016) (tstamp 4ed59335-4075-4e12-a596-bab87aafc796))
  (pad "3" thru_hole circle (at 2.5 0 180) (size 1.4224 1.4224) (drill 0.9) (layers *.Cu *.Mask)
    (solder_mask_margin 0.1016) (tstamp 389820b3-dc0f-41a8-9487-f37594ec848d))
  (pad "P$1" thru_hole oval (at -5.5 -7 90) (size 3.2 1.6) (drill 0.6) (layers *.Cu *.Mask)
    (solder_mask_margin 0.1016) (tstamp 75fcab2b-759b-4221-b3ed-5bcbea1afb05))
  (pad "P$2" thru_hole oval (at 5.5 -7 90) (size 3.2 1.6) (drill 0.6) (layers *.Cu *.Mask)
    (solder_mask_margin 0.1016) (tstamp 4cb674e3-7fd0-4bdf-83d4-7b2424e2e5c0))
)
