(footprint "PWR_CON_WITHOUT_LABLES" (version 20211014) (generator pcbnew)
  (layer "F.Cu")
  (tedit 0)
  (fp_text reference "REF**" (at 0 0) (layer "F.SilkS")
    (effects (font (size 1.27 1.27) (thickness 0.15)))
    (tstamp c61a2d85-d3d7-4faf-9bef-d07618588ca0)
  )
  (fp_text value "" (at 0 0) (layer "F.SilkS")
    (effects (font (size 1.27 1.27) (thickness 0.15)))
    (tstamp 570b0686-0fc3-46c1-be51-39569bba54ce)
  )
  (fp_line (start 1.905 -1.27) (end 2.54 -0.635) (layer "F.SilkS") (width 0.1524) (tstamp 06691abe-4a61-4d84-ab64-63ace23bf8b5))
  (fp_line (start -2.54 -0.635) (end -2.54 0.635) (layer "F.SilkS") (width 0.1524) (tstamp 0e39e32b-7468-4f6e-a6f0-b54d61a16933))
  (fp_line (start 2.54 1.905) (end 2.54 3.175) (layer "F.SilkS") (width 0.1524) (tstamp 1b73c962-e471-4ec3-ab97-9114c97a5609))
  (fp_line (start 1.905 -6.35) (end 2.54 -5.715) (layer "F.SilkS") (width 0.1524) (tstamp 21491966-3c4c-414a-8ddc-0c7176ddff87))
  (fp_line (start 1.905 1.27) (end 2.54 1.905) (layer "F.SilkS") (width 0.1524) (tstamp 24e41c56-597e-4023-adfa-f1d5bfd2a519))
  (fp_line (start -1.905 1.27) (end -2.54 1.905) (layer "F.SilkS") (width 0.1524) (tstamp 363809f4-b895-434e-8ee8-f8b8fb35d4fe))
  (fp_line (start 2.54 -3.175) (end 2.54 -1.905) (layer "F.SilkS") (width 0.1524) (tstamp 3e6949fd-a9d6-4530-9145-d07c13ad2635))
  (fp_line (start 1.905 3.81) (end -1.905 3.81) (layer "F.SilkS") (width 0.1524) (tstamp 40b12084-e9ea-4a47-a64f-d44ca516c9e8))
  (fp_line (start 2.54 -5.715) (end 2.54 -4.445) (layer "F.SilkS") (width 0.1524) (tstamp 4159a1b3-645b-4fcf-a72d-9242b2067a63))
  (fp_line (start -2.54 5.715) (end -1.905 6.35) (layer "F.SilkS") (width 0.1524) (tstamp 486e42a8-ccd7-4296-b46d-c1c0b1981be4))
  (fp_line (start -2.54 0.635) (end -1.905 1.27) (layer "F.SilkS") (width 0.1524) (tstamp 49956dd5-35c0-4b9f-8b2a-6f2b8918bd8c))
  (fp_line (start 1.905 3.81) (end 2.54 4.445) (layer "F.SilkS") (width 0.1524) (tstamp 49b6beb3-5d64-4af2-830b-e99a8a5ac007))
  (fp_line (start 2.54 5.715) (end 1.905 6.35) (layer "F.SilkS") (width 0.1524) (tstamp 4b8ea754-7305-433d-91ba-90a4340e15a7))
  (fp_line (start 2.54 0.635) (end 1.905 1.27) (layer "F.SilkS") (width 0.1524) (tstamp 5632ff9d-82e3-45b5-a86b-5a4683beef51))
  (fp_line (start -2.54 1.905) (end -2.54 3.175) (layer "F.SilkS") (width 0.1524) (tstamp 564c737a-c22b-400c-8665-990100e2bad2))
  (fp_line (start -2.54 -5.715) (end -2.54 -4.445) (layer "F.SilkS") (width 0.1524) (tstamp 565082b3-06ce-46fa-857c-fecdf53c89f1))
  (fp_line (start 1.905 -1.27) (end -1.905 -1.27) (layer "F.SilkS") (width 0.1524) (tstamp 5c080aa7-74cc-491d-a4fa-a35e9d41b2a9))
  (fp_line (start -2.54 4.445) (end -2.54 5.715) (layer "F.SilkS") (width 0.1524) (tstamp 78e707fb-3e9a-4f67-9527-ee34cdefd91a))
  (fp_line (start 1.905 1.27) (end -1.905 1.27) (layer "F.SilkS") (width 0.1524) (tstamp 79094860-9de1-4089-9ad1-fb708c7e674c))
  (fp_line (start -2.54 3.175) (end -1.905 3.81) (layer "F.SilkS") (width 0.1524) (tstamp 791a5e22-eefd-4c9f-8145-64da9c193893))
  (fp_line (start -1.905 -6.35) (end -2.54 -5.715) (layer "F.SilkS") (width 0.1524) (tstamp 7cc91655-208f-4c40-986f-00fd054b4b29))
  (fp_line (start -1.905 -6.35) (end 1.905 -6.35) (layer "F.SilkS") (width 0.1524) (tstamp 7d6a83ee-b39d-480d-9568-6e909628ec27))
  (fp_line (start -1.905 3.81) (end -2.54 4.445) (layer "F.SilkS") (width 0.1524) (tstamp 7db41bda-359c-420f-bdf5-221e6a8efd3d))
  (fp_line (start 2.54 4.445) (end 2.54 5.715) (layer "F.SilkS") (width 0.1524) (tstamp 7fd7cb09-496d-4f85-a95b-f531a0ea6ec8))
  (fp_line (start -1.905 -1.27) (end -2.54 -0.635) (layer "F.SilkS") (width 0.1524) (tstamp a5129eb7-d259-4824-8f60-442feba02c79))
  (fp_line (start 1.905 6.35) (end -1.905 6.35) (layer "F.SilkS") (width 0.1524) (tstamp b5c8a737-214c-4638-bb5c-b013b02f97ab))
  (fp_line (start -2.54 6.985) (end 2.54 6.985) (layer "F.SilkS") (width 0.6096) (tstamp b67db6fb-e010-4837-9b46-419c0d446aba))
  (fp_line (start 2.54 -1.905) (end 1.905 -1.27) (layer "F.SilkS") (width 0.1524) (tstamp be78c320-66c9-47db-84c6-e07682b2c3ee))
  (fp_line (start 1.905 -3.81) (end 2.54 -3.175) (layer "F.SilkS") (width 0.1524) (tstamp c5ed04ff-a810-4989-b637-8cc763ae2ab6))
  (fp_line (start -2.54 -3.175) (end -2.54 -1.905) (layer "F.SilkS") (width 0.1524) (tstamp c83a95be-f351-410b-916d-b5948688be99))
  (fp_line (start -2.54 -4.445) (end -1.905 -3.81) (layer "F.SilkS") (width 0.1524) (tstamp ce824579-a256-4757-8547-32bf1db63637))
  (fp_line (start 2.54 -4.445) (end 1.905 -3.81) (layer "F.SilkS") (width 0.1524) (tstamp d7b44d07-2cb6-4c10-bad9-adf2185ee6fd))
  (fp_line (start 2.54 -0.635) (end 2.54 0.635) (layer "F.SilkS") (width 0.1524) (tstamp e41ebddf-cb62-48cb-abb2-1cc22a5eecdd))
  (fp_line (start -2.54 -1.905) (end -1.905 -1.27) (layer "F.SilkS") (width 0.1524) (tstamp e567c545-204a-4e4a-bfa9-ae48e2366f9a))
  (fp_line (start 2.54 3.175) (end 1.905 3.81) (layer "F.SilkS") (width 0.1524) (tstamp e5ef96dd-e14b-40bb-acac-746f5d3aee37))
  (fp_line (start -1.905 -3.81) (end -2.54 -3.175) (layer "F.SilkS") (width 0.1524) (tstamp f66b82ab-c203-4cb4-84ea-abcb2cd50a9c))
  (fp_line (start 1.905 -3.81) (end -1.905 -3.81) (layer "F.SilkS") (width 0.1524) (tstamp fb7d0d2c-09e5-46e0-8091-1901472a84d1))
  (fp_poly (pts
      (xy 1.016 5.334)
      (xy 1.524 5.334)
      (xy 1.524 4.826)
      (xy 1.016 4.826)
    ) (layer "F.Fab") (width 0) (fill solid) (tstamp 0739a502-7fa1-4e85-8cae-604fd21c9156))
  (fp_poly (pts
      (xy -1.524 -2.286)
      (xy -1.016 -2.286)
      (xy -1.016 -2.794)
      (xy -1.524 -2.794)
    ) (layer "F.Fab") (width 0) (fill solid) (tstamp 34f20938-82be-4faa-a3bd-ea4ff60955a6))
  (fp_poly (pts
      (xy -1.524 2.794)
      (xy -1.016 2.794)
      (xy -1.016 2.286)
      (xy -1.524 2.286)
    ) (layer "F.Fab") (width 0) (fill solid) (tstamp 7de04273-7eda-4419-ad6c-938bfee9f2d2))
  (fp_poly (pts
      (xy 1.016 -4.826)
      (xy 1.524 -4.826)
      (xy 1.524 -5.334)
      (xy 1.016 -5.334)
    ) (layer "F.Fab") (width 0) (fill solid) (tstamp 99187cb6-681b-4886-9fc6-864207b7616f))
  (fp_poly (pts
      (xy -1.524 5.334)
      (xy -1.016 5.334)
      (xy -1.016 4.826)
      (xy -1.524 4.826)
    ) (layer "F.Fab") (width 0) (fill solid) (tstamp baa2bb27-3ff4-481e-b331-7cfee71362fe))
  (fp_poly (pts
      (xy -1.524 -4.826)
      (xy -1.016 -4.826)
      (xy -1.016 -5.334)
      (xy -1.524 -5.334)
    ) (layer "F.Fab") (width 0) (fill solid) (tstamp bb857b3f-cfd2-48ea-8ae4-988435afb17f))
  (fp_poly (pts
      (xy -1.524 0.254)
      (xy -1.016 0.254)
      (xy -1.016 -0.254)
      (xy -1.524 -0.254)
    ) (layer "F.Fab") (width 0) (fill solid) (tstamp dc463df2-2692-4a08-9d95-1a693251e4f0))
  (fp_poly (pts
      (xy 1.016 -2.286)
      (xy 1.524 -2.286)
      (xy 1.524 -2.794)
      (xy 1.016 -2.794)
    ) (layer "F.Fab") (width 0) (fill solid) (tstamp e60f5c1d-c97e-4327-8023-b78c1d20bdfb))
  (fp_poly (pts
      (xy 1.016 0.254)
      (xy 1.524 0.254)
      (xy 1.524 -0.254)
      (xy 1.016 -0.254)
    ) (layer "F.Fab") (width 0) (fill solid) (tstamp e93f1ff9-82cc-426b-b31b-274f08cc4327))
  (fp_poly (pts
      (xy 1.016 2.794)
      (xy 1.524 2.794)
      (xy 1.524 2.286)
      (xy 1.016 2.286)
    ) (layer "F.Fab") (width 0) (fill solid) (tstamp f42c2843-70f0-463a-bc38-eee11dd73b5f))
  (pad "1" thru_hole roundrect (at -1.27 -4.903787 270) (size 1.6764 1.6764) (drill 1.016) (layers *.Cu *.Mask) (roundrect_rratio 0.25)
    (chamfer_ratio 0.25) (chamfer top_left top_right bottom_left bottom_right)
    (solder_mask_margin 0.1016) (tstamp c435621a-1e7b-4aea-a701-d5d27a54bd0d))
  (pad "2" thru_hole roundrect (at 1.27 -4.903787 270) (size 1.6764 1.6764) (drill 1.016) (layers *.Cu *.Mask) (roundrect_rratio 0.25)
    (chamfer_ratio 0.25) (chamfer top_left top_right bottom_left bottom_right)
    (solder_mask_margin 0.1016) (tstamp 72635b6d-f5d1-44fe-86b5-9bebc2da5d46))
  (pad "3" thru_hole roundrect (at -1.27 -2.54 270) (size 1.6764 1.6764) (drill 1.016) (layers *.Cu *.Mask) (roundrect_rratio 0.25)
    (chamfer_ratio 0.25) (chamfer top_left top_right bottom_left bottom_right)
    (solder_mask_margin 0.1016) (tstamp 0ece2b87-02c1-4250-9204-efdee0b5a9d0))
  (pad "4" thru_hole roundrect (at 1.27 -2.54 270) (size 1.6764 1.6764) (drill 1.016) (layers *.Cu *.Mask) (roundrect_rratio 0.25)
    (chamfer_ratio 0.25) (chamfer top_left top_right bottom_left bottom_right)
    (solder_mask_margin 0.1016) (tstamp 3fcf515a-b2e5-4769-a263-706606d34687))
  (pad "5" thru_hole roundrect (at -1.27 0 270) (size 1.6764 1.6764) (drill 1.016) (layers *.Cu *.Mask) (roundrect_rratio 0.25)
    (chamfer_ratio 0.25) (chamfer top_left top_right bottom_left bottom_right)
    (solder_mask_margin 0.1016) (tstamp 70791199-43db-4ae1-bf3d-59e94aad8d59))
  (pad "6" thru_hole roundrect (at 1.27 0 270) (size 1.6764 1.6764) (drill 1.016) (layers *.Cu *.Mask) (roundrect_rratio 0.25)
    (chamfer_ratio 0.25) (chamfer top_left top_right bottom_left bottom_right)
    (solder_mask_margin 0.1016) (tstamp e26f0b22-8514-418f-977b-cb0a9761b0f5))
  (pad "7" thru_hole roundrect (at -1.27 2.54 270) (size 1.6764 1.6764) (drill 1.016) (layers *.Cu *.Mask) (roundrect_rratio 0.25)
    (chamfer_ratio 0.25) (chamfer top_left top_right bottom_left bottom_right)
    (solder_mask_margin 0.1016) (tstamp 437daa66-7365-482e-804c-8098c6a0905c))
  (pad "8" thru_hole roundrect (at 1.27 2.54 270) (size 1.6764 1.6764) (drill 1.016) (layers *.Cu *.Mask) (roundrect_rratio 0.25)
    (chamfer_ratio 0.25) (chamfer top_left top_right bottom_left bottom_right)
    (solder_mask_margin 0.1016) (tstamp 311a70eb-5859-4da6-8fe4-344b06368e0f))
  (pad "9" thru_hole roundrect (at -1.27 4.903787 270) (size 1.6764 1.6764) (drill 1.016) (layers *.Cu *.Mask) (roundrect_rratio 0.25)
    (chamfer_ratio 0.25) (chamfer top_left top_right bottom_left bottom_right)
    (solder_mask_margin 0.1016) (tstamp cdb2878b-f702-4635-9e4c-1cc8cfe5a84c))
  (pad "10" thru_hole roundrect (at 1.27 4.903787 270) (size 1.6764 1.6764) (drill 1.016) (layers *.Cu *.Mask) (roundrect_rratio 0.25)
    (chamfer_ratio 0.25) (chamfer top_left top_right bottom_left bottom_right)
    (solder_mask_margin 0.1016) (tstamp cd74d053-e62a-45a3-9f24-631862f85655))
)
