(footprint "TEENSY_3.0-3.2&LC_DIL" (version 20211014) (generator pcbnew)
  (layer "F.Cu")
  (tedit 0)
  (fp_text reference "REF**" (at -3.81 -13.97) (layer "F.SilkS")
    (effects (font (size 1.1684 1.1684) (thickness 0.1016)) (justify left bottom))
    (tstamp 790aac60-8af7-4c8a-86b0-99f3fe64112a)
  )
  (fp_text value ">VALUE" (at -3.81 13.97) (layer "F.Fab")
    (effects (font (size 1.1684 1.1684) (thickness 0.1016)) (justify left bottom))
    (tstamp 5a9c0dbe-9c68-4f1b-bb8c-18e35b87c9b2)
  )
  (fp_line (start -1.27 -16.51) (end 1.27 -16.51) (layer "F.SilkS") (width 0.2032) (tstamp 013a1c32-db17-4fdf-9087-65b8bebaf5c1))
  (fp_line (start 8.89 17.78) (end -8.89 17.78) (layer "F.SilkS") (width 0.2032) (tstamp 2bf34b7c-94ca-4ac8-94c5-6312536f342f))
  (fp_line (start 1.27 -17.78) (end 8.89 -17.78) (layer "F.SilkS") (width 0.2032) (tstamp 39f65f62-d48a-4aa3-a9a3-c17d058105fe))
  (fp_line (start -8.89 17.78) (end -8.89 -17.78) (layer "F.SilkS") (width 0.2032) (tstamp 61e795c9-5bb5-48b3-b7a0-cb64f04c7adc))
  (fp_line (start 8.89 -17.78) (end 8.89 17.78) (layer "F.SilkS") (width 0.2032) (tstamp 85762fc6-4dad-4d00-b3f3-d625c47e2b72))
  (fp_line (start -8.89 -17.78) (end -1.27 -17.78) (layer "F.SilkS") (width 0.2032) (tstamp ca12753c-a5f4-49a4-bb14-a01420a86edb))
  (fp_line (start 1.27 -16.51) (end 1.27 -17.78) (layer "F.SilkS") (width 0.2032) (tstamp d5316dab-96ab-4569-a34d-520f96a50c86))
  (fp_line (start -1.27 -17.78) (end -1.27 -16.51) (layer "F.SilkS") (width 0.2032) (tstamp eca73914-6f4b-487c-b8f6-6bedca0fa3fb))
  (fp_line (start 8.89 17.78) (end -8.89 17.78) (layer "F.Fab") (width 0.127) (tstamp 875404be-e359-458a-af29-1bd3403dd55f))
  (fp_line (start 8.89 -17.78) (end 8.89 17.78) (layer "F.Fab") (width 0.127) (tstamp aeef9f8f-2515-46d6-a613-4e8d98d0e468))
  (fp_line (start -8.89 -17.78) (end 8.89 -17.78) (layer "F.Fab") (width 0.127) (tstamp e5e03502-ed28-4743-9af6-23bafe8e639e))
  (fp_line (start -8.89 17.78) (end -8.89 -17.78) (layer "F.Fab") (width 0.127) (tstamp f683b564-906b-42f6-a233-cd22c58657dd))
  (pad "0" thru_hole circle (at -7.62 -13.97) (size 1.4732 1.4732) (drill 0.9652) (layers *.Cu *.Mask)
    (solder_mask_margin 0.1016) (tstamp 1e362064-1c5c-469c-8576-28390879d190))
  (pad "1" thru_hole circle (at -7.62 -11.43) (size 1.4732 1.4732) (drill 0.9652) (layers *.Cu *.Mask)
    (solder_mask_margin 0.1016) (tstamp dc419a21-b30b-44db-8d8a-272c5f8ad6c6))
  (pad "2" thru_hole circle (at -7.62 -8.89) (size 1.4732 1.4732) (drill 0.9652) (layers *.Cu *.Mask)
    (solder_mask_margin 0.1016) (tstamp a1f347f0-3fa4-4dbd-b2cf-d3082bc4e36a))
  (pad "3" thru_hole circle (at -7.62 -6.35) (size 1.4732 1.4732) (drill 0.9652) (layers *.Cu *.Mask)
    (solder_mask_margin 0.1016) (tstamp bba52ae1-2c60-4612-b640-b785ed4cdd7e))
  (pad "3.3V" thru_hole circle (at 7.62 -11.43) (size 1.4732 1.4732) (drill 0.9652) (layers *.Cu *.Mask)
    (solder_mask_margin 0.1016) (tstamp 815a0815-7930-45ec-8d6e-dc110f979c75))
  (pad "4" thru_hole circle (at -7.62 -3.81) (size 1.4732 1.4732) (drill 0.9652) (layers *.Cu *.Mask)
    (solder_mask_margin 0.1016) (tstamp b34ce9ce-d270-4842-8d95-94720e40d3ca))
  (pad "5" thru_hole circle (at -7.62 -1.27) (size 1.4732 1.4732) (drill 0.9652) (layers *.Cu *.Mask)
    (solder_mask_margin 0.1016) (tstamp f6c6b658-1bf6-4c26-b6a1-d4c107527951))
  (pad "6" thru_hole circle (at -7.62 1.27) (size 1.4732 1.4732) (drill 0.9652) (layers *.Cu *.Mask)
    (solder_mask_margin 0.1016) (tstamp 16ea365c-d7f5-4c44-b4c6-7d8ef461a0ca))
  (pad "7" thru_hole circle (at -7.62 3.81) (size 1.4732 1.4732) (drill 0.9652) (layers *.Cu *.Mask)
    (solder_mask_margin 0.1016) (tstamp 753c83e3-0e5d-49a7-99fa-14d791ee9328))
  (pad "8" thru_hole circle (at -7.62 6.35) (size 1.4732 1.4732) (drill 0.9652) (layers *.Cu *.Mask)
    (solder_mask_margin 0.1016) (tstamp 3191783e-5075-4348-8aac-846f923d21cb))
  (pad "9" thru_hole circle (at -7.62 8.89) (size 1.4732 1.4732) (drill 0.9652) (layers *.Cu *.Mask)
    (solder_mask_margin 0.1016) (tstamp 2d0a1cd4-a5be-46cc-a28f-17278e9b94e9))
  (pad "10" thru_hole circle (at -7.62 11.43) (size 1.4732 1.4732) (drill 0.9652) (layers *.Cu *.Mask)
    (solder_mask_margin 0.1016) (tstamp e04409c2-b3ba-460e-bddc-62e0044901c2))
  (pad "11" thru_hole circle (at -7.62 13.97) (size 1.4732 1.4732) (drill 0.9652) (layers *.Cu *.Mask)
    (solder_mask_margin 0.1016) (tstamp e42b8b80-020c-4fee-b000-fd91abf3966d))
  (pad "12" thru_hole circle (at -7.62 16.51) (size 1.4732 1.4732) (drill 0.9652) (layers *.Cu *.Mask)
    (solder_mask_margin 0.1016) (tstamp b4b8fad9-0954-4267-898b-11fce62b39de))
  (pad "13" thru_hole circle (at 7.62 16.51) (size 1.4732 1.4732) (drill 0.9652) (layers *.Cu *.Mask)
    (solder_mask_margin 0.1016) (tstamp 736f4bca-0539-488f-ab5b-c659fa9836b0))
  (pad "14/A0" thru_hole circle (at 7.62 13.97) (size 1.4732 1.4732) (drill 0.9652) (layers *.Cu *.Mask)
    (solder_mask_margin 0.1016) (tstamp e2d57c80-00fb-4077-9c97-5541d2825a6b))
  (pad "15/A1" thru_hole circle (at 7.62 11.43) (size 1.4732 1.4732) (drill 0.9652) (layers *.Cu *.Mask)
    (solder_mask_margin 0.1016) (tstamp dff28682-682a-4b0a-b26e-2014cb392df5))
  (pad "16/A2" thru_hole circle (at 7.62 8.89) (size 1.4732 1.4732) (drill 0.9652) (layers *.Cu *.Mask)
    (solder_mask_margin 0.1016) (tstamp 2d6a4f0e-aa68-4d44-9390-8ea258fa2bc4))
  (pad "17/A3" thru_hole circle (at 7.62 6.35) (size 1.4732 1.4732) (drill 0.9652) (layers *.Cu *.Mask)
    (solder_mask_margin 0.1016) (tstamp 2361ed9d-44ac-40c1-ab71-db1419d4ef87))
  (pad "18/A4" thru_hole circle (at 7.62 3.81) (size 1.4732 1.4732) (drill 0.9652) (layers *.Cu *.Mask)
    (solder_mask_margin 0.1016) (tstamp 4a8c099c-07ef-47db-b188-6f8b7978d1d4))
  (pad "19/A5" thru_hole circle (at 7.62 1.27) (size 1.4732 1.4732) (drill 0.9652) (layers *.Cu *.Mask)
    (solder_mask_margin 0.1016) (tstamp 31ae1ddb-55f8-4875-b94d-87a4d0c86414))
  (pad "20/A6" thru_hole circle (at 7.62 -1.27) (size 1.4732 1.4732) (drill 0.9652) (layers *.Cu *.Mask)
    (solder_mask_margin 0.1016) (tstamp 92ba8945-0271-4dc3-a102-541bc7646045))
  (pad "21/A7" thru_hole circle (at 7.62 -3.81) (size 1.4732 1.4732) (drill 0.9652) (layers *.Cu *.Mask)
    (solder_mask_margin 0.1016) (tstamp c8ce7d0f-bd8a-416c-9bb9-339f4090a830))
  (pad "22/A8" thru_hole circle (at 7.62 -6.35) (size 1.4732 1.4732) (drill 0.9652) (layers *.Cu *.Mask)
    (solder_mask_margin 0.1016) (tstamp 3a41f6b2-d64e-4fc9-9c78-62461e28f42c))
  (pad "23/A9" thru_hole circle (at 7.62 -8.89) (size 1.4732 1.4732) (drill 0.9652) (layers *.Cu *.Mask)
    (solder_mask_margin 0.1016) (tstamp fd2d066c-2ff9-43c4-ab8e-a65d2b71b5c1))
  (pad "AGND" thru_hole circle (at 7.62 -13.97) (size 1.4732 1.4732) (drill 0.9652) (layers *.Cu *.Mask)
    (solder_mask_margin 0.1016) (tstamp 539ff21e-64a5-4d0a-a3c6-87ad104f3729))
  (pad "GND" thru_hole circle (at -7.62 -16.51) (size 1.4732 1.4732) (drill 0.9652) (layers *.Cu *.Mask)
    (solder_mask_margin 0.1016) (tstamp 23425199-2ac8-404e-b295-8bb0276f526e))
  (pad "VIN" thru_hole circle (at 7.62 -16.51) (size 1.4732 1.4732) (drill 0.9652) (layers *.Cu *.Mask)
    (solder_mask_margin 0.1016) (tstamp 93340c38-8bfd-447a-bf60-be3c6dc860d9))
)
