(footprint "WQP-PJ366ST_JACK" (version 20211014) (generator pcbnew)
  (layer "F.Cu")
  (tedit 0)
  (fp_text reference "REF**" (at 4.5212 4.7244 180) (layer "F.SilkS")
    (effects (font (size 0.93472 0.93472) (thickness 0.08128)) (justify left bottom))
    (tstamp 86a6b9b9-3de3-44b4-b763-98233419d240)
  )
  (fp_text value "" (at 0 0) (layer "F.SilkS")
    (effects (font (size 1.27 1.27) (thickness 0.15)))
    (tstamp c645efa1-5cf3-4d27-be7a-303fdbabecd8)
  )
  (fp_line (start -3 2) (end -5 4) (layer "F.SilkS") (width 0.127) (tstamp 168a0226-3f44-46ec-a72a-15290137bd66))
  (fp_line (start -3 -6) (end -1 -6) (layer "F.SilkS") (width 0.127) (tstamp 17c7b03d-e4b9-4587-b2ce-0ee7a9d30575))
  (fp_line (start -1 -6) (end -5 -2) (layer "F.SilkS") (width 0.127) (tstamp 18406746-0f9d-4d88-9ef2-8423e08576f0))
  (fp_line (start -5 -6) (end -3 -6) (layer "F.SilkS") (width 0.127) (tstamp 2009ab3a-f4bf-4c63-a0fe-9d170c762787))
  (fp_line (start 3 4) (end 5 2) (layer "F.SilkS") (width 0.127) (tstamp 20ac7a70-5cb9-4418-b061-8e4ee8d36b79))
  (fp_line (start -5 -2) (end -5 -4) (layer "F.SilkS") (width 0.127) (tstamp 2798cc00-37db-458a-b5f8-bea65ae99be7))
  (fp_line (start 5 -2) (end 5 0) (layer "F.SilkS") (width 0.127) (tstamp 2926e945-d9e3-4a4e-9b51-aad244dc04f4))
  (fp_line (start 5 -6) (end 5 -4) (layer "F.SilkS") (width 0.127) (tstamp 334446cd-af18-48a8-bb73-a88f4d220620))
  (fp_line (start -1 -6) (end 3 -6) (layer "F.SilkS") (width 0.127) (tstamp 381ea437-8589-413a-8d00-c27a465a3773))
  (fp_line (start 5 0) (end 5 2) (layer "F.SilkS") (width 0.127) (tstamp 432045b0-7589-468b-8659-999ac30c51fa))
  (fp_line (start 5 2) (end 5 4.5) (layer "F.SilkS") (width 0.127) (tstamp 4d290f63-844a-4f7b-8aec-c610c29b1e2f))
  (fp_line (start -3 0) (end -5 2) (layer "F.SilkS") (width 0.127) (tstamp 54562a16-6662-4d1b-9b50-45ed0ae36481))
  (fp_line (start -5 -4) (end -3 -6) (layer "F.SilkS") (width 0.127) (tstamp 6f581e98-caac-4a3a-b0ed-76aab462e56a))
  (fp_line (start 3 -2) (end 5 -4) (layer "F.SilkS") (width 0.127) (tstamp 73b08644-febb-4c1e-9b8f-826cf4cd7348))
  (fp_line (start -5 0) (end -5 -2) (layer "F.SilkS") (width 0.127) (tstamp 92adc2a7-705f-4e7b-90a7-1c91d9f5977d))
  (fp_line (start 5 -4) (end 5 -2) (layer "F.SilkS") (width 0.127) (tstamp 978f5906-8b9c-49a6-9b77-25cbc28e396e))
  (fp_line (start -5 2) (end -5 0) (layer "F.SilkS") (width 0.127) (tstamp 9c1b71cf-44fe-4b7f-bf7f-4966704258c9))
  (fp_line (start -5 -4) (end -5 -6) (layer "F.SilkS") (width 0.127) (tstamp a54a2d51-4b66-4d14-b33d-1444b55de06d))
  (fp_line (start -5 4) (end -5 2) (layer "F.SilkS") (width 0.127) (tstamp bff35e53-0373-44e5-a0ce-05175bbecd57))
  (fp_line (start 3 2) (end 5 0) (layer "F.SilkS") (width 0.127) (tstamp d0823f78-79d3-470b-87e6-694e750395bc))
  (fp_line (start 3 -4) (end 5 -6) (layer "F.SilkS") (width 0.127) (tstamp dc50af72-15b3-4fb5-bf25-289e8b8f51f6))
  (fp_line (start -3 -2) (end -5 0) (layer "F.SilkS") (width 0.127) (tstamp dfdaa22a-0489-48da-8a56-737e4c4366e1))
  (fp_line (start -5 4.5) (end -5 4) (layer "F.SilkS") (width 0.127) (tstamp e085e529-431d-4fe9-aed9-287036ceabd6))
  (fp_line (start 3 -6) (end 1 -4) (layer "F.SilkS") (width 0.127) (tstamp e12ec3e8-0d5b-47b1-abb9-9b31a4bb451e))
  (fp_line (start 3 0) (end 5 -2) (layer "F.SilkS") (width 0.127) (tstamp f47ba0cc-ecae-4aef-a30d-acee22ce59db))
  (fp_line (start 3 -6) (end 5 -6) (layer "F.SilkS") (width 0.127) (tstamp f7eedf75-4d8e-4db5-a979-879f661d7288))
  (fp_line (start 5 4.5) (end -5 4.5) (layer "F.SilkS") (width 0.127) (tstamp fdd0a3ff-3d05-4dc5-8f2c-3aa967326c19))
  (fp_circle (center 0 0) (end 2.690721 0) (layer "F.SilkS") (width 0.127) (fill none) (tstamp 15ddbae8-4879-44da-8c42-497366b84781))
  (fp_poly (pts
      (xy -2.8 2.8)
      (xy 2.8 2.8)
      (xy 2.8 -2.8)
      (xy -2.8 -2.8)
    ) (layer "F.CrtYd") (width 0) (fill solid) (tstamp f84570f0-8f86-40f4-8c85-4d0ad12444b2))
  (fp_line (start -0.2 6.7) (end 0.2 6.7) (layer "F.Fab") (width 0.0508) (tstamp 0673bd15-bb27-42a3-b8dd-ff34de638161))
  (fp_line (start 1.5 -6) (end 5 -6) (layer "F.Fab") (width 0.0508) (tstamp 111c2bf6-9865-4ea4-a9f9-1702355a872d))
  (fp_line (start 0.2 4.5) (end 5 4.5) (layer "F.Fab") (width 0.0508) (tstamp 15328724-62c0-4c64-8165-7ba7fa235831))
  (fp_line (start 5 4.5) (end 5 -6) (layer "F.Fab") (width 0.0508) (tstamp 1fcbe337-d147-4e02-846e-7f1ec4528bd0))
  (fp_line (start -1.5 -4) (end 1.5 -4) (layer "F.Fab") (width 0.0508) (tstamp 34d6d782-5641-4526-b346-05de03ea8c0e))
  (fp_line (start -5 -6) (end -1.5 -6) (layer "F.Fab") (width 0.0508) (tstamp 446c08d7-8986-4d18-8f0f-30d613706dfc))
  (fp_line (start -1.5 -6) (end -1.5 -4) (layer "F.Fab") (width 0.0508) (tstamp 75080b0b-6140-45af-8605-622af6de8bea))
  (fp_line (start -0.2 4.6) (end -0.2 6.7) (layer "F.Fab") (width 0.0508) (tstamp 9098a6bf-eae0-4636-90c3-6c2f5d9401fd))
  (fp_line (start -1.5 -6) (end 1.5 -6) (layer "F.Fab") (width 0.0508) (tstamp d18dfc73-4f65-499b-85e8-0e65b03fabb2))
  (fp_line (start 0.2 6.7) (end 0.2 4.5) (layer "F.Fab") (width 0.0508) (tstamp d618158f-4184-4754-aa33-65a98e706342))
  (fp_line (start -5 -6) (end -5 4.5) (layer "F.Fab") (width 0.0508) (tstamp e0130066-f120-45ab-8ca4-de7cd402c362))
  (fp_line (start 1.5 -4) (end 1.5 -6) (layer "F.Fab") (width 0.0508) (tstamp e1a929c4-c484-4255-9524-8c224d1f6e73))
  (fp_line (start -5 4.5) (end 0.2 4.5) (layer "F.Fab") (width 0.0508) (tstamp f1353e9e-7eae-44e9-872c-ec11c41e5657))
  (pad "P$1_TIP" thru_hole circle (at 0 -5) (size 1.65 1.65) (drill 1.1) (layers *.Cu *.Mask)
    (solder_mask_margin 0.1016) (zone_connect 2) (tstamp 23a49e10-e7d0-41d9-a15a-25ac614cee99))
  (pad "P$2_SWITCH" thru_hole circle (at 0 3.5) (size 1.65 1.65) (drill 1.1) (layers *.Cu *.Mask)
    (solder_mask_margin 0.1016) (tstamp b8e9717b-c8d9-44dd-9eb5-d37e3b2c2fb5))
  (pad "P$3_SLEEVE" thru_hole circle (at 0 6.5) (size 1.65 1.65) (drill 1.1) (layers *.Cu *.Mask)
    (solder_mask_margin 0.1016) (tstamp 3d774050-1f75-473e-bdf5-d052504e6a25))
)
